 

…: %%… ,,w,,

 

   

     

?……£K…

     

Aun)… … &»…

iu»… …?…,…,.….……áyvéé………í£%í€ …3aí: é.…,á 5%&&x&……3?n%1&3……é.w5f%€é;í$£$ f£$$…ás,..…xw…uá

   

&2%Bñ&$uáé…

  
                 

…,a&aw,p.w&aw5x.

&M%€é3fáw%s$
. .…

 

 

¿,

         

……
…… _
%

. 1 4…w,x
fWM….W33X&

 

.6

: ºíá%á

……©……rá%m%…3£

 

 

   

, …4 » / ó< ,
% 4,4% Www ,, ,
if . ,
…A…¿3wf wM…3. …,.
., 2%… …á£….…,….€…
…»Nv
,

 

%% &….Q

%…

  

f,

 

