\relax 
\providecommand\hyper@newdestlabel[2]{}
\bibstyle{apalike}
\catcode `"\active 
\providecommand\HyperFirstAtBeginDocument{\AtBeginDocument}
\HyperFirstAtBeginDocument{\ifx\hyper@anchor\@undefined
\global\let\oldcontentsline\contentsline
\gdef\contentsline#1#2#3#4{\oldcontentsline{#1}{#2}{#3}}
\global\let\oldnewlabel\newlabel
\gdef\newlabel#1#2{\newlabelxx{#1}#2}
\gdef\newlabelxx#1#2#3#4#5#6{\oldnewlabel{#1}{{#2}{#3}}}
\AtEndDocument{\ifx\hyper@anchor\@undefined
\let\contentsline\oldcontentsline
\let\newlabel\oldnewlabel
\fi}
\fi}
\global\let\hyper@last\relax 
\gdef\HyperFirstAtBeginDocument#1{#1}
\providecommand\HyField@AuxAddToFields[1]{}
\providecommand\HyField@AuxAddToCoFields[2]{}
\select@language{basque}
\@writefile{toc}{\select@language{basque}}
\@writefile{lof}{\select@language{basque}}
\@writefile{lot}{\select@language{basque}}
\citation{wiki:OCR}
\@writefile{toc}{\contentsline {chapter}{Laburpena}{i}{chapter*.1}}
\@writefile{toc}{\contentsline {chapter}{Gaien aurkibidea}{iii}{chapter*.2}}
\@writefile{toc}{\contentsline {chapter}{Irudien aurkibidea}{vii}{chapter*.3}}
\@writefile{toc}{\contentsline {chapter}{Taulen aurkibidea}{xi}{chapter*.4}}
\@writefile{toc}{\contentsline {chapter}{\numberline {1}Sarrera}{1}{chapter.1}}
\@writefile{lof}{\addvspace {10\p@ }}
\@writefile{lot}{\addvspace {10\p@ }}
\@writefile{toc}{\contentsline {section}{\numberline {1.1}Motibazioa}{2}{section.1.1}}
\@writefile{toc}{\contentsline {chapter}{\numberline {2}Aurrekariak eta Teknologia}{3}{chapter.2}}
\@writefile{lof}{\addvspace {10\p@ }}
\@writefile{lot}{\addvspace {10\p@ }}
\@writefile{toc}{\contentsline {section}{\numberline {2.1}Irudien Tratamendua}{3}{section.2.1}}
\citation{kontrastea}
\citation{normalizazioa}
\@writefile{toc}{\contentsline {subsection}{\numberline {2.1.1}Irudien Transformazioak}{4}{subsection.2.1.1}}
\newlabel{sec:eraldaketak}{{2.1.1}{4}{Irudien Transformazioak}{subsection.2.1.1}{}}
\@writefile{toc}{\contentsline {subsubsection}{Kontrastea Aldatzea}{4}{subsubsection*.5}}
\newlabel{sec:kontrastea}{{2.1.1}{4}{Kontrastea Aldatzea}{subsubsection*.5}{}}
\@writefile{toc}{\contentsline {subsubsection}{Normalizazioa}{4}{subsubsection*.6}}
\newlabel{sec:normalizazioa}{{2.1.1}{4}{Normalizazioa}{subsubsection*.6}{}}
\citation{masterTesia}
\@writefile{toc}{\contentsline {subsubsection}{Negate}{5}{subsubsection*.7}}
\newlabel{sec:negate}{{2.1.1}{5}{Negate}{subsubsection*.7}{}}
\@writefile{toc}{\contentsline {subsubsection}{Ertzen Detekzioa}{5}{subsubsection*.8}}
\newlabel{sec:edge}{{2.1.1}{5}{Ertzen Detekzioa}{subsubsection*.8}{}}
\newlabel{sec:edgeCanny}{{2.1.1}{5}{Ertzen Detekzioa}{subsubsection*.8}{}}
\newlabel{sec:edgeKorrelazio}{{2.1.1}{5}{Ertzen Detekzioa}{subsubsection*.8}{}}
\citation{gauss}
\citation{lat}
\@writefile{toc}{\contentsline {subsubsection}{Gaussian-Blur}{6}{subsubsection*.9}}
\newlabel{sec:gauss}{{2.1.1}{6}{Gaussian-Blur}{subsubsection*.9}{}}
\@writefile{toc}{\contentsline {subsubsection}{Local Adaptive Thresholding}{6}{subsubsection*.10}}
\newlabel{sec:lat}{{2.1.1}{6}{Local Adaptive Thresholding}{subsubsection*.10}{}}
\@writefile{toc}{\contentsline {subsection}{\numberline {2.1.2}Bilaketa Heuristikoa}{6}{subsection.2.1.2}}
\citation{DBLP:books/aw/bilaketaHeuristikoak}
\citation{wiki:PopulazioanOinarritutakoAlgoritmoak}
\@writefile{lof}{\contentsline {figure}{\numberline {2.1}{\ignorespaces Algoritmo Ebolutioboaren Eskema\relax }}{7}{figure.caption.11}}
\providecommand*\caption@xref[2]{\@setref\relax\@undefined{#1}}
\newlabel{fig:algoritmoEbolutiboa}{{2.1}{7}{Algoritmo Ebolutioboaren Eskema\relax }{figure.caption.11}{}}
\@writefile{toc}{\contentsline {subsubsection}{Algoritmo Genetikoa}{7}{subsubsection*.12}}
\@writefile{lof}{\contentsline {figure}{\numberline {2.2}{\ignorespaces Algoritmo Genetikoen Eskema Orokorra\relax }}{8}{figure.caption.13}}
\newlabel{fig:algoritmoGenetikoa}{{2.2}{8}{Algoritmo Genetikoen Eskema Orokorra\relax }{figure.caption.13}{}}
\newlabel{hautespena}{{2.1.2}{8}{Algoritmo Genetikoa}{figure.caption.13}{}}
\@writefile{lof}{\contentsline {figure}{\numberline {2.3}{\ignorespaces Erruleta-hautespena\relax }}{9}{figure.caption.14}}
\newlabel{erruleta}{{2.3}{9}{Erruleta-hautespena\relax }{figure.caption.14}{}}
\newlabel{fig:erruleta}{{2.3}{9}{Erruleta-hautespena\relax }{figure.caption.14}{}}
\newlabel{gurutzaketa}{{2.1.2}{9}{Algoritmo Genetikoa}{figure.caption.14}{}}
\@writefile{lof}{\contentsline {figure}{\numberline {2.4}{\ignorespaces Gurutzaketa\relax }}{10}{figure.caption.15}}
\newlabel{gurutzaketa}{{2.4}{10}{Gurutzaketa\relax }{figure.caption.15}{}}
\newlabel{fig:gurutzaketa}{{2.4}{10}{Gurutzaketa\relax }{figure.caption.15}{}}
\citation{wiki:ImageMagick}
\@writefile{lof}{\contentsline {figure}{\numberline {2.5}{\ignorespaces Algoritmo Genetikoaren Sasikodea\relax }}{11}{figure.caption.16}}
\newlabel{fig:sasikodeGenetiko}{{2.5}{11}{Algoritmo Genetikoaren Sasikodea\relax }{figure.caption.16}{}}
\@writefile{toc}{\contentsline {section}{\numberline {2.2}Aplikaziorako Softwarea}{11}{section.2.2}}
\@writefile{toc}{\contentsline {subsection}{\numberline {2.2.1}Image Magic}{11}{subsection.2.2.1}}
\newlabel{sec:imageMagick}{{2.2.1}{11}{Image Magic}{subsection.2.2.1}{}}
\@writefile{lof}{\contentsline {figure}{\numberline {2.6}{\ignorespaces Originala\relax }}{12}{figure.caption.17}}
\newlabel{fig:originala}{{2.6}{12}{Originala\relax }{figure.caption.17}{}}
\@writefile{lof}{\contentsline {figure}{\numberline {2.7}{\ignorespaces Contrast\relax }}{12}{figure.caption.18}}
\newlabel{fig:contrast}{{2.7}{12}{Contrast\relax }{figure.caption.18}{}}
\@writefile{lof}{\contentsline {figure}{\numberline {2.8}{\ignorespaces Normalize\relax }}{12}{figure.caption.19}}
\newlabel{fig:normalize}{{2.8}{12}{Normalize\relax }{figure.caption.19}{}}
\citation{masterTesia}
\@writefile{lof}{\contentsline {figure}{\numberline {2.9}{\ignorespaces Negate\relax }}{13}{figure.caption.20}}
\newlabel{fig:negate}{{2.9}{13}{Negate\relax }{figure.caption.20}{}}
\@writefile{lof}{\contentsline {figure}{\numberline {2.10}{\ignorespaces Edge\relax }}{13}{figure.caption.21}}
\newlabel{fig:edge}{{2.10}{13}{Edge\relax }{figure.caption.21}{}}
\@writefile{lof}{\contentsline {subfigure}{\numberline{(a)}{\ignorespaces {Edge 2}}}{13}{figure.caption.21}}
\@writefile{lof}{\contentsline {subfigure}{\numberline{(b)}{\ignorespaces {Edge 4}}}{13}{figure.caption.21}}
\@writefile{lof}{\contentsline {figure}{\numberline {2.11}{\ignorespaces Lat\relax }}{13}{figure.caption.22}}
\newlabel{fig:lat}{{2.11}{13}{Lat\relax }{figure.caption.22}{}}
\citation{wiki:OpenCV}
\@writefile{lof}{\contentsline {figure}{\numberline {2.12}{\ignorespaces Gaussian-Blur\relax }}{14}{figure.caption.23}}
\newlabel{fig:gaussian}{{2.12}{14}{Gaussian-Blur\relax }{figure.caption.23}{}}
\@writefile{toc}{\contentsline {subsection}{\numberline {2.2.2}Index Values}{14}{subsection.2.2.2}}
\newlabel{sec:indexValues}{{2.2.2}{14}{Index Values}{subsection.2.2.2}{}}
\@writefile{lof}{\contentsline {figure}{\numberline {2.13}{\ignorespaces Moran\relax }}{14}{figure.caption.24}}
\newlabel{fig:moran}{{2.13}{14}{Moran\relax }{figure.caption.24}{}}
\@writefile{lof}{\contentsline {subfigure}{\numberline{(a)}{\ignorespaces {Moran 1}}}{14}{figure.caption.24}}
\@writefile{lof}{\contentsline {subfigure}{\numberline{(b)}{\ignorespaces {Moran 3}}}{14}{figure.caption.24}}
\citation{wiki:Tesseract}
\@writefile{lof}{\contentsline {figure}{\numberline {2.14}{\ignorespaces Edu\relax }}{15}{figure.caption.25}}
\newlabel{fig:edu2}{{2.14}{15}{Edu\relax }{figure.caption.25}{}}
\@writefile{lof}{\contentsline {subfigure}{\numberline{(a)}{\ignorespaces {Edu 1}}}{15}{figure.caption.25}}
\@writefile{lof}{\contentsline {subfigure}{\numberline{(b)}{\ignorespaces {Edu 3}}}{15}{figure.caption.25}}
\@writefile{toc}{\contentsline {subsection}{\numberline {2.2.3}OpenCV}{15}{subsection.2.2.3}}
\@writefile{toc}{\contentsline {subsection}{\numberline {2.2.4}Tesseract}{15}{subsection.2.2.4}}
\citation{wiki:MySpell}
\citation{wiki:Hunspell}
\@writefile{toc}{\contentsline {subsection}{\numberline {2.2.5}Hiztegiak}{16}{subsection.2.2.5}}
\@writefile{toc}{\contentsline {subsubsection}{MySpell}{16}{subsubsection*.26}}
\@writefile{toc}{\contentsline {subsubsection}{Hunspell}{16}{subsubsection*.29}}
\@writefile{lof}{\contentsline {figure}{\numberline {2.15}{\ignorespaces MySpell adibidea\relax }}{17}{figure.caption.27}}
\newlabel{fig:mySpell adibidea}{{2.15}{17}{MySpell adibidea\relax }{figure.caption.27}{}}
\@writefile{lof}{\contentsline {figure}{\numberline {2.16}{\ignorespaces MySpell adibidea 2\relax }}{17}{figure.caption.28}}
\newlabel{fig:mySpell adibidea 2}{{2.16}{17}{MySpell adibidea 2\relax }{figure.caption.28}{}}
\@writefile{toc}{\contentsline {section}{\numberline {2.3}Oinarrizko Softwarea, Lizentziak eta Instalazioak}{17}{section.2.3}}
\citation{wiki:Apache}
\citation{wiki:BSD}
\@writefile{toc}{\contentsline {subsection}{\numberline {2.3.1}Lizentziak}{18}{subsection.2.3.1}}
\@writefile{toc}{\contentsline {subsubsection}{Apache lizentzia}{18}{subsubsection*.30}}
\newlabel{sec:apache}{{2.3.1}{18}{Apache lizentzia}{subsubsection*.30}{}}
\@writefile{toc}{\contentsline {subsubsection}{BSD lizentzia}{18}{subsubsection*.31}}
\newlabel{sec:BSD}{{2.3.1}{18}{BSD lizentzia}{subsubsection*.31}{}}
\@writefile{toc}{\contentsline {subsubsection}{GPL lizentzia}{18}{subsubsection*.32}}
\newlabel{sec:GPL}{{2.3.1}{18}{GPL lizentzia}{subsubsection*.32}{}}
\citation{wiki:GPL}
\@writefile{toc}{\contentsline {subsection}{\numberline {2.3.2}Instalazioak}{19}{subsection.2.3.2}}
\@writefile{toc}{\contentsline {subsubsection}{ImageMagic}{19}{subsubsection*.33}}
\@writefile{toc}{\contentsline {subsubsection}{OpenCV}{19}{subsubsection*.34}}
\@writefile{toc}{\contentsline {subsubsection}{Tesseract}{19}{subsubsection*.35}}
\@writefile{toc}{\contentsline {subsubsection}{Hunspell}{20}{subsubsection*.36}}
\@writefile{toc}{\contentsline {chapter}{\numberline {3}Diseinua}{21}{chapter.3}}
\@writefile{lof}{\addvspace {10\p@ }}
\@writefile{lot}{\addvspace {10\p@ }}
\@writefile{toc}{\contentsline {section}{\numberline {3.1}Esperimentazioaren Diseinua}{21}{section.3.1}}
\@writefile{toc}{\contentsline {subsection}{\numberline {3.1.1}Ebaluazio-Irizpidea}{22}{subsection.3.1.1}}
\newlabel{ebaluazioa}{{3.1.1}{22}{Ebaluazio-Irizpidea}{subsection.3.1.1}{}}
\@writefile{toc}{\contentsline {subsection}{\numberline {3.1.2}Irudien Aurreprozesatzea}{22}{subsection.3.1.2}}
\@writefile{toc}{\contentsline {subsection}{\numberline {3.1.3}Hiztegiak}{23}{subsection.3.1.3}}
\@writefile{toc}{\contentsline {section}{\numberline {3.2}Garapenaren Diseinua}{23}{section.3.2}}
\@writefile{lof}{\contentsline {figure}{\numberline {3.1}{\ignorespaces Diseinuaren Eskema Orokorra\relax }}{24}{figure.caption.37}}
\newlabel{fig:eskemaOrokorra}{{3.1}{24}{Diseinuaren Eskema Orokorra\relax }{figure.caption.37}{}}
\@writefile{toc}{\contentsline {chapter}{\numberline {4}Esperimentazioa}{25}{chapter.4}}
\@writefile{lof}{\addvspace {10\p@ }}
\@writefile{lot}{\addvspace {10\p@ }}
\@writefile{toc}{\contentsline {section}{\numberline {4.1}Testu-Irudien Aukeraketa}{25}{section.4.1}}
\@writefile{lof}{\contentsline {figure}{\numberline {4.1}{\ignorespaces Internetetik lortutako irudia; Hizkuntza $\Rightarrow $ Ingelesa; 731x326 pixel\relax }}{26}{figure.caption.38}}
\newlabel{fig:irudia_1}{{4.1}{26}{Internetetik lortutako irudia; Hizkuntza $\Rightarrow $ Ingelesa; 731x326 pixel\relax }{figure.caption.38}{}}
\@writefile{lof}{\contentsline {figure}{\numberline {4.2}{\ignorespaces \textit  {Debian Administration Handbook} liburuari mugikorrarekin argazkia aterata lortutako irudia; Hizkuntza $\Rightarrow $ Ingelesa; 3120x4160 pixel\relax }}{27}{figure.caption.39}}
\newlabel{fig:irudia_2}{{4.2}{27}{\textit {Debian Administration Handbook} liburuari mugikorrarekin argazkia aterata lortutako irudia; Hizkuntza $\Rightarrow $ Ingelesa; 3120x4160 pixel\relax }{figure.caption.39}{}}
\@writefile{lof}{\contentsline {figure}{\numberline {4.3}{\ignorespaces \textit  {Estado y la Revoluci\IeC {\'o}n} liburuari mugikorrarekin argazkia aterata lortutako irudia; Hizkuntza $\Rightarrow $ Gaztelera; 3120x4160 pixel\relax }}{28}{figure.caption.40}}
\newlabel{fig:irudia_3}{{4.3}{28}{\textit {Estado y la Revolución} liburuari mugikorrarekin argazkia aterata lortutako irudia; Hizkuntza $\Rightarrow $ Gaztelera; 3120x4160 pixel\relax }{figure.caption.40}{}}
\@writefile{lof}{\contentsline {figure}{\numberline {4.4}{\ignorespaces \textit  {Pentsamendu Kritikoruntz} liburuari mugikorrarekin argazkia aterata lortutako irudia; Hizkuntza $\Rightarrow $ Euskara; 3120x4160 pixel\relax }}{29}{figure.caption.41}}
\newlabel{fig:irudia_4}{{4.4}{29}{\textit {Pentsamendu Kritikoruntz} liburuari mugikorrarekin argazkia aterata lortutako irudia; Hizkuntza $\Rightarrow $ Euskara; 3120x4160 pixel\relax }{figure.caption.41}{}}
\@writefile{toc}{\contentsline {section}{\numberline {4.2}Irudien Aurreprozesaketa}{30}{section.4.2}}
\@writefile{toc}{\contentsline {subsection}{\numberline {4.2.1}Trasnformazioen Hautaketa}{30}{subsection.4.2.1}}
\@writefile{lot}{\contentsline {table}{\numberline {4.1}{\ignorespaces Transformazioen Asmatze Tasak\relax }}{31}{table.caption.42}}
\newlabel{tab:taula1}{{4.1}{31}{Transformazioen Asmatze Tasak\relax }{table.caption.42}{}}
\@writefile{toc}{\contentsline {subsection}{\numberline {4.2.2}Transformazioen Konbinaketa Binaka}{32}{subsection.4.2.2}}
\@writefile{lot}{\contentsline {table}{\numberline {4.2}{\ignorespaces Transformazioen Konbinazioen Asmatze Tasak, pixel kopuru murriztuekin\relax }}{32}{table.caption.43}}
\newlabel{tab:taula2}{{4.2}{32}{Transformazioen Konbinazioen Asmatze Tasak, pixel kopuru murriztuekin\relax }{table.caption.43}{}}
\@writefile{lot}{\contentsline {table}{\numberline {4.3}{\ignorespaces Transformazioen Konbinazioen Asmatze Tasak, pixel kopuru originalekin\relax }}{33}{table.caption.44}}
\newlabel{tab:taul3}{{4.3}{33}{Transformazioen Konbinazioen Asmatze Tasak, pixel kopuru originalekin\relax }{table.caption.44}{}}
\@writefile{toc}{\contentsline {subsection}{\numberline {4.2.3}Transformazioen Konbinaketa Bilaketa Heuristikoen Bidez}{34}{subsection.4.2.3}}
\@writefile{lot}{\contentsline {table}{\numberline {4.4}{\ignorespaces \ref  {fig:irudia_1} Irudian, Algoritmo Genetikoaren Asmatze Tasak\relax }}{35}{table.caption.45}}
\newlabel{tab:heursitk1}{{4.4}{35}{\ref {fig:irudia_1} Irudian, Algoritmo Genetikoaren Asmatze Tasak\relax }{table.caption.45}{}}
\@writefile{lof}{\contentsline {figure}{\numberline {4.5}{\ignorespaces \ref  {fig:irudia_1} irudiak heuristikoan lortutako aurreprozesaketarik onena\relax }}{36}{figure.caption.46}}
\newlabel{fig:heuri1}{{4.5}{36}{\ref {fig:irudia_1} irudiak heuristikoan lortutako aurreprozesaketarik onena\relax }{figure.caption.46}{}}
\@writefile{lot}{\contentsline {table}{\numberline {4.5}{\ignorespaces \ref  {fig:irudia_2} Irudian, Algoritmo Genetikoaren Asmatze Tasak\relax }}{37}{table.caption.47}}
\newlabel{tab:heursistik2}{{4.5}{37}{\ref {fig:irudia_2} Irudian, Algoritmo Genetikoaren Asmatze Tasak\relax }{table.caption.47}{}}
\@writefile{lof}{\contentsline {figure}{\numberline {4.6}{\ignorespaces \ref  {fig:irudia_2} irudiak heuristikoan lortutako aurreprozesaketarik onena\relax }}{38}{figure.caption.48}}
\newlabel{fig:heuri2}{{4.6}{38}{\ref {fig:irudia_2} irudiak heuristikoan lortutako aurreprozesaketarik onena\relax }{figure.caption.48}{}}
\@writefile{lot}{\contentsline {table}{\numberline {4.6}{\ignorespaces \ref  {fig:irudia_3} Irudian, Algoritmo Genetikoaren Asmatze Tasak\relax }}{39}{table.caption.49}}
\newlabel{tab:heursistik3}{{4.6}{39}{\ref {fig:irudia_3} Irudian, Algoritmo Genetikoaren Asmatze Tasak\relax }{table.caption.49}{}}
\@writefile{lof}{\contentsline {figure}{\numberline {4.7}{\ignorespaces \ref  {fig:irudia_3} irudiak heuristikoan lortutako aurreprozesaketarik onena\relax }}{40}{figure.caption.50}}
\newlabel{fig:heuri3}{{4.7}{40}{\ref {fig:irudia_3} irudiak heuristikoan lortutako aurreprozesaketarik onena\relax }{figure.caption.50}{}}
\@writefile{lot}{\contentsline {table}{\numberline {4.7}{\ignorespaces \ref  {fig:irudia_4} Irudian, Algoritmo Genetikoaren Asmatze Tasak\relax }}{41}{table.caption.51}}
\newlabel{tab:heursistik4}{{4.7}{41}{\ref {fig:irudia_4} Irudian, Algoritmo Genetikoaren Asmatze Tasak\relax }{table.caption.51}{}}
\@writefile{lof}{\contentsline {figure}{\numberline {4.8}{\ignorespaces \ref  {fig:irudia_4} irudiak heuristikoan lortutako aurreprozesaketarik onena\relax }}{42}{figure.caption.52}}
\newlabel{fig:heuri4}{{4.8}{42}{\ref {fig:irudia_4} irudiak heuristikoan lortutako aurreprozesaketarik onena\relax }{figure.caption.52}{}}
\@writefile{toc}{\contentsline {section}{\numberline {4.3}Irudi Guztientzako Aurreprozesatze Komuna}{42}{section.4.3}}
\newlabel{aurreKomuna}{{4.3}{42}{Irudi Guztientzako Aurreprozesatze Komuna}{section.4.3}{}}
\@writefile{lot}{\contentsline {table}{\numberline {4.8}{\ignorespaces Irudien aurreprozesatze komuna aurkitzeko taula\relax }}{43}{table.caption.53}}
\newlabel{tab:komuna}{{4.8}{43}{Irudien aurreprozesatze komuna aurkitzeko taula\relax }{table.caption.53}{}}
\@writefile{toc}{\contentsline {section}{\numberline {4.4}Hiztegiak}{43}{section.4.4}}
\@writefile{lot}{\contentsline {table}{\numberline {4.9}{\ignorespaces Hiztegiaren bidezko zuzenketaren asmatze-tasak\relax }}{44}{table.caption.54}}
\newlabel{tab:hiztegiak}{{4.9}{44}{Hiztegiaren bidezko zuzenketaren asmatze-tasak\relax }{table.caption.54}{}}
\@writefile{toc}{\contentsline {chapter}{\numberline {5}Garapena}{45}{chapter.5}}
\@writefile{lof}{\addvspace {10\p@ }}
\@writefile{lot}{\addvspace {10\p@ }}
\@writefile{toc}{\contentsline {section}{\numberline {5.1}Hasieraketa}{45}{section.5.1}}
\@writefile{toc}{\contentsline {section}{\numberline {5.2}Bilaketa Heuristikoa}{45}{section.5.2}}
\newlabel{bilaketaHeuristikoa}{{5.2}{45}{Bilaketa Heuristikoa}{section.5.2}{}}
\@writefile{lof}{\contentsline {figure}{\numberline {5.1}{\ignorespaces Argumentuak\relax }}{46}{figure.caption.55}}
\newlabel{fig:argumentuak}{{5.1}{46}{Argumentuak\relax }{figure.caption.55}{}}
\@writefile{lof}{\contentsline {figure}{\numberline {5.2}{\ignorespaces Eraldaketa Guztien Lista\relax }}{46}{figure.caption.56}}
\newlabel{fig:eraldaketak}{{5.2}{46}{Eraldaketa Guztien Lista\relax }{figure.caption.56}{}}
\@writefile{lof}{\contentsline {figure}{\numberline {5.3}{\ignorespaces Erabiltzaileari Eskatzen Zaizkion Argumentuak\relax }}{47}{figure.caption.57}}
\newlabel{fig:scan}{{5.3}{47}{Erabiltzaileari Eskatzen Zaizkion Argumentuak\relax }{figure.caption.57}{}}
\@writefile{lof}{\contentsline {figure}{\numberline {5.4}{\ignorespaces Indibiduo Klasea\relax }}{47}{figure.caption.58}}
\newlabel{fig:indibiduo}{{5.4}{47}{Indibiduo Klasea\relax }{figure.caption.58}{}}
\@writefile{lof}{\contentsline {figure}{\numberline {5.5}{\ignorespaces Indibiduoreik Onena Gordetzeko Objetua\relax }}{47}{figure.caption.59}}
\newlabel{fig:indibiduoOnena}{{5.5}{47}{Indibiduoreik Onena Gordetzeko Objetua\relax }{figure.caption.59}{}}
\@writefile{lof}{\contentsline {figure}{\numberline {5.6}{\ignorespaces Hasierako Populazioa Sortu\relax }}{48}{figure.caption.60}}
\newlabel{fig:hasierakoPupulazioa}{{5.6}{48}{Hasierako Populazioa Sortu\relax }{figure.caption.60}{}}
\@writefile{lof}{\contentsline {figure}{\numberline {5.7}{\ignorespaces Irudiei eraldaketak Aplikatzen\relax }}{49}{figure.caption.61}}
\newlabel{fig:eraldaketakFuntzioa}{{5.7}{49}{Irudiei eraldaketak Aplikatzen\relax }{figure.caption.61}{}}
\@writefile{lof}{\contentsline {figure}{\numberline {5.8}{\ignorespaces Irudiak Ebaluatu\relax }}{49}{figure.caption.62}}
\newlabel{fig:irudiakEbaluatu}{{5.8}{49}{Irudiak Ebaluatu\relax }{figure.caption.62}{}}
\@writefile{lof}{\contentsline {figure}{\numberline {5.9}{\ignorespaces Elekzioa Lehena\relax }}{50}{figure.caption.63}}
\newlabel{fig:elekzioaLehena}{{5.9}{50}{Elekzioa Lehena\relax }{figure.caption.63}{}}
\@writefile{lof}{\contentsline {figure}{\numberline {5.10}{\ignorespaces Algortimo Genetikoaren Begizta Nagusia\relax }}{51}{figure.caption.64}}
\newlabel{fig:begizta}{{5.10}{51}{Algortimo Genetikoaren Begizta Nagusia\relax }{figure.caption.64}{}}
\@writefile{lof}{\contentsline {figure}{\numberline {5.11}{\ignorespaces Erruleta-hautespenaren kodea\relax }}{52}{figure.caption.65}}
\newlabel{fig:elekzioa}{{5.11}{52}{Erruleta-hautespenaren kodea\relax }{figure.caption.65}{}}
\@writefile{lof}{\contentsline {figure}{\numberline {5.12}{\ignorespaces Puntu Bakarreko Gurutzaketaren Kodea\relax }}{52}{figure.caption.66}}
\newlabel{fig:gurutzaketa2}{{5.12}{52}{Puntu Bakarreko Gurutzaketaren Kodea\relax }{figure.caption.66}{}}
\@writefile{lof}{\contentsline {figure}{\numberline {5.13}{\ignorespaces Mutazioa\relax }}{53}{figure.caption.67}}
\newlabel{fig:mutazioa}{{5.13}{53}{Mutazioa\relax }{figure.caption.67}{}}
\@writefile{toc}{\contentsline {section}{\numberline {5.3}OCR}{53}{section.5.3}}
\@writefile{lof}{\contentsline {figure}{\numberline {5.14}{\ignorespaces Tesseract Aplikazioari dei egin\relax }}{53}{figure.caption.68}}
\newlabel{fig:ocr}{{5.14}{53}{Tesseract Aplikazioari dei egin\relax }{figure.caption.68}{}}
\@writefile{toc}{\contentsline {section}{\numberline {5.4}Hiztegiak}{54}{section.5.4}}
\@writefile{toc}{\contentsline {subsection}{\numberline {5.4.1}Zuzenketa Automatikoa}{54}{subsection.5.4.1}}
\@writefile{toc}{\contentsline {subsection}{\numberline {5.4.2}Zuzenketa SemiAutomatikoa}{54}{subsection.5.4.2}}
\@writefile{lof}{\contentsline {figure}{\numberline {5.15}{\ignorespaces Box-en fitxategiaren adibidea\relax }}{56}{figure.caption.69}}
\newlabel{fig:box}{{5.15}{56}{Box-en fitxategiaren adibidea\relax }{figure.caption.69}{}}
\@writefile{lof}{\contentsline {figure}{\numberline {5.16}{\ignorespaces Zuzentzaile Semiautomatikoaren Adibidea\relax }}{57}{figure.caption.70}}
\newlabel{fig:semiautomatiko}{{5.16}{57}{Zuzentzaile Semiautomatikoaren Adibidea\relax }{figure.caption.70}{}}
\@writefile{lof}{\contentsline {figure}{\numberline {5.17}{\ignorespaces Hitza Klasea\relax }}{57}{figure.caption.71}}
\newlabel{fig:hitza}{{5.17}{57}{Hitza Klasea\relax }{figure.caption.71}{}}
\@writefile{toc}{\contentsline {chapter}{\numberline {6}Ondorioak eta Etorkizuneko Lanak}{59}{chapter.6}}
\@writefile{lof}{\addvspace {10\p@ }}
\@writefile{lot}{\addvspace {10\p@ }}
\@writefile{toc}{\contentsline {section}{\numberline {6.1}Ondorioak}{59}{section.6.1}}
\@writefile{toc}{\contentsline {section}{\numberline {6.2}Etorkizuneko Lanak}{60}{section.6.2}}
\@writefile{toc}{\contentsline {chapter}{Eranskinak}{}{section*.72}}
\@writefile{toc}{\contentsline {chapter}{\numberline {A}Aplikazio Nagusia Probatzen}{65}{appendix.A}}
\@writefile{lof}{\addvspace {10\p@ }}
\@writefile{lot}{\addvspace {10\p@ }}
\@writefile{toc}{\contentsline {section}{\numberline {A.1}1.Adibidea}{66}{section.A.1}}
\@writefile{toc}{\contentsline {subsection}{\numberline {A.1.1}BilaketaHeuristikoa}{66}{subsection.A.1.1}}
\@writefile{lof}{\contentsline {figure}{\numberline {A.1}{\ignorespaces Bilaketa Heuristikoaren bidez lortutako aurreprozesatzea: Normalize + Normalize + Contrast + Contrast + Contrast + Contrast\relax }}{67}{figure.caption.73}}
\newlabel{fig:bilkateaAurrepro}{{A.1}{67}{Bilaketa Heuristikoaren bidez lortutako aurreprozesatzea: Normalize + Normalize + Contrast + Contrast + Contrast + Contrast\relax }{figure.caption.73}{}}
\@writefile{toc}{\contentsline {subsection}{\numberline {A.1.2}Zuzenketa Automatikoa}{68}{subsection.A.1.2}}
\@writefile{toc}{\contentsline {section}{\numberline {A.2}2.Adibidea}{68}{section.A.2}}
\@writefile{toc}{\contentsline {subsection}{\numberline {A.2.1}Defektuzko Aurreprozesaketa}{68}{subsection.A.2.1}}
\@writefile{lof}{\contentsline {figure}{\numberline {A.2}{\ignorespaces Defektuzko Aurreprozesatzearen bidez lortutako irudia: Normalize + Gaussian-Blur + Contrast\relax }}{69}{figure.caption.74}}
\newlabel{fig:bilkateaAurrepro}{{A.2}{69}{Defektuzko Aurreprozesatzearen bidez lortutako irudia: Normalize + Gaussian-Blur + Contrast\relax }{figure.caption.74}{}}
\@writefile{toc}{\contentsline {subsection}{\numberline {A.2.2}Zuzenketa Semiautomatikoa}{70}{subsection.A.2.2}}
\@writefile{toc}{\contentsline {chapter}{\numberline {B}Proiektuaren Helburuen Dokumentua}{71}{appendix.B}}
\@writefile{lof}{\addvspace {10\p@ }}
\@writefile{lot}{\addvspace {10\p@ }}
\@writefile{toc}{\contentsline {section}{\numberline {B.1}Proiektuaren Deskribapena eta Helburuak}{71}{section.B.1}}
\@writefile{toc}{\contentsline {section}{\numberline {B.2}Atazak}{72}{section.B.2}}
\@writefile{lof}{\contentsline {figure}{\numberline {B.1}{\ignorespaces LDE\relax }}{73}{figure.caption.75}}
\newlabel{fig:lde}{{B.1}{73}{LDE\relax }{figure.caption.75}{}}
\@writefile{toc}{\contentsline {section}{\numberline {B.3}Estimazioa eta Egutegia}{75}{section.B.3}}
\@writefile{toc}{\contentsline {subsection}{\numberline {B.3.1}Estimazioa}{75}{subsection.B.3.1}}
\@writefile{lot}{\contentsline {table}{\numberline {B.1}{\ignorespaces Ataza Bakoitzaren Estimazioa\relax }}{75}{table.caption.76}}
\newlabel{tab:multi row}{{B.1}{75}{Ataza Bakoitzaren Estimazioa\relax }{table.caption.76}{}}
\@writefile{toc}{\contentsline {subsection}{\numberline {B.3.2}Gantt Diagrama}{75}{subsection.B.3.2}}
\@writefile{lof}{\contentsline {figure}{\numberline {B.2}{\ignorespaces Gantt Diagrama\relax }}{76}{figure.caption.77}}
\newlabel{fig:lde}{{B.2}{76}{Gantt Diagrama\relax }{figure.caption.77}{}}
\@writefile{toc}{\contentsline {section}{\numberline {B.4}Irismena}{77}{section.B.4}}
\@writefile{toc}{\contentsline {section}{\numberline {B.5}Lan Metodologia}{77}{section.B.5}}
\@writefile{toc}{\contentsline {section}{\numberline {B.6}Arriskuen Analisia}{78}{section.B.6}}
\@writefile{toc}{\contentsline {section}{\numberline {B.7}Interesatuak}{79}{section.B.7}}
\@writefile{toc}{\contentsline {chapter}{\numberline {C}Jarraipena eta Konrola}{81}{appendix.C}}
\@writefile{lof}{\addvspace {10\p@ }}
\@writefile{lot}{\addvspace {10\p@ }}
\@writefile{toc}{\contentsline {section}{\numberline {C.1}Aldaketak}{81}{section.C.1}}
\@writefile{toc}{\contentsline {section}{\numberline {C.2}Desbideraketak}{81}{section.C.2}}
\@writefile{lot}{\contentsline {table}{\numberline {C.1}{\ignorespaces Hasierako estimazioen eta denbora errealaren desbiderapenak.\relax }}{82}{table.caption.78}}
\newlabel{tab:desb}{{C.1}{82}{Hasierako estimazioen eta denbora errealaren desbiderapenak.\relax }{table.caption.78}{}}
\bibdata{gap-pfg}
\bibcite{wiki:Apache}{{Apache}, 2017}
\bibcite{DBLP:books/aw/bilaketaHeuristikoak}{Borja~Calvo, 2017}
\bibcite{wiki:BSD}{{BSD}, 2017}
\bibcite{gauss}{{Gaussian-Blur}, 2017}
\bibcite{wiki:GPL}{{GPL}, 2016}
\bibcite{wiki:Hunspell}{{Hunspell}, 2015}
\bibcite{wiki:ImageMagick}{{Image Magick}, 2017}
\bibcite{kontrastea}{{Kontrastea}, 2017}
\bibcite{lat}{{Lat}, 2003}
\bibcite{masterTesia}{Mugarza, 2016}
\@writefile{toc}{\contentsline {chapter}{Bibliografia}{83}{appendix*.79}}
\bibcite{wiki:MySpell}{{MySpell}, 2016}
\bibcite{normalizazioa}{{Normalizazioa}, 2017}
\bibcite{wiki:OCR}{{OCR}, 2017}
\bibcite{wiki:OpenCV}{{OpenCV}, 2017}
\bibcite{wiki:PopulazioanOinarritutakoAlgoritmoak}{{Populazioan Oinarritutako Algoritmoak}, 2017}
\bibcite{wiki:Tesseract}{{Tesseract}, 2017}
