\begin{thebibliography}{}

\bibitem[{Apache}, 2017]{wiki:Apache}
{Apache} (2017).
\newblock Apache lizentzia --- {W}ikipedia{,} the free encyclopedia.
\newblock \url{https://en.wikipedia.org/wiki/Apache_License}.
\newblock Atzipen Eguna: 2017-04-30.

\bibitem[Borja~Calvo, 2017]{DBLP:books/aw/bilaketaHeuristikoak}
Borja~Calvo, Josu~Ceberio, U.~M. (2017).
\newblock {\em Bilaketa Heuristikoak: Teoria eta adibideak R lengoaian}.
\newblock UPV/EHU.

\bibitem[{BSD}, 2017]{wiki:BSD}
{BSD} (2017).
\newblock Bsd lizentzia --- {W}ikipedia{,} the free encyclopedia.
\newblock \url{https://en.wikipedia.org/wiki/BSD_licenses}.
\newblock Atzipen Eguna: 2017-04-20.

\bibitem[{Gaussian-Blur}, 2017]{gauss}
{Gaussian-Blur} (2017).
\newblock Gaussian-blur --- {W}ikipedia{,} the free encyclopedia.
\newblock \url{https://en.wikipedia.org/wiki/Gaussian_blur)}.
\newblock Atzipen Eguna: 2017-06-12.

\bibitem[{GPL}, 2016]{wiki:GPL}
{GPL} (2016).
\newblock Gpl lizentzia --- {W}ikipedia{,} the free encyclopedia.
\newblock \url{https://eu.wikipedia.org/wiki/GNU_General_Public_License}.
\newblock Atzipen Eguna: 2017-05-24.

\bibitem[{Hunspell}, 2015]{wiki:Hunspell}
{Hunspell} (2015).
\newblock Hunspell --- {W}ikipedia{,} the free encyclopedia.
\newblock \url{https://eu.wikipedia.org/wiki/Hunspell}.
\newblock Atzipen Eguna: 2017-05-24.

\bibitem[{Image Magick}, 2017]{wiki:ImageMagick}
{Image Magick} (2017).
\newblock Image magick --- {W}ikipedia{,} the free encyclopedia.
\newblock \url{https://en.wikipedia.org/wiki/ImageMagick}.
\newblock Atzipen Eguna: 2017-04-30.

\bibitem[{Kontrastea}, 2017]{kontrastea}
{Kontrastea} (2017).
\newblock Kontrastea.
\newblock \url{https://www.tutorialspoint.com/dip/brightness_and_contrast.htm}.
\newblock Atzipen Eguna: 2017-06-10.

\bibitem[{Lat}, 2003]{lat}
{Lat} (2003).
\newblock Local adaptive thresholding.
\newblock \url{http://homepages.inf.ed.ac.uk/rbf/HIPR2/adpthrsh.htm}.
\newblock Atzipen Eguna: 2017-06-12.

\bibitem[Mugarza, 2016]{masterTesia}
Mugarza, A.~J. (2016).
\newblock Autokorrelazio espazialeko indizeetan oinarritutako ertz detekziorako
  metodoak.

\bibitem[{MySpell}, 2016]{wiki:MySpell}
{MySpell} (2016).
\newblock Myspell --- {W}ikipedia{,} the free encyclopedia.
\newblock \url{https://en.wikipedia.org/wiki/MySpell}.
\newblock Atzipen Eguna: 2017-04-25.

\bibitem[{Normalizazioa}, 2017]{normalizazioa}
{Normalizazioa} (2017).
\newblock Normalizazioa --- {W}ikipedia{,} the free encyclopedia.
\newblock \url{https://en.wikipedia.org/wiki/Normalization_(image_processing)}.
\newblock Atzipen Eguna: 2017-06-10.

\bibitem[{OCR}, 2017]{wiki:OCR}
{OCR} (2017).
\newblock Optical character recognition --- {W}ikipedia{,} the free
  encyclopedia.
\newblock \url{https://en.wikipedia.org/wiki/Optical_character_recognition}.
\newblock Atzipen Eguna: 2017-06-09.

\bibitem[{OpenCV}, 2017]{wiki:OpenCV}
{OpenCV} (2017).
\newblock Opencv --- {W}ikipedia{,} the free encyclopedia.
\newblock \url{https://en.wikipedia.org/wiki/OpenCV}.
\newblock Atzipen Eguna: 2017-04-27.

\bibitem[{Populazioan Oinarritutako Algoritmoak},
  2017]{wiki:PopulazioanOinarritutakoAlgoritmoak}
{Populazioan Oinarritutako Algoritmoak} (2017).
\newblock Populazioan oinarritutako algoritmoak.
\newblock
  \url{https://egela1617.ehu.eus/pluginfile.php/833835/mod_resource/content/0/04_populaioan_oinarritutako_algoritmoak.svg#1_0}.
\newblock Atzipen Eguna: 2017-05-10.

\bibitem[{Tesseract}, 2017]{wiki:Tesseract}
{Tesseract} (2017).
\newblock Tesseract --- {W}ikipedia{,} the free encyclopedia.
\newblock \url{https://en.wikipedia.org/wiki/Tesseract_(software)}.
\newblock Atzipen Eguna: 2017-04-30.

\end{thebibliography}
