@RELATION POKER

@ATTRIBUTE P_1 NUMERIC
@ATTRIBUTE P_2 NUMERIC
@ATTRIBUTE P_3 NUMERIC
@ATTRIBUTE P_4 NUMERIC
@ATTRIBUTE P_5 NUMERIC
@ATTRIBUTE P_6 NUMERIC
@ATTRIBUTE P_7 NUMERIC
@ATTRIBUTE P_8 NUMERIC
@ATTRIBUTE P_9 NUMERIC
@ATTRIBUTE P_10 NUMERIC
@ATTRIBUTE P_11 NUMERIC
@ATTRIBUTE P_12 NUMERIC
@ATTRIBUTE P_13 NUMERIC
@ATTRIBUTE P_14 NUMERIC
@ATTRIBUTE P_15 NUMERIC
@ATTRIBUTE P_16 NUMERIC
@ATTRIBUTE P_17 NUMERIC
@ATTRIBUTE P_18 NUMERIC
@ATTRIBUTE P_19 NUMERIC
@ATTRIBUTE P_20 NUMERIC
@ATTRIBUTE P_21 NUMERIC
@ATTRIBUTE P_22 NUMERIC
@ATTRIBUTE P_23 NUMERIC
@ATTRIBUTE P_24 NUMERIC
@ATTRIBUTE P_25 NUMERIC
@ATTRIBUTE P_26 NUMERIC
@ATTRIBUTE P_27 NUMERIC
@ATTRIBUTE P_28 NUMERIC
@ATTRIBUTE P_29 NUMERIC
@ATTRIBUTE P_30 NUMERIC
@ATTRIBUTE P_31 NUMERIC
@ATTRIBUTE P_32 NUMERIC
@ATTRIBUTE P_33 NUMERIC
@ATTRIBUTE P_34 NUMERIC
@ATTRIBUTE P_35 NUMERIC
@ATTRIBUTE P_36 NUMERIC
@ATTRIBUTE P_37 NUMERIC
@ATTRIBUTE P_38 NUMERIC
@ATTRIBUTE P_39 NUMERIC
@ATTRIBUTE P_40 NUMERIC
@ATTRIBUTE P_41 NUMERIC
@ATTRIBUTE P_42 NUMERIC
@ATTRIBUTE P_43 NUMERIC
@ATTRIBUTE P_44 NUMERIC
@ATTRIBUTE P_45 NUMERIC
@ATTRIBUTE P_46 NUMERIC
@ATTRIBUTE P_47 NUMERIC
@ATTRIBUTE P_48 NUMERIC
@ATTRIBUTE P_49 NUMERIC
@ATTRIBUTE P_50 NUMERIC
@ATTRIBUTE P_51 NUMERIC
@ATTRIBUTE P_52 NUMERIC
@ATTRIBUTE P_53 NUMERIC
@ATTRIBUTE P_54 NUMERIC
@ATTRIBUTE P_55 NUMERIC
@ATTRIBUTE P_56 NUMERIC
@ATTRIBUTE P_57 NUMERIC
@ATTRIBUTE P_58 NUMERIC
@ATTRIBUTE P_59 NUMERIC
@ATTRIBUTE P_60 NUMERIC
@ATTRIBUTE P_61 NUMERIC
@ATTRIBUTE P_62 NUMERIC
@ATTRIBUTE P_63 NUMERIC
@ATTRIBUTE P_64 NUMERIC
@ATTRIBUTE P_65 NUMERIC
@ATTRIBUTE P_66 NUMERIC
@ATTRIBUTE P_67 NUMERIC
@ATTRIBUTE P_68 NUMERIC
@ATTRIBUTE P_69 NUMERIC
@ATTRIBUTE P_70 NUMERIC
@ATTRIBUTE P_71 NUMERIC
@ATTRIBUTE P_72 NUMERIC
@ATTRIBUTE P_73 NUMERIC
@ATTRIBUTE P_74 NUMERIC
@ATTRIBUTE P_75 NUMERIC
@ATTRIBUTE P_76 NUMERIC
@ATTRIBUTE P_77 NUMERIC
@ATTRIBUTE P_78 NUMERIC
@ATTRIBUTE P_79 NUMERIC
@ATTRIBUTE P_80 NUMERIC
@ATTRIBUTE P_81 NUMERIC
@ATTRIBUTE P_82 NUMERIC
@ATTRIBUTE P_83 NUMERIC
@ATTRIBUTE P_84 NUMERIC
@ATTRIBUTE P_85 NUMERIC
@ATTRIBUTE P_86 NUMERIC
@ATTRIBUTE P_87 NUMERIC
@ATTRIBUTE P_88 NUMERIC
@ATTRIBUTE P_89 NUMERIC
@ATTRIBUTE P_90 NUMERIC
@ATTRIBUTE P_91 NUMERIC
@ATTRIBUTE P_92 NUMERIC
@ATTRIBUTE P_93 NUMERIC
@ATTRIBUTE P_94 NUMERIC
@ATTRIBUTE P_95 NUMERIC
@ATTRIBUTE P_96 NUMERIC
@ATTRIBUTE P_97 NUMERIC
@ATTRIBUTE P_98 NUMERIC
@ATTRIBUTE P_99 NUMERIC
@ATTRIBUTE P_100 NUMERIC
@ATTRIBUTE P_101 NUMERIC
@ATTRIBUTE P_102 NUMERIC
@ATTRIBUTE P_103 NUMERIC
@ATTRIBUTE P_104 NUMERIC
@ATTRIBUTE P_105 NUMERIC
@ATTRIBUTE P_106 NUMERIC
@ATTRIBUTE P_107 NUMERIC
@ATTRIBUTE P_108 NUMERIC
@ATTRIBUTE P_109 NUMERIC
@ATTRIBUTE P_110 NUMERIC
@ATTRIBUTE P_111 NUMERIC
@ATTRIBUTE P_112 NUMERIC
@ATTRIBUTE P_113 NUMERIC
@ATTRIBUTE P_114 NUMERIC
@ATTRIBUTE P_115 NUMERIC
@ATTRIBUTE P_116 NUMERIC
@ATTRIBUTE P_117 NUMERIC
@ATTRIBUTE P_118 NUMERIC
@ATTRIBUTE P_119 NUMERIC
@ATTRIBUTE P_120 NUMERIC
@ATTRIBUTE P_121 NUMERIC
@ATTRIBUTE P_122 NUMERIC
@ATTRIBUTE P_123 NUMERIC
@ATTRIBUTE P_124 NUMERIC
@ATTRIBUTE P_125 NUMERIC
@ATTRIBUTE P_126 NUMERIC
@ATTRIBUTE P_127 NUMERIC
@ATTRIBUTE P_128 NUMERIC
@ATTRIBUTE P_129 NUMERIC
@ATTRIBUTE P_130 NUMERIC
@ATTRIBUTE P_131 NUMERIC
@ATTRIBUTE P_132 NUMERIC
@ATTRIBUTE P_133 NUMERIC
@ATTRIBUTE P_134 NUMERIC
@ATTRIBUTE P_135 NUMERIC
@ATTRIBUTE P_136 NUMERIC
@ATTRIBUTE P_137 NUMERIC
@ATTRIBUTE P_138 NUMERIC
@ATTRIBUTE P_139 NUMERIC
@ATTRIBUTE P_140 NUMERIC
@ATTRIBUTE P_141 NUMERIC
@ATTRIBUTE P_142 NUMERIC
@ATTRIBUTE P_143 NUMERIC
@ATTRIBUTE P_144 NUMERIC
@ATTRIBUTE P_145 NUMERIC
@ATTRIBUTE P_146 NUMERIC
@ATTRIBUTE P_147 NUMERIC
@ATTRIBUTE P_148 NUMERIC
@ATTRIBUTE P_149 NUMERIC
@ATTRIBUTE P_150 NUMERIC
@ATTRIBUTE P_151 NUMERIC
@ATTRIBUTE P_152 NUMERIC
@ATTRIBUTE P_153 NUMERIC
@ATTRIBUTE P_154 NUMERIC
@ATTRIBUTE P_155 NUMERIC
@ATTRIBUTE P_156 NUMERIC
@ATTRIBUTE P_157 NUMERIC
@ATTRIBUTE P_158 NUMERIC
@ATTRIBUTE P_159 NUMERIC
@ATTRIBUTE P_160 NUMERIC
@ATTRIBUTE P_161 NUMERIC
@ATTRIBUTE P_162 NUMERIC
@ATTRIBUTE P_163 NUMERIC
@ATTRIBUTE P_164 NUMERIC
@ATTRIBUTE P_165 NUMERIC
@ATTRIBUTE P_166 NUMERIC
@ATTRIBUTE P_167 NUMERIC
@ATTRIBUTE P_168 NUMERIC
@ATTRIBUTE P_169 NUMERIC
@ATTRIBUTE P_170 NUMERIC
@ATTRIBUTE P_171 NUMERIC
@ATTRIBUTE P_172 NUMERIC
@ATTRIBUTE P_173 NUMERIC
@ATTRIBUTE P_174 NUMERIC
@ATTRIBUTE P_175 NUMERIC
@ATTRIBUTE P_176 NUMERIC
@ATTRIBUTE P_177 NUMERIC
@ATTRIBUTE P_178 NUMERIC
@ATTRIBUTE P_179 NUMERIC
@ATTRIBUTE P_180 NUMERIC
@ATTRIBUTE P_181 NUMERIC
@ATTRIBUTE P_182 NUMERIC
@ATTRIBUTE P_183 NUMERIC
@ATTRIBUTE P_184 NUMERIC
@ATTRIBUTE P_185 NUMERIC
@ATTRIBUTE P_186 NUMERIC
@ATTRIBUTE P_187 NUMERIC
@ATTRIBUTE P_188 NUMERIC
@ATTRIBUTE P_189 NUMERIC
@ATTRIBUTE P_190 NUMERIC
@ATTRIBUTE P_191 NUMERIC
@ATTRIBUTE P_192 NUMERIC
@ATTRIBUTE P_193 NUMERIC
@ATTRIBUTE P_194 NUMERIC
@ATTRIBUTE P_195 NUMERIC
@ATTRIBUTE P_196 NUMERIC
@ATTRIBUTE P_197 NUMERIC
@ATTRIBUTE P_198 NUMERIC
@ATTRIBUTE P_199 NUMERIC
@ATTRIBUTE P_200 NUMERIC
@ATTRIBUTE P_201 NUMERIC
@ATTRIBUTE P_202 NUMERIC
@ATTRIBUTE P_203 NUMERIC
@ATTRIBUTE P_204 NUMERIC
@ATTRIBUTE P_205 NUMERIC
@ATTRIBUTE P_206 NUMERIC
@ATTRIBUTE P_207 NUMERIC
@ATTRIBUTE P_208 NUMERIC
@ATTRIBUTE P_209 NUMERIC
@ATTRIBUTE P_210 NUMERIC
@ATTRIBUTE P_211 NUMERIC
@ATTRIBUTE P_212 NUMERIC
@ATTRIBUTE P_213 NUMERIC
@ATTRIBUTE P_214 NUMERIC
@ATTRIBUTE P_215 NUMERIC
@ATTRIBUTE P_216 NUMERIC
@ATTRIBUTE P_217 NUMERIC
@ATTRIBUTE P_218 NUMERIC
@ATTRIBUTE P_219 NUMERIC
@ATTRIBUTE P_220 NUMERIC
@ATTRIBUTE P_221 NUMERIC
@ATTRIBUTE P_222 NUMERIC
@ATTRIBUTE P_223 NUMERIC
@ATTRIBUTE P_224 NUMERIC
@ATTRIBUTE P_225 NUMERIC
@ATTRIBUTE P_226 NUMERIC
@ATTRIBUTE P_227 NUMERIC
@ATTRIBUTE P_228 NUMERIC
@ATTRIBUTE P_229 NUMERIC
@ATTRIBUTE P_230 NUMERIC
@ATTRIBUTE P_231 NUMERIC
@ATTRIBUTE P_232 NUMERIC
@ATTRIBUTE P_233 NUMERIC
@ATTRIBUTE P_234 NUMERIC
@ATTRIBUTE P_235 NUMERIC
@ATTRIBUTE P_236 NUMERIC
@ATTRIBUTE P_237 NUMERIC
@ATTRIBUTE P_238 NUMERIC
@ATTRIBUTE P_239 NUMERIC
@ATTRIBUTE P_240 NUMERIC
@ATTRIBUTE P_241 NUMERIC
@ATTRIBUTE P_242 NUMERIC
@ATTRIBUTE P_243 NUMERIC
@ATTRIBUTE P_244 NUMERIC
@ATTRIBUTE P_245 NUMERIC
@ATTRIBUTE P_246 NUMERIC
@ATTRIBUTE P_247 NUMERIC
@ATTRIBUTE P_248 NUMERIC
@ATTRIBUTE P_249 NUMERIC
@ATTRIBUTE P_250 NUMERIC
@ATTRIBUTE P_251 NUMERIC
@ATTRIBUTE P_252 NUMERIC
@ATTRIBUTE P_253 NUMERIC
@ATTRIBUTE P_254 NUMERIC
@ATTRIBUTE P_255 NUMERIC
@ATTRIBUTE P_256 NUMERIC
@ATTRIBUTE P_257 NUMERIC
@ATTRIBUTE P_258 NUMERIC
@ATTRIBUTE P_259 NUMERIC
@ATTRIBUTE P_260 NUMERIC
@ATTRIBUTE P_261 NUMERIC
@ATTRIBUTE P_262 NUMERIC
@ATTRIBUTE P_263 NUMERIC
@ATTRIBUTE P_264 NUMERIC
@ATTRIBUTE P_265 NUMERIC
@ATTRIBUTE P_266 NUMERIC
@ATTRIBUTE P_267 NUMERIC
@ATTRIBUTE P_268 NUMERIC
@ATTRIBUTE P_269 NUMERIC
@ATTRIBUTE P_270 NUMERIC
@ATTRIBUTE P_271 NUMERIC
@ATTRIBUTE P_272 NUMERIC
@ATTRIBUTE P_273 NUMERIC
@ATTRIBUTE P_274 NUMERIC
@ATTRIBUTE P_275 NUMERIC
@ATTRIBUTE P_276 NUMERIC
@ATTRIBUTE P_277 NUMERIC
@ATTRIBUTE P_278 NUMERIC
@ATTRIBUTE P_279 NUMERIC
@ATTRIBUTE P_280 NUMERIC
@ATTRIBUTE P_281 NUMERIC
@ATTRIBUTE P_282 NUMERIC
@ATTRIBUTE P_283 NUMERIC
@ATTRIBUTE P_284 NUMERIC
@ATTRIBUTE P_285 NUMERIC
@ATTRIBUTE P_286 NUMERIC
@ATTRIBUTE P_287 NUMERIC
@ATTRIBUTE P_288 NUMERIC
@ATTRIBUTE P_289 NUMERIC
@ATTRIBUTE P_290 NUMERIC
@ATTRIBUTE P_291 NUMERIC
@ATTRIBUTE P_292 NUMERIC
@ATTRIBUTE P_293 NUMERIC
@ATTRIBUTE P_294 NUMERIC
@ATTRIBUTE P_295 NUMERIC
@ATTRIBUTE P_296 NUMERIC
@ATTRIBUTE P_297 NUMERIC
@ATTRIBUTE P_298 NUMERIC
@ATTRIBUTE P_299 NUMERIC
@ATTRIBUTE P_300 NUMERIC
@ATTRIBUTE P_301 NUMERIC
@ATTRIBUTE P_302 NUMERIC
@ATTRIBUTE P_303 NUMERIC
@ATTRIBUTE P_304 NUMERIC
@ATTRIBUTE P_305 NUMERIC
@ATTRIBUTE P_306 NUMERIC
@ATTRIBUTE P_307 NUMERIC
@ATTRIBUTE P_308 NUMERIC
@ATTRIBUTE P_309 NUMERIC
@ATTRIBUTE P_310 NUMERIC
@ATTRIBUTE P_311 NUMERIC
@ATTRIBUTE P_312 NUMERIC
@ATTRIBUTE P_313 NUMERIC
@ATTRIBUTE P_314 NUMERIC
@ATTRIBUTE P_315 NUMERIC
@ATTRIBUTE P_316 NUMERIC
@ATTRIBUTE P_317 NUMERIC
@ATTRIBUTE P_318 NUMERIC
@ATTRIBUTE P_319 NUMERIC
@ATTRIBUTE P_320 NUMERIC
@ATTRIBUTE P_321 NUMERIC
@ATTRIBUTE P_322 NUMERIC
@ATTRIBUTE P_323 NUMERIC
@ATTRIBUTE P_324 NUMERIC
@ATTRIBUTE P_325 NUMERIC
@ATTRIBUTE P_326 NUMERIC
@ATTRIBUTE P_327 NUMERIC
@ATTRIBUTE P_328 NUMERIC
@ATTRIBUTE P_329 NUMERIC
@ATTRIBUTE P_330 NUMERIC
@ATTRIBUTE P_331 NUMERIC
@ATTRIBUTE P_332 NUMERIC
@ATTRIBUTE P_333 NUMERIC
@ATTRIBUTE P_334 NUMERIC
@ATTRIBUTE P_335 NUMERIC
@ATTRIBUTE P_336 NUMERIC
@ATTRIBUTE P_337 NUMERIC
@ATTRIBUTE P_338 NUMERIC
@ATTRIBUTE P_339 NUMERIC
@ATTRIBUTE P_340 NUMERIC
@ATTRIBUTE P_341 NUMERIC
@ATTRIBUTE P_342 NUMERIC
@ATTRIBUTE P_343 NUMERIC
@ATTRIBUTE P_344 NUMERIC
@ATTRIBUTE P_345 NUMERIC
@ATTRIBUTE P_346 NUMERIC
@ATTRIBUTE P_347 NUMERIC
@ATTRIBUTE P_348 NUMERIC
@ATTRIBUTE P_349 NUMERIC
@ATTRIBUTE P_350 NUMERIC
@ATTRIBUTE P_351 NUMERIC
@ATTRIBUTE P_352 NUMERIC
@ATTRIBUTE P_353 NUMERIC
@ATTRIBUTE P_354 NUMERIC
@ATTRIBUTE P_355 NUMERIC
@ATTRIBUTE P_356 NUMERIC
@ATTRIBUTE P_357 NUMERIC
@ATTRIBUTE P_358 NUMERIC
@ATTRIBUTE P_359 NUMERIC
@ATTRIBUTE P_360 NUMERIC
@ATTRIBUTE P_361 NUMERIC
@ATTRIBUTE P_362 NUMERIC
@ATTRIBUTE P_363 NUMERIC
@ATTRIBUTE P_364 NUMERIC
@ATTRIBUTE P_365 NUMERIC
@ATTRIBUTE P_366 NUMERIC
@ATTRIBUTE P_367 NUMERIC
@ATTRIBUTE P_368 NUMERIC
@ATTRIBUTE P_369 NUMERIC
@ATTRIBUTE P_370 NUMERIC
@ATTRIBUTE P_371 NUMERIC
@ATTRIBUTE P_372 NUMERIC
@ATTRIBUTE P_373 NUMERIC
@ATTRIBUTE P_374 NUMERIC
@ATTRIBUTE P_375 NUMERIC
@ATTRIBUTE P_376 NUMERIC
@ATTRIBUTE P_377 NUMERIC
@ATTRIBUTE P_378 NUMERIC
@ATTRIBUTE P_379 NUMERIC
@ATTRIBUTE P_380 NUMERIC
@ATTRIBUTE P_381 NUMERIC
@ATTRIBUTE P_382 NUMERIC
@ATTRIBUTE P_383 NUMERIC
@ATTRIBUTE P_384 NUMERIC
@ATTRIBUTE P_385 NUMERIC
@ATTRIBUTE P_386 NUMERIC
@ATTRIBUTE P_387 NUMERIC
@ATTRIBUTE P_388 NUMERIC
@ATTRIBUTE P_389 NUMERIC
@ATTRIBUTE P_390 NUMERIC
@ATTRIBUTE P_391 NUMERIC
@ATTRIBUTE P_392 NUMERIC
@ATTRIBUTE P_393 NUMERIC
@ATTRIBUTE P_394 NUMERIC
@ATTRIBUTE P_395 NUMERIC
@ATTRIBUTE P_396 NUMERIC
@ATTRIBUTE P_397 NUMERIC
@ATTRIBUTE P_398 NUMERIC
@ATTRIBUTE P_399 NUMERIC
@ATTRIBUTE P_400 NUMERIC
@ATTRIBUTE P_401 NUMERIC
@ATTRIBUTE P_402 NUMERIC
@ATTRIBUTE P_403 NUMERIC
@ATTRIBUTE P_404 NUMERIC
@ATTRIBUTE P_405 NUMERIC
@ATTRIBUTE P_406 NUMERIC
@ATTRIBUTE P_407 NUMERIC
@ATTRIBUTE P_408 NUMERIC
@ATTRIBUTE P_409 NUMERIC
@ATTRIBUTE P_410 NUMERIC
@ATTRIBUTE P_411 NUMERIC
@ATTRIBUTE P_412 NUMERIC
@ATTRIBUTE P_413 NUMERIC
@ATTRIBUTE P_414 NUMERIC
@ATTRIBUTE P_415 NUMERIC
@ATTRIBUTE P_416 NUMERIC
@ATTRIBUTE P_417 NUMERIC
@ATTRIBUTE P_418 NUMERIC
@ATTRIBUTE P_419 NUMERIC
@ATTRIBUTE P_420 NUMERIC
@ATTRIBUTE P_421 NUMERIC
@ATTRIBUTE P_422 NUMERIC
@ATTRIBUTE P_423 NUMERIC
@ATTRIBUTE P_424 NUMERIC
@ATTRIBUTE P_425 NUMERIC
@ATTRIBUTE P_426 NUMERIC
@ATTRIBUTE P_427 NUMERIC
@ATTRIBUTE P_428 NUMERIC
@ATTRIBUTE P_429 NUMERIC
@ATTRIBUTE P_430 NUMERIC
@ATTRIBUTE P_431 NUMERIC
@ATTRIBUTE P_432 NUMERIC
@ATTRIBUTE P_433 NUMERIC
@ATTRIBUTE P_434 NUMERIC
@ATTRIBUTE P_435 NUMERIC
@ATTRIBUTE P_436 NUMERIC
@ATTRIBUTE P_437 NUMERIC
@ATTRIBUTE P_438 NUMERIC
@ATTRIBUTE P_439 NUMERIC
@ATTRIBUTE P_440 NUMERIC
@ATTRIBUTE P_441 NUMERIC
@ATTRIBUTE P_442 NUMERIC
@ATTRIBUTE P_443 NUMERIC
@ATTRIBUTE P_444 NUMERIC
@ATTRIBUTE P_445 NUMERIC
@ATTRIBUTE P_446 NUMERIC
@ATTRIBUTE P_447 NUMERIC
@ATTRIBUTE P_448 NUMERIC
@ATTRIBUTE P_449 NUMERIC
@ATTRIBUTE P_450 NUMERIC
@ATTRIBUTE P_451 NUMERIC
@ATTRIBUTE P_452 NUMERIC
@ATTRIBUTE P_453 NUMERIC
@ATTRIBUTE P_454 NUMERIC
@ATTRIBUTE P_455 NUMERIC
@ATTRIBUTE P_456 NUMERIC
@ATTRIBUTE P_457 NUMERIC
@ATTRIBUTE P_458 NUMERIC
@ATTRIBUTE P_459 NUMERIC
@ATTRIBUTE P_460 NUMERIC
@ATTRIBUTE P_461 NUMERIC
@ATTRIBUTE P_462 NUMERIC
@ATTRIBUTE P_463 NUMERIC
@ATTRIBUTE P_464 NUMERIC
@ATTRIBUTE P_465 NUMERIC
@ATTRIBUTE P_466 NUMERIC
@ATTRIBUTE P_467 NUMERIC
@ATTRIBUTE P_468 NUMERIC
@ATTRIBUTE P_469 NUMERIC
@ATTRIBUTE P_470 NUMERIC
@ATTRIBUTE P_471 NUMERIC
@ATTRIBUTE P_472 NUMERIC
@ATTRIBUTE P_473 NUMERIC
@ATTRIBUTE P_474 NUMERIC
@ATTRIBUTE P_475 NUMERIC
@ATTRIBUTE P_476 NUMERIC
@ATTRIBUTE P_477 NUMERIC
@ATTRIBUTE P_478 NUMERIC
@ATTRIBUTE P_479 NUMERIC
@ATTRIBUTE P_480 NUMERIC
@ATTRIBUTE P_481 NUMERIC
@ATTRIBUTE P_482 NUMERIC
@ATTRIBUTE P_483 NUMERIC
@ATTRIBUTE P_484 NUMERIC
@ATTRIBUTE P_485 NUMERIC
@ATTRIBUTE P_486 NUMERIC
@ATTRIBUTE P_487 NUMERIC
@ATTRIBUTE P_488 NUMERIC
@ATTRIBUTE P_489 NUMERIC
@ATTRIBUTE P_490 NUMERIC
@ATTRIBUTE P_491 NUMERIC
@ATTRIBUTE P_492 NUMERIC
@ATTRIBUTE P_493 NUMERIC
@ATTRIBUTE P_494 NUMERIC
@ATTRIBUTE P_495 NUMERIC
@ATTRIBUTE P_496 NUMERIC
@ATTRIBUTE P_497 NUMERIC
@ATTRIBUTE P_498 NUMERIC
@ATTRIBUTE P_499 NUMERIC
@ATTRIBUTE P_500 NUMERIC
@ATTRIBUTE P_501 NUMERIC
@ATTRIBUTE P_502 NUMERIC
@ATTRIBUTE P_503 NUMERIC
@ATTRIBUTE P_504 NUMERIC
@ATTRIBUTE P_505 NUMERIC
@ATTRIBUTE P_506 NUMERIC
@ATTRIBUTE P_507 NUMERIC
@ATTRIBUTE P_508 NUMERIC
@ATTRIBUTE P_509 NUMERIC
@ATTRIBUTE P_510 NUMERIC
@ATTRIBUTE P_511 NUMERIC
@ATTRIBUTE P_512 NUMERIC
@ATTRIBUTE P_513 NUMERIC
@ATTRIBUTE P_514 NUMERIC
@ATTRIBUTE P_515 NUMERIC
@ATTRIBUTE P_516 NUMERIC
@ATTRIBUTE P_517 NUMERIC
@ATTRIBUTE P_518 NUMERIC
@ATTRIBUTE P_519 NUMERIC
@ATTRIBUTE P_520 NUMERIC
@ATTRIBUTE P_521 NUMERIC
@ATTRIBUTE P_522 NUMERIC
@ATTRIBUTE P_523 NUMERIC
@ATTRIBUTE P_524 NUMERIC
@ATTRIBUTE P_525 NUMERIC
@ATTRIBUTE P_526 NUMERIC
@ATTRIBUTE P_527 NUMERIC
@ATTRIBUTE P_528 NUMERIC
@ATTRIBUTE P_529 NUMERIC
@ATTRIBUTE P_530 NUMERIC
@ATTRIBUTE P_531 NUMERIC
@ATTRIBUTE P_532 NUMERIC
@ATTRIBUTE P_533 NUMERIC
@ATTRIBUTE P_534 NUMERIC
@ATTRIBUTE P_535 NUMERIC
@ATTRIBUTE P_536 NUMERIC
@ATTRIBUTE P_537 NUMERIC
@ATTRIBUTE P_538 NUMERIC
@ATTRIBUTE P_539 NUMERIC
@ATTRIBUTE P_540 NUMERIC
@ATTRIBUTE P_541 NUMERIC
@ATTRIBUTE P_542 NUMERIC
@ATTRIBUTE P_543 NUMERIC
@ATTRIBUTE P_544 NUMERIC
@ATTRIBUTE P_545 NUMERIC
@ATTRIBUTE P_546 NUMERIC
@ATTRIBUTE P_547 NUMERIC
@ATTRIBUTE P_548 NUMERIC
@ATTRIBUTE P_549 NUMERIC
@ATTRIBUTE P_550 NUMERIC
@ATTRIBUTE P_551 NUMERIC
@ATTRIBUTE P_552 NUMERIC
@ATTRIBUTE P_553 NUMERIC
@ATTRIBUTE P_554 NUMERIC
@ATTRIBUTE P_555 NUMERIC
@ATTRIBUTE P_556 NUMERIC
@ATTRIBUTE P_557 NUMERIC
@ATTRIBUTE P_558 NUMERIC
@ATTRIBUTE P_559 NUMERIC
@ATTRIBUTE P_560 NUMERIC
@ATTRIBUTE P_561 NUMERIC
@ATTRIBUTE P_562 NUMERIC
@ATTRIBUTE P_563 NUMERIC
@ATTRIBUTE P_564 NUMERIC
@ATTRIBUTE P_565 NUMERIC
@ATTRIBUTE P_566 NUMERIC
@ATTRIBUTE P_567 NUMERIC
@ATTRIBUTE P_568 NUMERIC
@ATTRIBUTE P_569 NUMERIC
@ATTRIBUTE P_570 NUMERIC
@ATTRIBUTE P_571 NUMERIC
@ATTRIBUTE P_572 NUMERIC
@ATTRIBUTE P_573 NUMERIC
@ATTRIBUTE P_574 NUMERIC
@ATTRIBUTE P_575 NUMERIC
@ATTRIBUTE P_576 NUMERIC
@ATTRIBUTE P_577 NUMERIC
@ATTRIBUTE P_578 NUMERIC
@ATTRIBUTE P_579 NUMERIC
@ATTRIBUTE P_580 NUMERIC
@ATTRIBUTE P_581 NUMERIC
@ATTRIBUTE P_582 NUMERIC
@ATTRIBUTE P_583 NUMERIC
@ATTRIBUTE P_584 NUMERIC
@ATTRIBUTE P_585 NUMERIC
@ATTRIBUTE P_586 NUMERIC
@ATTRIBUTE P_587 NUMERIC
@ATTRIBUTE P_588 NUMERIC
@ATTRIBUTE P_589 NUMERIC
@ATTRIBUTE P_590 NUMERIC
@ATTRIBUTE P_591 NUMERIC
@ATTRIBUTE P_592 NUMERIC
@ATTRIBUTE P_593 NUMERIC
@ATTRIBUTE P_594 NUMERIC
@ATTRIBUTE P_595 NUMERIC
@ATTRIBUTE P_596 NUMERIC
@ATTRIBUTE P_597 NUMERIC
@ATTRIBUTE P_598 NUMERIC
@ATTRIBUTE P_599 NUMERIC
@ATTRIBUTE P_600 NUMERIC
@ATTRIBUTE P_601 NUMERIC
@ATTRIBUTE P_602 NUMERIC
@ATTRIBUTE P_603 NUMERIC
@ATTRIBUTE P_604 NUMERIC
@ATTRIBUTE P_605 NUMERIC
@ATTRIBUTE P_606 NUMERIC
@ATTRIBUTE P_607 NUMERIC
@ATTRIBUTE P_608 NUMERIC
@ATTRIBUTE P_609 NUMERIC
@ATTRIBUTE P_610 NUMERIC
@ATTRIBUTE P_611 NUMERIC
@ATTRIBUTE P_612 NUMERIC
@ATTRIBUTE P_613 NUMERIC
@ATTRIBUTE P_614 NUMERIC
@ATTRIBUTE P_615 NUMERIC
@ATTRIBUTE P_616 NUMERIC
@ATTRIBUTE P_617 NUMERIC
@ATTRIBUTE P_618 NUMERIC
@ATTRIBUTE P_619 NUMERIC
@ATTRIBUTE P_620 NUMERIC
@ATTRIBUTE P_621 NUMERIC
@ATTRIBUTE P_622 NUMERIC
@ATTRIBUTE P_623 NUMERIC
@ATTRIBUTE P_624 NUMERIC
@ATTRIBUTE P_625 NUMERIC
@ATTRIBUTE P_626 NUMERIC
@ATTRIBUTE P_627 NUMERIC
@ATTRIBUTE P_628 NUMERIC
@ATTRIBUTE P_629 NUMERIC
@ATTRIBUTE P_630 NUMERIC
@ATTRIBUTE P_631 NUMERIC
@ATTRIBUTE P_632 NUMERIC
@ATTRIBUTE P_633 NUMERIC
@ATTRIBUTE P_634 NUMERIC
@ATTRIBUTE P_635 NUMERIC
@ATTRIBUTE P_636 NUMERIC
@ATTRIBUTE P_637 NUMERIC
@ATTRIBUTE P_638 NUMERIC
@ATTRIBUTE P_639 NUMERIC
@ATTRIBUTE P_640 NUMERIC
@ATTRIBUTE P_641 NUMERIC
@ATTRIBUTE P_642 NUMERIC
@ATTRIBUTE P_643 NUMERIC
@ATTRIBUTE P_644 NUMERIC
@ATTRIBUTE P_645 NUMERIC
@ATTRIBUTE P_646 NUMERIC
@ATTRIBUTE P_647 NUMERIC
@ATTRIBUTE P_648 NUMERIC
@ATTRIBUTE P_649 NUMERIC
@ATTRIBUTE P_650 NUMERIC
@ATTRIBUTE P_651 NUMERIC
@ATTRIBUTE P_652 NUMERIC
@ATTRIBUTE P_653 NUMERIC
@ATTRIBUTE P_654 NUMERIC
@ATTRIBUTE P_655 NUMERIC
@ATTRIBUTE P_656 NUMERIC
@ATTRIBUTE P_657 NUMERIC
@ATTRIBUTE P_658 NUMERIC
@ATTRIBUTE P_659 NUMERIC
@ATTRIBUTE P_660 NUMERIC
@ATTRIBUTE P_661 NUMERIC
@ATTRIBUTE P_662 NUMERIC
@ATTRIBUTE P_663 NUMERIC
@ATTRIBUTE P_664 NUMERIC
@ATTRIBUTE P_665 NUMERIC
@ATTRIBUTE P_666 NUMERIC
@ATTRIBUTE P_667 NUMERIC
@ATTRIBUTE P_668 NUMERIC
@ATTRIBUTE P_669 NUMERIC
@ATTRIBUTE P_670 NUMERIC
@ATTRIBUTE P_671 NUMERIC
@ATTRIBUTE P_672 NUMERIC
@ATTRIBUTE P_673 NUMERIC
@ATTRIBUTE P_674 NUMERIC
@ATTRIBUTE P_675 NUMERIC
@ATTRIBUTE P_676 NUMERIC
@ATTRIBUTE P_677 NUMERIC
@ATTRIBUTE P_678 NUMERIC
@ATTRIBUTE P_679 NUMERIC
@ATTRIBUTE P_680 NUMERIC
@ATTRIBUTE P_681 NUMERIC
@ATTRIBUTE P_682 NUMERIC
@ATTRIBUTE P_683 NUMERIC
@ATTRIBUTE P_684 NUMERIC
@ATTRIBUTE P_685 NUMERIC
@ATTRIBUTE P_686 NUMERIC
@ATTRIBUTE P_687 NUMERIC
@ATTRIBUTE P_688 NUMERIC
@ATTRIBUTE P_689 NUMERIC
@ATTRIBUTE P_690 NUMERIC
@ATTRIBUTE P_691 NUMERIC
@ATTRIBUTE P_692 NUMERIC
@ATTRIBUTE P_693 NUMERIC
@ATTRIBUTE P_694 NUMERIC
@ATTRIBUTE P_695 NUMERIC
@ATTRIBUTE P_696 NUMERIC
@ATTRIBUTE P_697 NUMERIC
@ATTRIBUTE P_698 NUMERIC
@ATTRIBUTE P_699 NUMERIC
@ATTRIBUTE P_700 NUMERIC
@ATTRIBUTE P_701 NUMERIC
@ATTRIBUTE P_702 NUMERIC
@ATTRIBUTE P_703 NUMERIC
@ATTRIBUTE P_704 NUMERIC
@ATTRIBUTE P_705 NUMERIC
@ATTRIBUTE P_706 NUMERIC
@ATTRIBUTE P_707 NUMERIC
@ATTRIBUTE P_708 NUMERIC
@ATTRIBUTE P_709 NUMERIC
@ATTRIBUTE P_710 NUMERIC
@ATTRIBUTE P_711 NUMERIC
@ATTRIBUTE P_712 NUMERIC
@ATTRIBUTE P_713 NUMERIC
@ATTRIBUTE P_714 NUMERIC
@ATTRIBUTE P_715 NUMERIC
@ATTRIBUTE P_716 NUMERIC
@ATTRIBUTE P_717 NUMERIC
@ATTRIBUTE P_718 NUMERIC
@ATTRIBUTE P_719 NUMERIC
@ATTRIBUTE P_720 NUMERIC
@ATTRIBUTE P_721 NUMERIC
@ATTRIBUTE P_722 NUMERIC
@ATTRIBUTE P_723 NUMERIC
@ATTRIBUTE P_724 NUMERIC
@ATTRIBUTE P_725 NUMERIC
@ATTRIBUTE P_726 NUMERIC
@ATTRIBUTE P_727 NUMERIC
@ATTRIBUTE P_728 NUMERIC
@ATTRIBUTE P_729 NUMERIC
@ATTRIBUTE P_730 NUMERIC
@ATTRIBUTE P_731 NUMERIC
@ATTRIBUTE P_732 NUMERIC
@ATTRIBUTE P_733 NUMERIC
@ATTRIBUTE P_734 NUMERIC
@ATTRIBUTE P_735 NUMERIC
@ATTRIBUTE P_736 NUMERIC
@ATTRIBUTE P_737 NUMERIC
@ATTRIBUTE P_738 NUMERIC
@ATTRIBUTE P_739 NUMERIC
@ATTRIBUTE P_740 NUMERIC
@ATTRIBUTE P_741 NUMERIC
@ATTRIBUTE P_742 NUMERIC
@ATTRIBUTE P_743 NUMERIC
@ATTRIBUTE P_744 NUMERIC
@ATTRIBUTE P_745 NUMERIC
@ATTRIBUTE P_746 NUMERIC
@ATTRIBUTE P_747 NUMERIC
@ATTRIBUTE P_748 NUMERIC
@ATTRIBUTE P_749 NUMERIC
@ATTRIBUTE P_750 NUMERIC
@ATTRIBUTE P_751 NUMERIC
@ATTRIBUTE P_752 NUMERIC
@ATTRIBUTE P_753 NUMERIC
@ATTRIBUTE P_754 NUMERIC
@ATTRIBUTE P_755 NUMERIC
@ATTRIBUTE P_756 NUMERIC
@ATTRIBUTE P_757 NUMERIC
@ATTRIBUTE P_758 NUMERIC
@ATTRIBUTE P_759 NUMERIC
@ATTRIBUTE P_760 NUMERIC
@ATTRIBUTE P_761 NUMERIC
@ATTRIBUTE P_762 NUMERIC
@ATTRIBUTE P_763 NUMERIC
@ATTRIBUTE P_764 NUMERIC
@ATTRIBUTE P_765 NUMERIC
@ATTRIBUTE P_766 NUMERIC
@ATTRIBUTE P_767 NUMERIC
@ATTRIBUTE P_768 NUMERIC
@ATTRIBUTE P_769 NUMERIC
@ATTRIBUTE P_770 NUMERIC
@ATTRIBUTE P_771 NUMERIC
@ATTRIBUTE P_772 NUMERIC
@ATTRIBUTE P_773 NUMERIC
@ATTRIBUTE P_774 NUMERIC
@ATTRIBUTE P_775 NUMERIC
@ATTRIBUTE P_776 NUMERIC
@ATTRIBUTE P_777 NUMERIC
@ATTRIBUTE P_778 NUMERIC
@ATTRIBUTE P_779 NUMERIC
@ATTRIBUTE P_780 NUMERIC
@ATTRIBUTE P_781 NUMERIC
@ATTRIBUTE P_782 NUMERIC
@ATTRIBUTE P_783 NUMERIC
@ATTRIBUTE P_784 NUMERIC
@ATTRIBUTE P_785 NUMERIC
@ATTRIBUTE P_786 NUMERIC
@ATTRIBUTE P_787 NUMERIC
@ATTRIBUTE P_788 NUMERIC
@ATTRIBUTE P_789 NUMERIC
@ATTRIBUTE P_790 NUMERIC
@ATTRIBUTE P_791 NUMERIC
@ATTRIBUTE P_792 NUMERIC
@ATTRIBUTE P_793 NUMERIC
@ATTRIBUTE P_794 NUMERIC
@ATTRIBUTE P_795 NUMERIC
@ATTRIBUTE P_796 NUMERIC
@ATTRIBUTE P_797 NUMERIC
@ATTRIBUTE P_798 NUMERIC
@ATTRIBUTE P_799 NUMERIC
@ATTRIBUTE P_800 NUMERIC
@ATTRIBUTE P_801 NUMERIC
@ATTRIBUTE P_802 NUMERIC
@ATTRIBUTE P_803 NUMERIC
@ATTRIBUTE P_804 NUMERIC
@ATTRIBUTE P_805 NUMERIC
@ATTRIBUTE P_806 NUMERIC
@ATTRIBUTE P_807 NUMERIC
@ATTRIBUTE P_808 NUMERIC
@ATTRIBUTE P_809 NUMERIC
@ATTRIBUTE P_810 NUMERIC
@ATTRIBUTE P_811 NUMERIC
@ATTRIBUTE P_812 NUMERIC
@ATTRIBUTE P_813 NUMERIC
@ATTRIBUTE P_814 NUMERIC
@ATTRIBUTE P_815 NUMERIC
@ATTRIBUTE P_816 NUMERIC
@ATTRIBUTE P_817 NUMERIC
@ATTRIBUTE P_818 NUMERIC
@ATTRIBUTE P_819 NUMERIC
@ATTRIBUTE P_820 NUMERIC
@ATTRIBUTE P_821 NUMERIC
@ATTRIBUTE P_822 NUMERIC
@ATTRIBUTE P_823 NUMERIC
@ATTRIBUTE P_824 NUMERIC
@ATTRIBUTE P_825 NUMERIC
@ATTRIBUTE P_826 NUMERIC
@ATTRIBUTE P_827 NUMERIC
@ATTRIBUTE P_828 NUMERIC
@ATTRIBUTE P_829 NUMERIC
@ATTRIBUTE P_830 NUMERIC
@ATTRIBUTE P_831 NUMERIC
@ATTRIBUTE P_832 NUMERIC
@ATTRIBUTE P_833 NUMERIC
@ATTRIBUTE P_834 NUMERIC
@ATTRIBUTE P_835 NUMERIC
@ATTRIBUTE P_836 NUMERIC
@ATTRIBUTE P_837 NUMERIC
@ATTRIBUTE P_838 NUMERIC
@ATTRIBUTE P_839 NUMERIC
@ATTRIBUTE P_840 NUMERIC
@ATTRIBUTE P_841 NUMERIC
@ATTRIBUTE P_842 NUMERIC
@ATTRIBUTE P_843 NUMERIC
@ATTRIBUTE P_844 NUMERIC
@ATTRIBUTE P_845 NUMERIC
@ATTRIBUTE P_846 NUMERIC
@ATTRIBUTE P_847 NUMERIC
@ATTRIBUTE P_848 NUMERIC
@ATTRIBUTE P_849 NUMERIC
@ATTRIBUTE P_850 NUMERIC
@ATTRIBUTE P_851 NUMERIC
@ATTRIBUTE P_852 NUMERIC
@ATTRIBUTE P_853 NUMERIC
@ATTRIBUTE P_854 NUMERIC
@ATTRIBUTE P_855 NUMERIC
@ATTRIBUTE P_856 NUMERIC
@ATTRIBUTE P_857 NUMERIC
@ATTRIBUTE P_858 NUMERIC
@ATTRIBUTE P_859 NUMERIC
@ATTRIBUTE P_860 NUMERIC
@ATTRIBUTE P_861 NUMERIC
@ATTRIBUTE P_862 NUMERIC
@ATTRIBUTE P_863 NUMERIC
@ATTRIBUTE P_864 NUMERIC
@ATTRIBUTE P_865 NUMERIC
@ATTRIBUTE P_866 NUMERIC
@ATTRIBUTE P_867 NUMERIC
@ATTRIBUTE P_868 NUMERIC
@ATTRIBUTE P_869 NUMERIC
@ATTRIBUTE P_870 NUMERIC
@ATTRIBUTE P_871 NUMERIC
@ATTRIBUTE P_872 NUMERIC
@ATTRIBUTE P_873 NUMERIC
@ATTRIBUTE P_874 NUMERIC
@ATTRIBUTE P_875 NUMERIC
@ATTRIBUTE P_876 NUMERIC
@ATTRIBUTE P_877 NUMERIC
@ATTRIBUTE P_878 NUMERIC
@ATTRIBUTE P_879 NUMERIC
@ATTRIBUTE P_880 NUMERIC
@ATTRIBUTE P_881 NUMERIC
@ATTRIBUTE P_882 NUMERIC
@ATTRIBUTE P_883 NUMERIC
@ATTRIBUTE P_884 NUMERIC
@ATTRIBUTE P_885 NUMERIC
@ATTRIBUTE P_886 NUMERIC
@ATTRIBUTE P_887 NUMERIC
@ATTRIBUTE P_888 NUMERIC
@ATTRIBUTE P_889 NUMERIC
@ATTRIBUTE P_890 NUMERIC
@ATTRIBUTE P_891 NUMERIC
@ATTRIBUTE P_892 NUMERIC
@ATTRIBUTE P_893 NUMERIC
@ATTRIBUTE P_894 NUMERIC
@ATTRIBUTE P_895 NUMERIC
@ATTRIBUTE P_896 NUMERIC
@ATTRIBUTE P_897 NUMERIC
@ATTRIBUTE P_898 NUMERIC
@ATTRIBUTE P_899 NUMERIC
@ATTRIBUTE P_900 NUMERIC
@ATTRIBUTE P_901 NUMERIC
@ATTRIBUTE P_902 NUMERIC
@ATTRIBUTE P_903 NUMERIC
@ATTRIBUTE P_904 NUMERIC
@ATTRIBUTE P_905 NUMERIC
@ATTRIBUTE P_906 NUMERIC
@ATTRIBUTE P_907 NUMERIC
@ATTRIBUTE P_908 NUMERIC
@ATTRIBUTE P_909 NUMERIC
@ATTRIBUTE P_910 NUMERIC
@ATTRIBUTE P_911 NUMERIC
@ATTRIBUTE P_912 NUMERIC
@ATTRIBUTE P_913 NUMERIC
@ATTRIBUTE P_914 NUMERIC
@ATTRIBUTE P_915 NUMERIC
@ATTRIBUTE P_916 NUMERIC
@ATTRIBUTE P_917 NUMERIC
@ATTRIBUTE P_918 NUMERIC
@ATTRIBUTE P_919 NUMERIC
@ATTRIBUTE P_920 NUMERIC
@ATTRIBUTE P_921 NUMERIC
@ATTRIBUTE P_922 NUMERIC
@ATTRIBUTE P_923 NUMERIC
@ATTRIBUTE P_924 NUMERIC
@ATTRIBUTE P_925 NUMERIC
@ATTRIBUTE P_926 NUMERIC
@ATTRIBUTE P_927 NUMERIC
@ATTRIBUTE P_928 NUMERIC
@ATTRIBUTE P_929 NUMERIC
@ATTRIBUTE P_930 NUMERIC
@ATTRIBUTE P_931 NUMERIC
@ATTRIBUTE P_932 NUMERIC
@ATTRIBUTE P_933 NUMERIC
@ATTRIBUTE P_934 NUMERIC
@ATTRIBUTE P_935 NUMERIC
@ATTRIBUTE P_936 NUMERIC
@ATTRIBUTE P_937 NUMERIC
@ATTRIBUTE P_938 NUMERIC
@ATTRIBUTE P_939 NUMERIC
@ATTRIBUTE P_940 NUMERIC
@ATTRIBUTE P_941 NUMERIC
@ATTRIBUTE P_942 NUMERIC
@ATTRIBUTE P_943 NUMERIC
@ATTRIBUTE P_944 NUMERIC
@ATTRIBUTE P_945 NUMERIC
@ATTRIBUTE P_946 NUMERIC
@ATTRIBUTE P_947 NUMERIC
@ATTRIBUTE P_948 NUMERIC
@ATTRIBUTE P_949 NUMERIC
@ATTRIBUTE P_950 NUMERIC
@ATTRIBUTE P_951 NUMERIC
@ATTRIBUTE P_952 NUMERIC
@ATTRIBUTE P_953 NUMERIC
@ATTRIBUTE P_954 NUMERIC
@ATTRIBUTE P_955 NUMERIC
@ATTRIBUTE P_956 NUMERIC
@ATTRIBUTE P_957 NUMERIC
@ATTRIBUTE P_958 NUMERIC
@ATTRIBUTE P_959 NUMERIC
@ATTRIBUTE P_960 NUMERIC
@ATTRIBUTE P_961 NUMERIC
@ATTRIBUTE P_962 NUMERIC
@ATTRIBUTE P_963 NUMERIC
@ATTRIBUTE P_964 NUMERIC
@ATTRIBUTE P_965 NUMERIC
@ATTRIBUTE P_966 NUMERIC
@ATTRIBUTE P_967 NUMERIC
@ATTRIBUTE P_968 NUMERIC
@ATTRIBUTE P_969 NUMERIC
@ATTRIBUTE P_970 NUMERIC
@ATTRIBUTE P_971 NUMERIC
@ATTRIBUTE P_972 NUMERIC
@ATTRIBUTE P_973 NUMERIC
@ATTRIBUTE P_974 NUMERIC
@ATTRIBUTE P_975 NUMERIC
@ATTRIBUTE P_976 NUMERIC
@ATTRIBUTE P_977 NUMERIC
@ATTRIBUTE P_978 NUMERIC
@ATTRIBUTE P_979 NUMERIC
@ATTRIBUTE P_980 NUMERIC
@ATTRIBUTE P_981 NUMERIC
@ATTRIBUTE P_982 NUMERIC
@ATTRIBUTE P_983 NUMERIC
@ATTRIBUTE P_984 NUMERIC
@ATTRIBUTE P_985 NUMERIC
@ATTRIBUTE P_986 NUMERIC
@ATTRIBUTE P_987 NUMERIC
@ATTRIBUTE P_988 NUMERIC
@ATTRIBUTE P_989 NUMERIC
@ATTRIBUTE P_990 NUMERIC
@ATTRIBUTE P_991 NUMERIC
@ATTRIBUTE P_992 NUMERIC
@ATTRIBUTE P_993 NUMERIC
@ATTRIBUTE P_994 NUMERIC
@ATTRIBUTE P_995 NUMERIC
@ATTRIBUTE P_996 NUMERIC
@ATTRIBUTE P_997 NUMERIC
@ATTRIBUTE P_998 NUMERIC
@ATTRIBUTE P_999 NUMERIC
@ATTRIBUTE P_1000 NUMERIC
@ATTRIBUTE P_1001 NUMERIC
@ATTRIBUTE P_1002 NUMERIC
@ATTRIBUTE P_1003 NUMERIC
@ATTRIBUTE P_1004 NUMERIC
@ATTRIBUTE P_1005 NUMERIC
@ATTRIBUTE P_1006 NUMERIC
@ATTRIBUTE P_1007 NUMERIC
@ATTRIBUTE P_1008 NUMERIC
@ATTRIBUTE P_1009 NUMERIC
@ATTRIBUTE P_1010 NUMERIC
@ATTRIBUTE P_1011 NUMERIC
@ATTRIBUTE P_1012 NUMERIC
@ATTRIBUTE P_1013 NUMERIC
@ATTRIBUTE P_1014 NUMERIC
@ATTRIBUTE P_1015 NUMERIC
@ATTRIBUTE P_1016 NUMERIC
@ATTRIBUTE P_1017 NUMERIC
@ATTRIBUTE P_1018 NUMERIC
@ATTRIBUTE P_1019 NUMERIC
@ATTRIBUTE P_1020 NUMERIC
@ATTRIBUTE P_1021 NUMERIC
@ATTRIBUTE P_1022 NUMERIC
@ATTRIBUTE P_1023 NUMERIC
@ATTRIBUTE P_1024 NUMERIC
@ATTRIBUTE P_1025 NUMERIC
@ATTRIBUTE P_1026 NUMERIC
@ATTRIBUTE P_1027 NUMERIC
@ATTRIBUTE P_1028 NUMERIC
@ATTRIBUTE P_1029 NUMERIC
@ATTRIBUTE P_1030 NUMERIC
@ATTRIBUTE P_1031 NUMERIC
@ATTRIBUTE P_1032 NUMERIC
@ATTRIBUTE P_1033 NUMERIC
@ATTRIBUTE P_1034 NUMERIC
@ATTRIBUTE P_1035 NUMERIC
@ATTRIBUTE P_1036 NUMERIC
@ATTRIBUTE P_1037 NUMERIC
@ATTRIBUTE P_1038 NUMERIC
@ATTRIBUTE P_1039 NUMERIC
@ATTRIBUTE P_1040 NUMERIC
@ATTRIBUTE P_1041 NUMERIC
@ATTRIBUTE P_1042 NUMERIC
@ATTRIBUTE P_1043 NUMERIC
@ATTRIBUTE P_1044 NUMERIC
@ATTRIBUTE P_1045 NUMERIC
@ATTRIBUTE P_1046 NUMERIC
@ATTRIBUTE P_1047 NUMERIC
@ATTRIBUTE P_1048 NUMERIC
@ATTRIBUTE P_1049 NUMERIC
@ATTRIBUTE P_1050 NUMERIC
@ATTRIBUTE P_1051 NUMERIC
@ATTRIBUTE P_1052 NUMERIC
@ATTRIBUTE P_1053 NUMERIC
@ATTRIBUTE P_1054 NUMERIC
@ATTRIBUTE P_1055 NUMERIC
@ATTRIBUTE P_1056 NUMERIC
@ATTRIBUTE P_1057 NUMERIC
@ATTRIBUTE P_1058 NUMERIC
@ATTRIBUTE P_1059 NUMERIC
@ATTRIBUTE P_1060 NUMERIC
@ATTRIBUTE P_1061 NUMERIC
@ATTRIBUTE P_1062 NUMERIC
@ATTRIBUTE P_1063 NUMERIC
@ATTRIBUTE P_1064 NUMERIC
@ATTRIBUTE P_1065 NUMERIC
@ATTRIBUTE P_1066 NUMERIC
@ATTRIBUTE P_1067 NUMERIC
@ATTRIBUTE P_1068 NUMERIC
@ATTRIBUTE P_1069 NUMERIC
@ATTRIBUTE P_1070 NUMERIC
@ATTRIBUTE P_1071 NUMERIC
@ATTRIBUTE P_1072 NUMERIC
@ATTRIBUTE P_1073 NUMERIC
@ATTRIBUTE P_1074 NUMERIC
@ATTRIBUTE P_1075 NUMERIC
@ATTRIBUTE P_1076 NUMERIC
@ATTRIBUTE P_1077 NUMERIC
@ATTRIBUTE P_1078 NUMERIC
@ATTRIBUTE P_1079 NUMERIC
@ATTRIBUTE P_1080 NUMERIC
@ATTRIBUTE P_1081 NUMERIC
@ATTRIBUTE P_1082 NUMERIC
@ATTRIBUTE P_1083 NUMERIC
@ATTRIBUTE P_1084 NUMERIC
@ATTRIBUTE P_1085 NUMERIC
@ATTRIBUTE P_1086 NUMERIC
@ATTRIBUTE P_1087 NUMERIC
@ATTRIBUTE P_1088 NUMERIC
@ATTRIBUTE P_1089 NUMERIC
@ATTRIBUTE P_1090 NUMERIC
@ATTRIBUTE P_1091 NUMERIC
@ATTRIBUTE P_1092 NUMERIC
@ATTRIBUTE P_1093 NUMERIC
@ATTRIBUTE P_1094 NUMERIC
@ATTRIBUTE P_1095 NUMERIC
@ATTRIBUTE P_1096 NUMERIC
@ATTRIBUTE P_1097 NUMERIC
@ATTRIBUTE P_1098 NUMERIC
@ATTRIBUTE P_1099 NUMERIC
@ATTRIBUTE P_1100 NUMERIC
@ATTRIBUTE P_1101 NUMERIC
@ATTRIBUTE P_1102 NUMERIC
@ATTRIBUTE P_1103 NUMERIC
@ATTRIBUTE P_1104 NUMERIC
@ATTRIBUTE P_1105 NUMERIC
@ATTRIBUTE P_1106 NUMERIC
@ATTRIBUTE P_1107 NUMERIC
@ATTRIBUTE P_1108 NUMERIC
@ATTRIBUTE P_1109 NUMERIC
@ATTRIBUTE P_1110 NUMERIC
@ATTRIBUTE P_1111 NUMERIC
@ATTRIBUTE P_1112 NUMERIC
@ATTRIBUTE P_1113 NUMERIC
@ATTRIBUTE P_1114 NUMERIC
@ATTRIBUTE P_1115 NUMERIC
@ATTRIBUTE P_1116 NUMERIC
@ATTRIBUTE P_1117 NUMERIC
@ATTRIBUTE P_1118 NUMERIC
@ATTRIBUTE P_1119 NUMERIC
@ATTRIBUTE P_1120 NUMERIC
@ATTRIBUTE P_1121 NUMERIC
@ATTRIBUTE P_1122 NUMERIC
@ATTRIBUTE P_1123 NUMERIC
@ATTRIBUTE P_1124 NUMERIC
@ATTRIBUTE P_1125 NUMERIC
@ATTRIBUTE P_1126 NUMERIC
@ATTRIBUTE P_1127 NUMERIC
@ATTRIBUTE P_1128 NUMERIC
@ATTRIBUTE P_1129 NUMERIC
@ATTRIBUTE P_1130 NUMERIC
@ATTRIBUTE P_1131 NUMERIC
@ATTRIBUTE P_1132 NUMERIC
@ATTRIBUTE P_1133 NUMERIC
@ATTRIBUTE P_1134 NUMERIC
@ATTRIBUTE P_1135 NUMERIC
@ATTRIBUTE P_1136 NUMERIC
@ATTRIBUTE P_1137 NUMERIC
@ATTRIBUTE P_1138 NUMERIC
@ATTRIBUTE P_1139 NUMERIC
@ATTRIBUTE P_1140 NUMERIC
@ATTRIBUTE P_1141 NUMERIC
@ATTRIBUTE P_1142 NUMERIC
@ATTRIBUTE P_1143 NUMERIC
@ATTRIBUTE P_1144 NUMERIC
@ATTRIBUTE P_1145 NUMERIC
@ATTRIBUTE P_1146 NUMERIC
@ATTRIBUTE P_1147 NUMERIC
@ATTRIBUTE P_1148 NUMERIC
@ATTRIBUTE P_1149 NUMERIC
@ATTRIBUTE P_1150 NUMERIC
@ATTRIBUTE P_1151 NUMERIC
@ATTRIBUTE P_1152 NUMERIC
@ATTRIBUTE P_1153 NUMERIC
@ATTRIBUTE P_1154 NUMERIC
@ATTRIBUTE P_1155 NUMERIC
@ATTRIBUTE P_1156 NUMERIC
@ATTRIBUTE P_1157 NUMERIC
@ATTRIBUTE P_1158 NUMERIC
@ATTRIBUTE P_1159 NUMERIC
@ATTRIBUTE P_1160 NUMERIC
@ATTRIBUTE P_1161 NUMERIC
@ATTRIBUTE P_1162 NUMERIC
@ATTRIBUTE P_1163 NUMERIC
@ATTRIBUTE P_1164 NUMERIC
@ATTRIBUTE P_1165 NUMERIC
@ATTRIBUTE P_1166 NUMERIC
@ATTRIBUTE P_1167 NUMERIC
@ATTRIBUTE P_1168 NUMERIC
@ATTRIBUTE P_1169 NUMERIC
@ATTRIBUTE P_1170 NUMERIC
@ATTRIBUTE P_1171 NUMERIC
@ATTRIBUTE P_1172 NUMERIC
@ATTRIBUTE P_1173 NUMERIC
@ATTRIBUTE P_1174 NUMERIC
@ATTRIBUTE P_1175 NUMERIC
@ATTRIBUTE P_1176 NUMERIC
@ATTRIBUTE P_1177 NUMERIC
@ATTRIBUTE P_1178 NUMERIC
@ATTRIBUTE P_1179 NUMERIC
@ATTRIBUTE P_1180 NUMERIC
@ATTRIBUTE P_1181 NUMERIC
@ATTRIBUTE P_1182 NUMERIC
@ATTRIBUTE P_1183 NUMERIC
@ATTRIBUTE P_1184 NUMERIC
@ATTRIBUTE P_1185 NUMERIC
@ATTRIBUTE P_1186 NUMERIC
@ATTRIBUTE P_1187 NUMERIC
@ATTRIBUTE P_1188 NUMERIC
@ATTRIBUTE P_1189 NUMERIC
@ATTRIBUTE P_1190 NUMERIC
@ATTRIBUTE P_1191 NUMERIC
@ATTRIBUTE P_1192 NUMERIC
@ATTRIBUTE P_1193 NUMERIC
@ATTRIBUTE P_1194 NUMERIC
@ATTRIBUTE P_1195 NUMERIC
@ATTRIBUTE P_1196 NUMERIC
@ATTRIBUTE P_1197 NUMERIC
@ATTRIBUTE P_1198 NUMERIC
@ATTRIBUTE P_1199 NUMERIC
@ATTRIBUTE P_1200 NUMERIC
@ATTRIBUTE P_1201 NUMERIC
@ATTRIBUTE P_1202 NUMERIC
@ATTRIBUTE P_1203 NUMERIC
@ATTRIBUTE P_1204 NUMERIC
@ATTRIBUTE P_1205 NUMERIC
@ATTRIBUTE P_1206 NUMERIC
@ATTRIBUTE P_1207 NUMERIC
@ATTRIBUTE P_1208 NUMERIC
@ATTRIBUTE P_1209 NUMERIC
@ATTRIBUTE P_1210 NUMERIC
@ATTRIBUTE P_1211 NUMERIC
@ATTRIBUTE P_1212 NUMERIC
@ATTRIBUTE P_1213 NUMERIC
@ATTRIBUTE P_1214 NUMERIC
@ATTRIBUTE P_1215 NUMERIC
@ATTRIBUTE P_1216 NUMERIC
@ATTRIBUTE P_1217 NUMERIC
@ATTRIBUTE P_1218 NUMERIC
@ATTRIBUTE P_1219 NUMERIC
@ATTRIBUTE P_1220 NUMERIC
@ATTRIBUTE P_1221 NUMERIC
@ATTRIBUTE P_1222 NUMERIC
@ATTRIBUTE P_1223 NUMERIC
@ATTRIBUTE P_1224 NUMERIC
@ATTRIBUTE P_1225 NUMERIC
@ATTRIBUTE P_1226 NUMERIC
@ATTRIBUTE P_1227 NUMERIC
@ATTRIBUTE P_1228 NUMERIC
@ATTRIBUTE P_1229 NUMERIC
@ATTRIBUTE P_1230 NUMERIC
@ATTRIBUTE P_1231 NUMERIC
@ATTRIBUTE P_1232 NUMERIC
@ATTRIBUTE P_1233 NUMERIC
@ATTRIBUTE P_1234 NUMERIC
@ATTRIBUTE P_1235 NUMERIC
@ATTRIBUTE P_1236 NUMERIC
@ATTRIBUTE P_1237 NUMERIC
@ATTRIBUTE P_1238 NUMERIC
@ATTRIBUTE P_1239 NUMERIC
@ATTRIBUTE P_1240 NUMERIC
@ATTRIBUTE P_1241 NUMERIC
@ATTRIBUTE P_1242 NUMERIC
@ATTRIBUTE P_1243 NUMERIC
@ATTRIBUTE P_1244 NUMERIC
@ATTRIBUTE P_1245 NUMERIC
@ATTRIBUTE P_1246 NUMERIC
@ATTRIBUTE P_1247 NUMERIC
@ATTRIBUTE P_1248 NUMERIC
@ATTRIBUTE P_1249 NUMERIC
@ATTRIBUTE P_1250 NUMERIC
@ATTRIBUTE P_1251 NUMERIC
@ATTRIBUTE P_1252 NUMERIC
@ATTRIBUTE P_1253 NUMERIC
@ATTRIBUTE P_1254 NUMERIC
@ATTRIBUTE P_1255 NUMERIC
@ATTRIBUTE P_1256 NUMERIC
@ATTRIBUTE P_1257 NUMERIC
@ATTRIBUTE P_1258 NUMERIC
@ATTRIBUTE P_1259 NUMERIC
@ATTRIBUTE P_1260 NUMERIC
@ATTRIBUTE P_1261 NUMERIC
@ATTRIBUTE P_1262 NUMERIC
@ATTRIBUTE P_1263 NUMERIC
@ATTRIBUTE P_1264 NUMERIC
@ATTRIBUTE P_1265 NUMERIC
@ATTRIBUTE P_1266 NUMERIC
@ATTRIBUTE P_1267 NUMERIC
@ATTRIBUTE P_1268 NUMERIC
@ATTRIBUTE P_1269 NUMERIC
@ATTRIBUTE P_1270 NUMERIC
@ATTRIBUTE P_1271 NUMERIC
@ATTRIBUTE P_1272 NUMERIC
@ATTRIBUTE P_1273 NUMERIC
@ATTRIBUTE P_1274 NUMERIC
@ATTRIBUTE P_1275 NUMERIC
@ATTRIBUTE P_1276 NUMERIC
@ATTRIBUTE P_1277 NUMERIC
@ATTRIBUTE P_1278 NUMERIC
@ATTRIBUTE P_1279 NUMERIC
@ATTRIBUTE P_1280 NUMERIC
@ATTRIBUTE P_1281 NUMERIC
@ATTRIBUTE P_1282 NUMERIC
@ATTRIBUTE P_1283 NUMERIC
@ATTRIBUTE P_1284 NUMERIC
@ATTRIBUTE P_1285 NUMERIC
@ATTRIBUTE P_1286 NUMERIC
@ATTRIBUTE P_1287 NUMERIC
@ATTRIBUTE P_1288 NUMERIC
@ATTRIBUTE P_1289 NUMERIC
@ATTRIBUTE P_1290 NUMERIC
@ATTRIBUTE P_1291 NUMERIC
@ATTRIBUTE P_1292 NUMERIC
@ATTRIBUTE P_1293 NUMERIC
@ATTRIBUTE P_1294 NUMERIC
@ATTRIBUTE P_1295 NUMERIC
@ATTRIBUTE P_1296 NUMERIC
@ATTRIBUTE P_1297 NUMERIC
@ATTRIBUTE P_1298 NUMERIC
@ATTRIBUTE P_1299 NUMERIC
@ATTRIBUTE P_1300 NUMERIC
@ATTRIBUTE P_1301 NUMERIC
@ATTRIBUTE P_1302 NUMERIC
@ATTRIBUTE P_1303 NUMERIC
@ATTRIBUTE P_1304 NUMERIC
@ATTRIBUTE P_1305 NUMERIC
@ATTRIBUTE P_1306 NUMERIC
@ATTRIBUTE P_1307 NUMERIC
@ATTRIBUTE P_1308 NUMERIC
@ATTRIBUTE P_1309 NUMERIC
@ATTRIBUTE P_1310 NUMERIC
@ATTRIBUTE P_1311 NUMERIC
@ATTRIBUTE P_1312 NUMERIC
@ATTRIBUTE P_1313 NUMERIC
@ATTRIBUTE P_1314 NUMERIC
@ATTRIBUTE P_1315 NUMERIC
@ATTRIBUTE P_1316 NUMERIC
@ATTRIBUTE P_1317 NUMERIC
@ATTRIBUTE P_1318 NUMERIC
@ATTRIBUTE P_1319 NUMERIC
@ATTRIBUTE P_1320 NUMERIC
@ATTRIBUTE P_1321 NUMERIC
@ATTRIBUTE P_1322 NUMERIC
@ATTRIBUTE P_1323 NUMERIC
@ATTRIBUTE P_1324 NUMERIC
@ATTRIBUTE P_1325 NUMERIC
@ATTRIBUTE P_1326 NUMERIC
@ATTRIBUTE P_1327 NUMERIC
@ATTRIBUTE P_1328 NUMERIC
@ATTRIBUTE P_1329 NUMERIC
@ATTRIBUTE P_1330 NUMERIC
@ATTRIBUTE P_1331 NUMERIC
@ATTRIBUTE P_1332 NUMERIC
@ATTRIBUTE P_1333 NUMERIC
@ATTRIBUTE P_1334 NUMERIC
@ATTRIBUTE P_1335 NUMERIC
@ATTRIBUTE P_1336 NUMERIC
@ATTRIBUTE P_1337 NUMERIC
@ATTRIBUTE P_1338 NUMERIC
@ATTRIBUTE P_1339 NUMERIC
@ATTRIBUTE P_1340 NUMERIC
@ATTRIBUTE P_1341 NUMERIC
@ATTRIBUTE P_1342 NUMERIC
@ATTRIBUTE P_1343 NUMERIC
@ATTRIBUTE P_1344 NUMERIC
@ATTRIBUTE P_1345 NUMERIC
@ATTRIBUTE P_1346 NUMERIC
@ATTRIBUTE P_1347 NUMERIC
@ATTRIBUTE P_1348 NUMERIC
@ATTRIBUTE P_1349 NUMERIC
@ATTRIBUTE P_1350 NUMERIC
@ATTRIBUTE P_1351 NUMERIC
@ATTRIBUTE P_1352 NUMERIC
@ATTRIBUTE P_1353 NUMERIC
@ATTRIBUTE P_1354 NUMERIC
@ATTRIBUTE P_1355 NUMERIC
@ATTRIBUTE P_1356 NUMERIC
@ATTRIBUTE P_1357 NUMERIC
@ATTRIBUTE P_1358 NUMERIC
@ATTRIBUTE P_1359 NUMERIC
@ATTRIBUTE P_1360 NUMERIC
@ATTRIBUTE P_1361 NUMERIC
@ATTRIBUTE P_1362 NUMERIC
@ATTRIBUTE P_1363 NUMERIC
@ATTRIBUTE P_1364 NUMERIC
@ATTRIBUTE P_1365 NUMERIC
@ATTRIBUTE P_1366 NUMERIC
@ATTRIBUTE P_1367 NUMERIC
@ATTRIBUTE P_1368 NUMERIC
@ATTRIBUTE P_1369 NUMERIC
@ATTRIBUTE P_1370 NUMERIC
@ATTRIBUTE P_1371 NUMERIC
@ATTRIBUTE P_1372 NUMERIC
@ATTRIBUTE P_1373 NUMERIC
@ATTRIBUTE P_1374 NUMERIC
@ATTRIBUTE P_1375 NUMERIC
@ATTRIBUTE P_1376 NUMERIC
@ATTRIBUTE P_1377 NUMERIC
@ATTRIBUTE P_1378 NUMERIC
@ATTRIBUTE P_1379 NUMERIC
@ATTRIBUTE P_1380 NUMERIC
@ATTRIBUTE P_1381 NUMERIC
@ATTRIBUTE P_1382 NUMERIC
@ATTRIBUTE P_1383 NUMERIC
@ATTRIBUTE P_1384 NUMERIC
@ATTRIBUTE P_1385 NUMERIC
@ATTRIBUTE P_1386 NUMERIC
@ATTRIBUTE P_1387 NUMERIC
@ATTRIBUTE P_1388 NUMERIC
@ATTRIBUTE P_1389 NUMERIC
@ATTRIBUTE P_1390 NUMERIC
@ATTRIBUTE P_1391 NUMERIC
@ATTRIBUTE P_1392 NUMERIC
@ATTRIBUTE P_1393 NUMERIC
@ATTRIBUTE P_1394 NUMERIC
@ATTRIBUTE P_1395 NUMERIC
@ATTRIBUTE P_1396 NUMERIC
@ATTRIBUTE P_1397 NUMERIC
@ATTRIBUTE P_1398 NUMERIC
@ATTRIBUTE P_1399 NUMERIC
@ATTRIBUTE P_1400 NUMERIC
@ATTRIBUTE P_1401 NUMERIC
@ATTRIBUTE P_1402 NUMERIC
@ATTRIBUTE P_1403 NUMERIC
@ATTRIBUTE P_1404 NUMERIC
@ATTRIBUTE P_1405 NUMERIC
@ATTRIBUTE P_1406 NUMERIC
@ATTRIBUTE P_1407 NUMERIC
@ATTRIBUTE P_1408 NUMERIC
@ATTRIBUTE P_1409 NUMERIC
@ATTRIBUTE P_1410 NUMERIC
@ATTRIBUTE P_1411 NUMERIC
@ATTRIBUTE P_1412 NUMERIC
@ATTRIBUTE P_1413 NUMERIC
@ATTRIBUTE P_1414 NUMERIC
@ATTRIBUTE P_1415 NUMERIC
@ATTRIBUTE P_1416 NUMERIC
@ATTRIBUTE P_1417 NUMERIC
@ATTRIBUTE P_1418 NUMERIC
@ATTRIBUTE P_1419 NUMERIC
@ATTRIBUTE P_1420 NUMERIC
@ATTRIBUTE P_1421 NUMERIC
@ATTRIBUTE P_1422 NUMERIC
@ATTRIBUTE P_1423 NUMERIC
@ATTRIBUTE P_1424 NUMERIC
@ATTRIBUTE P_1425 NUMERIC
@ATTRIBUTE P_1426 NUMERIC
@ATTRIBUTE P_1427 NUMERIC
@ATTRIBUTE P_1428 NUMERIC
@ATTRIBUTE P_1429 NUMERIC
@ATTRIBUTE P_1430 NUMERIC
@ATTRIBUTE P_1431 NUMERIC
@ATTRIBUTE P_1432 NUMERIC
@ATTRIBUTE P_1433 NUMERIC
@ATTRIBUTE P_1434 NUMERIC
@ATTRIBUTE P_1435 NUMERIC
@ATTRIBUTE P_1436 NUMERIC
@ATTRIBUTE P_1437 NUMERIC
@ATTRIBUTE P_1438 NUMERIC
@ATTRIBUTE P_1439 NUMERIC
@ATTRIBUTE P_1440 NUMERIC
@ATTRIBUTE P_1441 NUMERIC
@ATTRIBUTE P_1442 NUMERIC
@ATTRIBUTE P_1443 NUMERIC
@ATTRIBUTE P_1444 NUMERIC
@ATTRIBUTE P_1445 NUMERIC
@ATTRIBUTE P_1446 NUMERIC
@ATTRIBUTE P_1447 NUMERIC
@ATTRIBUTE P_1448 NUMERIC
@ATTRIBUTE P_1449 NUMERIC
@ATTRIBUTE P_1450 NUMERIC
@ATTRIBUTE P_1451 NUMERIC
@ATTRIBUTE P_1452 NUMERIC
@ATTRIBUTE P_1453 NUMERIC
@ATTRIBUTE P_1454 NUMERIC
@ATTRIBUTE P_1455 NUMERIC
@ATTRIBUTE P_1456 NUMERIC
@ATTRIBUTE P_1457 NUMERIC
@ATTRIBUTE P_1458 NUMERIC
@ATTRIBUTE P_1459 NUMERIC
@ATTRIBUTE P_1460 NUMERIC
@ATTRIBUTE P_1461 NUMERIC
@ATTRIBUTE P_1462 NUMERIC
@ATTRIBUTE P_1463 NUMERIC
@ATTRIBUTE P_1464 NUMERIC
@ATTRIBUTE P_1465 NUMERIC
@ATTRIBUTE P_1466 NUMERIC
@ATTRIBUTE P_1467 NUMERIC
@ATTRIBUTE P_1468 NUMERIC
@ATTRIBUTE P_1469 NUMERIC
@ATTRIBUTE P_1470 NUMERIC
@ATTRIBUTE P_1471 NUMERIC
@ATTRIBUTE P_1472 NUMERIC
@ATTRIBUTE P_1473 NUMERIC
@ATTRIBUTE P_1474 NUMERIC
@ATTRIBUTE P_1475 NUMERIC
@ATTRIBUTE P_1476 NUMERIC
@ATTRIBUTE P_1477 NUMERIC
@ATTRIBUTE P_1478 NUMERIC
@ATTRIBUTE P_1479 NUMERIC
@ATTRIBUTE P_1480 NUMERIC
@ATTRIBUTE P_1481 NUMERIC
@ATTRIBUTE P_1482 NUMERIC
@ATTRIBUTE P_1483 NUMERIC
@ATTRIBUTE P_1484 NUMERIC
@ATTRIBUTE P_1485 NUMERIC
@ATTRIBUTE P_1486 NUMERIC
@ATTRIBUTE P_1487 NUMERIC
@ATTRIBUTE P_1488 NUMERIC
@ATTRIBUTE P_1489 NUMERIC
@ATTRIBUTE P_1490 NUMERIC
@ATTRIBUTE P_1491 NUMERIC
@ATTRIBUTE P_1492 NUMERIC
@ATTRIBUTE P_1493 NUMERIC
@ATTRIBUTE P_1494 NUMERIC
@ATTRIBUTE P_1495 NUMERIC
@ATTRIBUTE P_1496 NUMERIC
@ATTRIBUTE P_1497 NUMERIC
@ATTRIBUTE P_1498 NUMERIC
@ATTRIBUTE P_1499 NUMERIC
@ATTRIBUTE P_1500 NUMERIC
@ATTRIBUTE P_1501 NUMERIC
@ATTRIBUTE P_1502 NUMERIC
@ATTRIBUTE P_1503 NUMERIC
@ATTRIBUTE P_1504 NUMERIC
@ATTRIBUTE P_1505 NUMERIC
@ATTRIBUTE P_1506 NUMERIC
@ATTRIBUTE P_1507 NUMERIC
@ATTRIBUTE P_1508 NUMERIC
@ATTRIBUTE P_1509 NUMERIC
@ATTRIBUTE P_1510 NUMERIC
@ATTRIBUTE P_1511 NUMERIC
@ATTRIBUTE P_1512 NUMERIC
@ATTRIBUTE P_1513 NUMERIC
@ATTRIBUTE P_1514 NUMERIC
@ATTRIBUTE P_1515 NUMERIC
@ATTRIBUTE P_1516 NUMERIC
@ATTRIBUTE P_1517 NUMERIC
@ATTRIBUTE P_1518 NUMERIC
@ATTRIBUTE P_1519 NUMERIC
@ATTRIBUTE P_1520 NUMERIC
@ATTRIBUTE P_1521 NUMERIC
@ATTRIBUTE P_1522 NUMERIC
@ATTRIBUTE P_1523 NUMERIC
@ATTRIBUTE P_1524 NUMERIC
@ATTRIBUTE P_1525 NUMERIC
@ATTRIBUTE P_1526 NUMERIC
@ATTRIBUTE P_1527 NUMERIC
@ATTRIBUTE P_1528 NUMERIC
@ATTRIBUTE P_1529 NUMERIC
@ATTRIBUTE P_1530 NUMERIC
@ATTRIBUTE P_1531 NUMERIC
@ATTRIBUTE P_1532 NUMERIC
@ATTRIBUTE P_1533 NUMERIC
@ATTRIBUTE P_1534 NUMERIC
@ATTRIBUTE P_1535 NUMERIC
@ATTRIBUTE P_1536 NUMERIC
@ATTRIBUTE P_1537 NUMERIC
@ATTRIBUTE P_1538 NUMERIC
@ATTRIBUTE P_1539 NUMERIC
@ATTRIBUTE P_1540 NUMERIC
@ATTRIBUTE P_1541 NUMERIC
@ATTRIBUTE P_1542 NUMERIC
@ATTRIBUTE P_1543 NUMERIC
@ATTRIBUTE P_1544 NUMERIC
@ATTRIBUTE P_1545 NUMERIC
@ATTRIBUTE P_1546 NUMERIC
@ATTRIBUTE P_1547 NUMERIC
@ATTRIBUTE P_1548 NUMERIC
@ATTRIBUTE P_1549 NUMERIC
@ATTRIBUTE P_1550 NUMERIC
@ATTRIBUTE P_1551 NUMERIC
@ATTRIBUTE P_1552 NUMERIC
@ATTRIBUTE P_1553 NUMERIC
@ATTRIBUTE P_1554 NUMERIC
@ATTRIBUTE P_1555 NUMERIC
@ATTRIBUTE P_1556 NUMERIC
@ATTRIBUTE P_1557 NUMERIC
@ATTRIBUTE P_1558 NUMERIC
@ATTRIBUTE P_1559 NUMERIC
@ATTRIBUTE P_1560 NUMERIC
@ATTRIBUTE P_1561 NUMERIC
@ATTRIBUTE P_1562 NUMERIC
@ATTRIBUTE P_1563 NUMERIC
@ATTRIBUTE P_1564 NUMERIC
@ATTRIBUTE P_1565 NUMERIC
@ATTRIBUTE P_1566 NUMERIC
@ATTRIBUTE P_1567 NUMERIC
@ATTRIBUTE P_1568 NUMERIC
@ATTRIBUTE P_1569 NUMERIC
@ATTRIBUTE P_1570 NUMERIC
@ATTRIBUTE P_1571 NUMERIC
@ATTRIBUTE P_1572 NUMERIC
@ATTRIBUTE P_1573 NUMERIC
@ATTRIBUTE P_1574 NUMERIC
@ATTRIBUTE P_1575 NUMERIC
@ATTRIBUTE P_1576 NUMERIC
@ATTRIBUTE P_1577 NUMERIC
@ATTRIBUTE P_1578 NUMERIC
@ATTRIBUTE P_1579 NUMERIC
@ATTRIBUTE P_1580 NUMERIC
@ATTRIBUTE P_1581 NUMERIC
@ATTRIBUTE P_1582 NUMERIC
@ATTRIBUTE P_1583 NUMERIC
@ATTRIBUTE P_1584 NUMERIC
@ATTRIBUTE P_1585 NUMERIC
@ATTRIBUTE P_1586 NUMERIC
@ATTRIBUTE P_1587 NUMERIC
@ATTRIBUTE P_1588 NUMERIC
@ATTRIBUTE P_1589 NUMERIC
@ATTRIBUTE P_1590 NUMERIC
@ATTRIBUTE P_1591 NUMERIC
@ATTRIBUTE P_1592 NUMERIC
@ATTRIBUTE P_1593 NUMERIC
@ATTRIBUTE P_1594 NUMERIC
@ATTRIBUTE P_1595 NUMERIC
@ATTRIBUTE P_1596 NUMERIC
@ATTRIBUTE P_1597 NUMERIC
@ATTRIBUTE P_1598 NUMERIC
@ATTRIBUTE P_1599 NUMERIC
@ATTRIBUTE P_1600 NUMERIC
@ATTRIBUTE P_1601 NUMERIC
@ATTRIBUTE P_1602 NUMERIC
@ATTRIBUTE P_1603 NUMERIC
@ATTRIBUTE P_1604 NUMERIC
@ATTRIBUTE P_1605 NUMERIC
@ATTRIBUTE P_1606 NUMERIC
@ATTRIBUTE P_1607 NUMERIC
@ATTRIBUTE P_1608 NUMERIC
@ATTRIBUTE P_1609 NUMERIC
@ATTRIBUTE P_1610 NUMERIC
@ATTRIBUTE P_1611 NUMERIC
@ATTRIBUTE P_1612 NUMERIC
@ATTRIBUTE P_1613 NUMERIC
@ATTRIBUTE P_1614 NUMERIC
@ATTRIBUTE P_1615 NUMERIC
@ATTRIBUTE P_1616 NUMERIC
@ATTRIBUTE P_1617 NUMERIC
@ATTRIBUTE P_1618 NUMERIC
@ATTRIBUTE P_1619 NUMERIC
@ATTRIBUTE P_1620 NUMERIC
@ATTRIBUTE P_1621 NUMERIC
@ATTRIBUTE P_1622 NUMERIC
@ATTRIBUTE P_1623 NUMERIC
@ATTRIBUTE P_1624 NUMERIC
@ATTRIBUTE P_1625 NUMERIC
@ATTRIBUTE P_1626 NUMERIC
@ATTRIBUTE P_1627 NUMERIC
@ATTRIBUTE P_1628 NUMERIC
@ATTRIBUTE P_1629 NUMERIC
@ATTRIBUTE P_1630 NUMERIC
@ATTRIBUTE P_1631 NUMERIC
@ATTRIBUTE P_1632 NUMERIC
@ATTRIBUTE P_1633 NUMERIC
@ATTRIBUTE P_1634 NUMERIC
@ATTRIBUTE P_1635 NUMERIC
@ATTRIBUTE P_1636 NUMERIC
@ATTRIBUTE P_1637 NUMERIC
@ATTRIBUTE P_1638 NUMERIC
@ATTRIBUTE P_1639 NUMERIC
@ATTRIBUTE P_1640 NUMERIC
@ATTRIBUTE P_1641 NUMERIC
@ATTRIBUTE P_1642 NUMERIC
@ATTRIBUTE P_1643 NUMERIC
@ATTRIBUTE P_1644 NUMERIC
@ATTRIBUTE P_1645 NUMERIC
@ATTRIBUTE P_1646 NUMERIC
@ATTRIBUTE P_1647 NUMERIC
@ATTRIBUTE P_1648 NUMERIC
@ATTRIBUTE P_1649 NUMERIC
@ATTRIBUTE P_1650 NUMERIC
@ATTRIBUTE P_1651 NUMERIC
@ATTRIBUTE P_1652 NUMERIC
@ATTRIBUTE P_1653 NUMERIC
@ATTRIBUTE P_1654 NUMERIC
@ATTRIBUTE P_1655 NUMERIC
@ATTRIBUTE P_1656 NUMERIC
@ATTRIBUTE P_1657 NUMERIC
@ATTRIBUTE P_1658 NUMERIC
@ATTRIBUTE P_1659 NUMERIC
@ATTRIBUTE P_1660 NUMERIC
@ATTRIBUTE P_1661 NUMERIC
@ATTRIBUTE P_1662 NUMERIC
@ATTRIBUTE P_1663 NUMERIC
@ATTRIBUTE P_1664 NUMERIC
@ATTRIBUTE P_1665 NUMERIC
@ATTRIBUTE P_1666 NUMERIC
@ATTRIBUTE P_1667 NUMERIC
@ATTRIBUTE P_1668 NUMERIC
@ATTRIBUTE P_1669 NUMERIC
@ATTRIBUTE P_1670 NUMERIC
@ATTRIBUTE P_1671 NUMERIC
@ATTRIBUTE P_1672 NUMERIC
@ATTRIBUTE P_1673 NUMERIC
@ATTRIBUTE P_1674 NUMERIC
@ATTRIBUTE P_1675 NUMERIC
@ATTRIBUTE P_1676 NUMERIC
@ATTRIBUTE P_1677 NUMERIC
@ATTRIBUTE P_1678 NUMERIC
@ATTRIBUTE P_1679 NUMERIC
@ATTRIBUTE P_1680 NUMERIC
@ATTRIBUTE P_1681 NUMERIC
@ATTRIBUTE P_1682 NUMERIC
@ATTRIBUTE P_1683 NUMERIC
@ATTRIBUTE P_1684 NUMERIC
@ATTRIBUTE P_1685 NUMERIC
@ATTRIBUTE P_1686 NUMERIC
@ATTRIBUTE P_1687 NUMERIC
@ATTRIBUTE P_1688 NUMERIC
@ATTRIBUTE P_1689 NUMERIC
@ATTRIBUTE P_1690 NUMERIC
@ATTRIBUTE P_1691 NUMERIC
@ATTRIBUTE P_1692 NUMERIC
@ATTRIBUTE P_1693 NUMERIC
@ATTRIBUTE P_1694 NUMERIC
@ATTRIBUTE P_1695 NUMERIC
@ATTRIBUTE P_1696 NUMERIC
@ATTRIBUTE P_1697 NUMERIC
@ATTRIBUTE P_1698 NUMERIC
@ATTRIBUTE P_1699 NUMERIC
@ATTRIBUTE P_1700 NUMERIC
@ATTRIBUTE P_1701 NUMERIC
@ATTRIBUTE P_1702 NUMERIC
@ATTRIBUTE P_1703 NUMERIC
@ATTRIBUTE P_1704 NUMERIC
@ATTRIBUTE P_1705 NUMERIC
@ATTRIBUTE P_1706 NUMERIC
@ATTRIBUTE P_1707 NUMERIC
@ATTRIBUTE P_1708 NUMERIC
@ATTRIBUTE P_1709 NUMERIC
@ATTRIBUTE P_1710 NUMERIC
@ATTRIBUTE P_1711 NUMERIC
@ATTRIBUTE P_1712 NUMERIC
@ATTRIBUTE P_1713 NUMERIC
@ATTRIBUTE P_1714 NUMERIC
@ATTRIBUTE P_1715 NUMERIC
@ATTRIBUTE P_1716 NUMERIC
@ATTRIBUTE P_1717 NUMERIC
@ATTRIBUTE P_1718 NUMERIC
@ATTRIBUTE P_1719 NUMERIC
@ATTRIBUTE P_1720 NUMERIC
@ATTRIBUTE P_1721 NUMERIC
@ATTRIBUTE P_1722 NUMERIC
@ATTRIBUTE P_1723 NUMERIC
@ATTRIBUTE P_1724 NUMERIC
@ATTRIBUTE P_1725 NUMERIC
@ATTRIBUTE P_1726 NUMERIC
@ATTRIBUTE P_1727 NUMERIC
@ATTRIBUTE P_1728 NUMERIC
@ATTRIBUTE P_1729 NUMERIC
@ATTRIBUTE P_1730 NUMERIC
@ATTRIBUTE P_1731 NUMERIC
@ATTRIBUTE P_1732 NUMERIC
@ATTRIBUTE P_1733 NUMERIC
@ATTRIBUTE P_1734 NUMERIC
@ATTRIBUTE P_1735 NUMERIC
@ATTRIBUTE P_1736 NUMERIC
@ATTRIBUTE P_1737 NUMERIC
@ATTRIBUTE P_1738 NUMERIC
@ATTRIBUTE P_1739 NUMERIC
@ATTRIBUTE P_1740 NUMERIC
@ATTRIBUTE P_1741 NUMERIC
@ATTRIBUTE P_1742 NUMERIC
@ATTRIBUTE P_1743 NUMERIC
@ATTRIBUTE P_1744 NUMERIC
@ATTRIBUTE P_1745 NUMERIC
@ATTRIBUTE P_1746 NUMERIC
@ATTRIBUTE P_1747 NUMERIC
@ATTRIBUTE P_1748 NUMERIC
@ATTRIBUTE P_1749 NUMERIC
@ATTRIBUTE P_1750 NUMERIC
@ATTRIBUTE P_1751 NUMERIC
@ATTRIBUTE P_1752 NUMERIC
@ATTRIBUTE P_1753 NUMERIC
@ATTRIBUTE P_1754 NUMERIC
@ATTRIBUTE P_1755 NUMERIC
@ATTRIBUTE P_1756 NUMERIC
@ATTRIBUTE P_1757 NUMERIC
@ATTRIBUTE P_1758 NUMERIC
@ATTRIBUTE P_1759 NUMERIC
@ATTRIBUTE P_1760 NUMERIC
@ATTRIBUTE P_1761 NUMERIC
@ATTRIBUTE P_1762 NUMERIC
@ATTRIBUTE P_1763 NUMERIC
@ATTRIBUTE P_1764 NUMERIC
@ATTRIBUTE P_1765 NUMERIC
@ATTRIBUTE P_1766 NUMERIC
@ATTRIBUTE P_1767 NUMERIC
@ATTRIBUTE P_1768 NUMERIC
@ATTRIBUTE P_1769 NUMERIC
@ATTRIBUTE P_1770 NUMERIC
@ATTRIBUTE P_1771 NUMERIC
@ATTRIBUTE P_1772 NUMERIC
@ATTRIBUTE P_1773 NUMERIC
@ATTRIBUTE P_1774 NUMERIC
@ATTRIBUTE P_1775 NUMERIC
@ATTRIBUTE P_1776 NUMERIC
@ATTRIBUTE P_1777 NUMERIC
@ATTRIBUTE P_1778 NUMERIC
@ATTRIBUTE P_1779 NUMERIC
@ATTRIBUTE P_1780 NUMERIC
@ATTRIBUTE P_1781 NUMERIC
@ATTRIBUTE P_1782 NUMERIC
@ATTRIBUTE P_1783 NUMERIC
@ATTRIBUTE P_1784 NUMERIC
@ATTRIBUTE P_1785 NUMERIC
@ATTRIBUTE P_1786 NUMERIC
@ATTRIBUTE P_1787 NUMERIC
@ATTRIBUTE P_1788 NUMERIC
@ATTRIBUTE P_1789 NUMERIC
@ATTRIBUTE P_1790 NUMERIC
@ATTRIBUTE P_1791 NUMERIC
@ATTRIBUTE P_1792 NUMERIC
@ATTRIBUTE P_1793 NUMERIC
@ATTRIBUTE P_1794 NUMERIC
@ATTRIBUTE P_1795 NUMERIC
@ATTRIBUTE P_1796 NUMERIC
@ATTRIBUTE P_1797 NUMERIC
@ATTRIBUTE P_1798 NUMERIC
@ATTRIBUTE P_1799 NUMERIC
@ATTRIBUTE P_1800 NUMERIC
@ATTRIBUTE P_1801 NUMERIC
@ATTRIBUTE P_1802 NUMERIC
@ATTRIBUTE P_1803 NUMERIC
@ATTRIBUTE P_1804 NUMERIC
@ATTRIBUTE P_1805 NUMERIC
@ATTRIBUTE P_1806 NUMERIC
@ATTRIBUTE P_1807 NUMERIC
@ATTRIBUTE P_1808 NUMERIC
@ATTRIBUTE P_1809 NUMERIC
@ATTRIBUTE P_1810 NUMERIC
@ATTRIBUTE P_1811 NUMERIC
@ATTRIBUTE P_1812 NUMERIC
@ATTRIBUTE P_1813 NUMERIC
@ATTRIBUTE P_1814 NUMERIC
@ATTRIBUTE P_1815 NUMERIC
@ATTRIBUTE P_1816 NUMERIC
@ATTRIBUTE P_1817 NUMERIC
@ATTRIBUTE P_1818 NUMERIC
@ATTRIBUTE P_1819 NUMERIC
@ATTRIBUTE P_1820 NUMERIC
@ATTRIBUTE P_1821 NUMERIC
@ATTRIBUTE P_1822 NUMERIC
@ATTRIBUTE P_1823 NUMERIC
@ATTRIBUTE P_1824 NUMERIC
@ATTRIBUTE P_1825 NUMERIC
@ATTRIBUTE P_1826 NUMERIC
@ATTRIBUTE P_1827 NUMERIC
@ATTRIBUTE P_1828 NUMERIC
@ATTRIBUTE P_1829 NUMERIC
@ATTRIBUTE P_1830 NUMERIC
@ATTRIBUTE P_1831 NUMERIC
@ATTRIBUTE P_1832 NUMERIC
@ATTRIBUTE P_1833 NUMERIC
@ATTRIBUTE P_1834 NUMERIC
@ATTRIBUTE P_1835 NUMERIC
@ATTRIBUTE P_1836 NUMERIC
@ATTRIBUTE P_1837 NUMERIC
@ATTRIBUTE P_1838 NUMERIC
@ATTRIBUTE P_1839 NUMERIC
@ATTRIBUTE P_1840 NUMERIC
@ATTRIBUTE P_1841 NUMERIC
@ATTRIBUTE P_1842 NUMERIC
@ATTRIBUTE P_1843 NUMERIC
@ATTRIBUTE P_1844 NUMERIC
@ATTRIBUTE P_1845 NUMERIC
@ATTRIBUTE P_1846 NUMERIC
@ATTRIBUTE P_1847 NUMERIC
@ATTRIBUTE P_1848 NUMERIC
@ATTRIBUTE P_1849 NUMERIC
@ATTRIBUTE P_1850 NUMERIC
@ATTRIBUTE P_1851 NUMERIC
@ATTRIBUTE P_1852 NUMERIC
@ATTRIBUTE P_1853 NUMERIC
@ATTRIBUTE P_1854 NUMERIC
@ATTRIBUTE P_1855 NUMERIC
@ATTRIBUTE P_1856 NUMERIC
@ATTRIBUTE P_1857 NUMERIC
@ATTRIBUTE P_1858 NUMERIC
@ATTRIBUTE P_1859 NUMERIC
@ATTRIBUTE P_1860 NUMERIC
@ATTRIBUTE P_1861 NUMERIC
@ATTRIBUTE P_1862 NUMERIC
@ATTRIBUTE P_1863 NUMERIC
@ATTRIBUTE P_1864 NUMERIC
@ATTRIBUTE P_1865 NUMERIC
@ATTRIBUTE P_1866 NUMERIC
@ATTRIBUTE P_1867 NUMERIC
@ATTRIBUTE P_1868 NUMERIC
@ATTRIBUTE P_1869 NUMERIC
@ATTRIBUTE P_1870 NUMERIC
@ATTRIBUTE P_1871 NUMERIC
@ATTRIBUTE P_1872 NUMERIC
@ATTRIBUTE P_1873 NUMERIC
@ATTRIBUTE P_1874 NUMERIC
@ATTRIBUTE P_1875 NUMERIC
@ATTRIBUTE P_1876 NUMERIC
@ATTRIBUTE P_1877 NUMERIC
@ATTRIBUTE P_1878 NUMERIC
@ATTRIBUTE P_1879 NUMERIC
@ATTRIBUTE P_1880 NUMERIC
@ATTRIBUTE P_1881 NUMERIC
@ATTRIBUTE P_1882 NUMERIC
@ATTRIBUTE P_1883 NUMERIC
@ATTRIBUTE P_1884 NUMERIC
@ATTRIBUTE P_1885 NUMERIC
@ATTRIBUTE P_1886 NUMERIC
@ATTRIBUTE P_1887 NUMERIC
@ATTRIBUTE P_1888 NUMERIC
@ATTRIBUTE P_1889 NUMERIC
@ATTRIBUTE P_1890 NUMERIC
@ATTRIBUTE P_1891 NUMERIC
@ATTRIBUTE P_1892 NUMERIC
@ATTRIBUTE P_1893 NUMERIC
@ATTRIBUTE P_1894 NUMERIC
@ATTRIBUTE P_1895 NUMERIC
@ATTRIBUTE P_1896 NUMERIC
@ATTRIBUTE P_1897 NUMERIC
@ATTRIBUTE P_1898 NUMERIC
@ATTRIBUTE P_1899 NUMERIC
@ATTRIBUTE P_1900 NUMERIC
@ATTRIBUTE P_1901 NUMERIC
@ATTRIBUTE P_1902 NUMERIC
@ATTRIBUTE P_1903 NUMERIC
@ATTRIBUTE P_1904 NUMERIC
@ATTRIBUTE P_1905 NUMERIC
@ATTRIBUTE P_1906 NUMERIC
@ATTRIBUTE P_1907 NUMERIC
@ATTRIBUTE P_1908 NUMERIC
@ATTRIBUTE P_1909 NUMERIC
@ATTRIBUTE P_1910 NUMERIC
@ATTRIBUTE P_1911 NUMERIC
@ATTRIBUTE P_1912 NUMERIC
@ATTRIBUTE P_1913 NUMERIC
@ATTRIBUTE P_1914 NUMERIC
@ATTRIBUTE P_1915 NUMERIC
@ATTRIBUTE P_1916 NUMERIC
@ATTRIBUTE P_1917 NUMERIC
@ATTRIBUTE P_1918 NUMERIC
@ATTRIBUTE P_1919 NUMERIC
@ATTRIBUTE P_1920 NUMERIC
@ATTRIBUTE P_1921 NUMERIC
@ATTRIBUTE P_1922 NUMERIC
@ATTRIBUTE P_1923 NUMERIC
@ATTRIBUTE P_1924 NUMERIC
@ATTRIBUTE P_1925 NUMERIC
@ATTRIBUTE P_1926 NUMERIC
@ATTRIBUTE P_1927 NUMERIC
@ATTRIBUTE P_1928 NUMERIC
@ATTRIBUTE P_1929 NUMERIC
@ATTRIBUTE P_1930 NUMERIC
@ATTRIBUTE P_1931 NUMERIC
@ATTRIBUTE P_1932 NUMERIC
@ATTRIBUTE P_1933 NUMERIC
@ATTRIBUTE P_1934 NUMERIC
@ATTRIBUTE P_1935 NUMERIC
@ATTRIBUTE P_1936 NUMERIC
@ATTRIBUTE P_1937 NUMERIC
@ATTRIBUTE P_1938 NUMERIC
@ATTRIBUTE P_1939 NUMERIC
@ATTRIBUTE P_1940 NUMERIC
@ATTRIBUTE P_1941 NUMERIC
@ATTRIBUTE P_1942 NUMERIC
@ATTRIBUTE P_1943 NUMERIC
@ATTRIBUTE P_1944 NUMERIC
@ATTRIBUTE P_1945 NUMERIC
@ATTRIBUTE P_1946 NUMERIC
@ATTRIBUTE P_1947 NUMERIC
@ATTRIBUTE P_1948 NUMERIC
@ATTRIBUTE P_1949 NUMERIC
@ATTRIBUTE P_1950 NUMERIC
@ATTRIBUTE P_1951 NUMERIC
@ATTRIBUTE P_1952 NUMERIC
@ATTRIBUTE P_1953 NUMERIC
@ATTRIBUTE P_1954 NUMERIC
@ATTRIBUTE P_1955 NUMERIC
@ATTRIBUTE P_1956 NUMERIC
@ATTRIBUTE P_1957 NUMERIC
@ATTRIBUTE P_1958 NUMERIC
@ATTRIBUTE P_1959 NUMERIC
@ATTRIBUTE P_1960 NUMERIC
@ATTRIBUTE P_1961 NUMERIC
@ATTRIBUTE P_1962 NUMERIC
@ATTRIBUTE P_1963 NUMERIC
@ATTRIBUTE P_1964 NUMERIC
@ATTRIBUTE P_1965 NUMERIC
@ATTRIBUTE P_1966 NUMERIC
@ATTRIBUTE P_1967 NUMERIC
@ATTRIBUTE P_1968 NUMERIC
@ATTRIBUTE P_1969 NUMERIC
@ATTRIBUTE P_1970 NUMERIC
@ATTRIBUTE P_1971 NUMERIC
@ATTRIBUTE P_1972 NUMERIC
@ATTRIBUTE P_1973 NUMERIC
@ATTRIBUTE P_1974 NUMERIC
@ATTRIBUTE P_1975 NUMERIC
@ATTRIBUTE P_1976 NUMERIC
@ATTRIBUTE P_1977 NUMERIC
@ATTRIBUTE P_1978 NUMERIC
@ATTRIBUTE P_1979 NUMERIC
@ATTRIBUTE P_1980 NUMERIC
@ATTRIBUTE P_1981 NUMERIC
@ATTRIBUTE P_1982 NUMERIC
@ATTRIBUTE P_1983 NUMERIC
@ATTRIBUTE P_1984 NUMERIC
@ATTRIBUTE P_1985 NUMERIC
@ATTRIBUTE P_1986 NUMERIC
@ATTRIBUTE P_1987 NUMERIC
@ATTRIBUTE P_1988 NUMERIC
@ATTRIBUTE P_1989 NUMERIC
@ATTRIBUTE P_1990 NUMERIC
@ATTRIBUTE P_1991 NUMERIC
@ATTRIBUTE P_1992 NUMERIC
@ATTRIBUTE P_1993 NUMERIC
@ATTRIBUTE P_1994 NUMERIC
@ATTRIBUTE P_1995 NUMERIC
@ATTRIBUTE P_1996 NUMERIC
@ATTRIBUTE P_1997 NUMERIC
@ATTRIBUTE P_1998 NUMERIC
@ATTRIBUTE P_1999 NUMERIC
@ATTRIBUTE P_2000 NUMERIC
@ATTRIBUTE P_2001 NUMERIC
@ATTRIBUTE P_2002 NUMERIC
@ATTRIBUTE P_2003 NUMERIC
@ATTRIBUTE P_2004 NUMERIC
@ATTRIBUTE P_2005 NUMERIC
@ATTRIBUTE P_2006 NUMERIC
@ATTRIBUTE P_2007 NUMERIC
@ATTRIBUTE P_2008 NUMERIC
@ATTRIBUTE P_2009 NUMERIC
@ATTRIBUTE P_2010 NUMERIC
@ATTRIBUTE P_2011 NUMERIC
@ATTRIBUTE P_2012 NUMERIC
@ATTRIBUTE P_2013 NUMERIC
@ATTRIBUTE P_2014 NUMERIC
@ATTRIBUTE P_2015 NUMERIC
@ATTRIBUTE P_2016 NUMERIC
@ATTRIBUTE P_2017 NUMERIC
@ATTRIBUTE P_2018 NUMERIC
@ATTRIBUTE P_2019 NUMERIC
@ATTRIBUTE P_2020 NUMERIC
@ATTRIBUTE P_2021 NUMERIC
@ATTRIBUTE P_2022 NUMERIC
@ATTRIBUTE P_2023 NUMERIC
@ATTRIBUTE P_2024 NUMERIC
@ATTRIBUTE P_2025 NUMERIC
@ATTRIBUTE P_2026 NUMERIC
@ATTRIBUTE P_2027 NUMERIC
@ATTRIBUTE P_2028 NUMERIC
@ATTRIBUTE P_2029 NUMERIC
@ATTRIBUTE P_2030 NUMERIC
@ATTRIBUTE P_2031 NUMERIC
@ATTRIBUTE P_2032 NUMERIC
@ATTRIBUTE P_2033 NUMERIC
@ATTRIBUTE P_2034 NUMERIC
@ATTRIBUTE P_2035 NUMERIC
@ATTRIBUTE P_2036 NUMERIC
@ATTRIBUTE P_2037 NUMERIC
@ATTRIBUTE P_2038 NUMERIC
@ATTRIBUTE P_2039 NUMERIC
@ATTRIBUTE P_2040 NUMERIC
@ATTRIBUTE P_2041 NUMERIC
@ATTRIBUTE P_2042 NUMERIC
@ATTRIBUTE P_2043 NUMERIC
@ATTRIBUTE P_2044 NUMERIC
@ATTRIBUTE P_2045 NUMERIC
@ATTRIBUTE P_2046 NUMERIC
@ATTRIBUTE P_2047 NUMERIC
@ATTRIBUTE P_2048 NUMERIC
@ATTRIBUTE P_2049 NUMERIC
@ATTRIBUTE P_2050 NUMERIC
@ATTRIBUTE P_2051 NUMERIC
@ATTRIBUTE P_2052 NUMERIC
@ATTRIBUTE P_2053 NUMERIC
@ATTRIBUTE P_2054 NUMERIC
@ATTRIBUTE P_2055 NUMERIC
@ATTRIBUTE P_2056 NUMERIC
@ATTRIBUTE P_2057 NUMERIC
@ATTRIBUTE P_2058 NUMERIC
@ATTRIBUTE P_2059 NUMERIC
@ATTRIBUTE P_2060 NUMERIC
@ATTRIBUTE P_2061 NUMERIC
@ATTRIBUTE P_2062 NUMERIC
@ATTRIBUTE P_2063 NUMERIC
@ATTRIBUTE P_2064 NUMERIC
@ATTRIBUTE P_2065 NUMERIC
@ATTRIBUTE P_2066 NUMERIC
@ATTRIBUTE P_2067 NUMERIC
@ATTRIBUTE P_2068 NUMERIC
@ATTRIBUTE P_2069 NUMERIC
@ATTRIBUTE P_2070 NUMERIC
@ATTRIBUTE P_2071 NUMERIC
@ATTRIBUTE P_2072 NUMERIC
@ATTRIBUTE P_2073 NUMERIC
@ATTRIBUTE P_2074 NUMERIC
@ATTRIBUTE P_2075 NUMERIC
@ATTRIBUTE P_2076 NUMERIC
@ATTRIBUTE P_2077 NUMERIC
@ATTRIBUTE P_2078 NUMERIC
@ATTRIBUTE P_2079 NUMERIC
@ATTRIBUTE P_2080 NUMERIC
@ATTRIBUTE P_2081 NUMERIC
@ATTRIBUTE P_2082 NUMERIC
@ATTRIBUTE P_2083 NUMERIC
@ATTRIBUTE P_2084 NUMERIC
@ATTRIBUTE P_2085 NUMERIC
@ATTRIBUTE P_2086 NUMERIC
@ATTRIBUTE P_2087 NUMERIC
@ATTRIBUTE P_2088 NUMERIC
@ATTRIBUTE P_2089 NUMERIC
@ATTRIBUTE P_2090 NUMERIC
@ATTRIBUTE P_2091 NUMERIC
@ATTRIBUTE P_2092 NUMERIC
@ATTRIBUTE P_2093 NUMERIC
@ATTRIBUTE P_2094 NUMERIC
@ATTRIBUTE P_2095 NUMERIC
@ATTRIBUTE P_2096 NUMERIC
@ATTRIBUTE P_2097 NUMERIC
@ATTRIBUTE P_2098 NUMERIC
@ATTRIBUTE P_2099 NUMERIC
@ATTRIBUTE P_2100 NUMERIC
@ATTRIBUTE P_2101 NUMERIC
@ATTRIBUTE P_2102 NUMERIC
@ATTRIBUTE P_2103 NUMERIC
@ATTRIBUTE P_2104 NUMERIC
@ATTRIBUTE P_2105 NUMERIC
@ATTRIBUTE P_2106 NUMERIC
@ATTRIBUTE P_2107 NUMERIC
@ATTRIBUTE P_2108 NUMERIC
@ATTRIBUTE P_2109 NUMERIC
@ATTRIBUTE P_2110 NUMERIC
@ATTRIBUTE P_2111 NUMERIC
@ATTRIBUTE P_2112 NUMERIC
@ATTRIBUTE P_2113 NUMERIC
@ATTRIBUTE P_2114 NUMERIC
@ATTRIBUTE P_2115 NUMERIC
@ATTRIBUTE P_2116 NUMERIC
@ATTRIBUTE P_2117 NUMERIC
@ATTRIBUTE P_2118 NUMERIC
@ATTRIBUTE P_2119 NUMERIC
@ATTRIBUTE P_2120 NUMERIC
@ATTRIBUTE P_2121 NUMERIC
@ATTRIBUTE P_2122 NUMERIC
@ATTRIBUTE P_2123 NUMERIC
@ATTRIBUTE P_2124 NUMERIC
@ATTRIBUTE P_2125 NUMERIC
@ATTRIBUTE P_2126 NUMERIC
@ATTRIBUTE P_2127 NUMERIC
@ATTRIBUTE P_2128 NUMERIC
@ATTRIBUTE P_2129 NUMERIC
@ATTRIBUTE P_2130 NUMERIC
@ATTRIBUTE P_2131 NUMERIC
@ATTRIBUTE P_2132 NUMERIC
@ATTRIBUTE P_2133 NUMERIC
@ATTRIBUTE P_2134 NUMERIC
@ATTRIBUTE P_2135 NUMERIC
@ATTRIBUTE P_2136 NUMERIC
@ATTRIBUTE P_2137 NUMERIC
@ATTRIBUTE P_2138 NUMERIC
@ATTRIBUTE P_2139 NUMERIC
@ATTRIBUTE P_2140 NUMERIC
@ATTRIBUTE P_2141 NUMERIC
@ATTRIBUTE P_2142 NUMERIC
@ATTRIBUTE P_2143 NUMERIC
@ATTRIBUTE P_2144 NUMERIC
@ATTRIBUTE P_2145 NUMERIC
@ATTRIBUTE P_2146 NUMERIC
@ATTRIBUTE P_2147 NUMERIC
@ATTRIBUTE P_2148 NUMERIC
@ATTRIBUTE P_2149 NUMERIC
@ATTRIBUTE P_2150 NUMERIC
@ATTRIBUTE P_2151 NUMERIC
@ATTRIBUTE P_2152 NUMERIC
@ATTRIBUTE P_2153 NUMERIC
@ATTRIBUTE P_2154 NUMERIC
@ATTRIBUTE P_2155 NUMERIC
@ATTRIBUTE P_2156 NUMERIC
@ATTRIBUTE P_2157 NUMERIC
@ATTRIBUTE P_2158 NUMERIC
@ATTRIBUTE P_2159 NUMERIC
@ATTRIBUTE P_2160 NUMERIC
@ATTRIBUTE P_2161 NUMERIC
@ATTRIBUTE P_2162 NUMERIC
@ATTRIBUTE P_2163 NUMERIC
@ATTRIBUTE P_2164 NUMERIC
@ATTRIBUTE P_2165 NUMERIC
@ATTRIBUTE P_2166 NUMERIC
@ATTRIBUTE P_2167 NUMERIC
@ATTRIBUTE P_2168 NUMERIC
@ATTRIBUTE P_2169 NUMERIC
@ATTRIBUTE P_2170 NUMERIC
@ATTRIBUTE P_2171 NUMERIC
@ATTRIBUTE P_2172 NUMERIC
@ATTRIBUTE P_2173 NUMERIC
@ATTRIBUTE P_2174 NUMERIC
@ATTRIBUTE P_2175 NUMERIC
@ATTRIBUTE P_2176 NUMERIC
@ATTRIBUTE P_2177 NUMERIC
@ATTRIBUTE P_2178 NUMERIC
@ATTRIBUTE P_2179 NUMERIC
@ATTRIBUTE P_2180 NUMERIC
@ATTRIBUTE P_2181 NUMERIC
@ATTRIBUTE P_2182 NUMERIC
@ATTRIBUTE P_2183 NUMERIC
@ATTRIBUTE P_2184 NUMERIC
@ATTRIBUTE P_2185 NUMERIC
@ATTRIBUTE P_2186 NUMERIC
@ATTRIBUTE P_2187 NUMERIC
@ATTRIBUTE P_2188 NUMERIC
@ATTRIBUTE P_2189 NUMERIC
@ATTRIBUTE P_2190 NUMERIC
@ATTRIBUTE P_2191 NUMERIC
@ATTRIBUTE P_2192 NUMERIC
@ATTRIBUTE P_2193 NUMERIC
@ATTRIBUTE P_2194 NUMERIC
@ATTRIBUTE P_2195 NUMERIC
@ATTRIBUTE P_2196 NUMERIC
@ATTRIBUTE P_2197 NUMERIC
@ATTRIBUTE P_2198 NUMERIC
@ATTRIBUTE P_2199 NUMERIC
@ATTRIBUTE P_2200 NUMERIC
@ATTRIBUTE P_2201 NUMERIC
@ATTRIBUTE P_2202 NUMERIC
@ATTRIBUTE P_2203 NUMERIC
@ATTRIBUTE P_2204 NUMERIC
@ATTRIBUTE P_2205 NUMERIC
@ATTRIBUTE P_2206 NUMERIC
@ATTRIBUTE P_2207 NUMERIC
@ATTRIBUTE P_2208 NUMERIC
@ATTRIBUTE P_2209 NUMERIC
@ATTRIBUTE P_2210 NUMERIC
@ATTRIBUTE P_2211 NUMERIC
@ATTRIBUTE P_2212 NUMERIC
@ATTRIBUTE P_2213 NUMERIC
@ATTRIBUTE P_2214 NUMERIC
@ATTRIBUTE P_2215 NUMERIC
@ATTRIBUTE P_2216 NUMERIC
@ATTRIBUTE P_2217 NUMERIC
@ATTRIBUTE P_2218 NUMERIC
@ATTRIBUTE P_2219 NUMERIC
@ATTRIBUTE P_2220 NUMERIC
@ATTRIBUTE P_2221 NUMERIC
@ATTRIBUTE P_2222 NUMERIC
@ATTRIBUTE P_2223 NUMERIC
@ATTRIBUTE P_2224 NUMERIC
@ATTRIBUTE P_2225 NUMERIC
@ATTRIBUTE P_2226 NUMERIC
@ATTRIBUTE P_2227 NUMERIC
@ATTRIBUTE P_2228 NUMERIC
@ATTRIBUTE P_2229 NUMERIC
@ATTRIBUTE P_2230 NUMERIC
@ATTRIBUTE P_2231 NUMERIC
@ATTRIBUTE P_2232 NUMERIC
@ATTRIBUTE P_2233 NUMERIC
@ATTRIBUTE P_2234 NUMERIC
@ATTRIBUTE P_2235 NUMERIC
@ATTRIBUTE P_2236 NUMERIC
@ATTRIBUTE P_2237 NUMERIC
@ATTRIBUTE P_2238 NUMERIC
@ATTRIBUTE P_2239 NUMERIC
@ATTRIBUTE P_2240 NUMERIC
@ATTRIBUTE P_2241 NUMERIC
@ATTRIBUTE P_2242 NUMERIC
@ATTRIBUTE P_2243 NUMERIC
@ATTRIBUTE P_2244 NUMERIC
@ATTRIBUTE P_2245 NUMERIC
@ATTRIBUTE P_2246 NUMERIC
@ATTRIBUTE P_2247 NUMERIC
@ATTRIBUTE P_2248 NUMERIC
@ATTRIBUTE P_2249 NUMERIC
@ATTRIBUTE P_2250 NUMERIC
@ATTRIBUTE P_2251 NUMERIC
@ATTRIBUTE P_2252 NUMERIC
@ATTRIBUTE P_2253 NUMERIC
@ATTRIBUTE P_2254 NUMERIC
@ATTRIBUTE P_2255 NUMERIC
@ATTRIBUTE P_2256 NUMERIC
@ATTRIBUTE P_2257 NUMERIC
@ATTRIBUTE P_2258 NUMERIC
@ATTRIBUTE P_2259 NUMERIC
@ATTRIBUTE P_2260 NUMERIC
@ATTRIBUTE P_2261 NUMERIC
@ATTRIBUTE P_2262 NUMERIC
@ATTRIBUTE P_2263 NUMERIC
@ATTRIBUTE P_2264 NUMERIC
@ATTRIBUTE P_2265 NUMERIC
@ATTRIBUTE P_2266 NUMERIC
@ATTRIBUTE P_2267 NUMERIC
@ATTRIBUTE P_2268 NUMERIC
@ATTRIBUTE P_2269 NUMERIC
@ATTRIBUTE P_2270 NUMERIC
@ATTRIBUTE P_2271 NUMERIC
@ATTRIBUTE P_2272 NUMERIC
@ATTRIBUTE P_2273 NUMERIC
@ATTRIBUTE P_2274 NUMERIC
@ATTRIBUTE P_2275 NUMERIC
@ATTRIBUTE P_2276 NUMERIC
@ATTRIBUTE P_2277 NUMERIC
@ATTRIBUTE P_2278 NUMERIC
@ATTRIBUTE P_2279 NUMERIC
@ATTRIBUTE P_2280 NUMERIC
@ATTRIBUTE P_2281 NUMERIC
@ATTRIBUTE P_2282 NUMERIC
@ATTRIBUTE P_2283 NUMERIC
@ATTRIBUTE P_2284 NUMERIC
@ATTRIBUTE P_2285 NUMERIC
@ATTRIBUTE P_2286 NUMERIC
@ATTRIBUTE P_2287 NUMERIC
@ATTRIBUTE P_2288 NUMERIC
@ATTRIBUTE P_2289 NUMERIC
@ATTRIBUTE P_2290 NUMERIC
@ATTRIBUTE P_2291 NUMERIC
@ATTRIBUTE P_2292 NUMERIC
@ATTRIBUTE P_2293 NUMERIC
@ATTRIBUTE P_2294 NUMERIC
@ATTRIBUTE P_2295 NUMERIC
@ATTRIBUTE P_2296 NUMERIC
@ATTRIBUTE P_2297 NUMERIC
@ATTRIBUTE P_2298 NUMERIC
@ATTRIBUTE P_2299 NUMERIC
@ATTRIBUTE P_2300 NUMERIC
@ATTRIBUTE P_2301 NUMERIC
@ATTRIBUTE P_2302 NUMERIC
@ATTRIBUTE P_2303 NUMERIC
@ATTRIBUTE P_2304 NUMERIC
@ATTRIBUTE P_2305 NUMERIC
@ATTRIBUTE P_2306 NUMERIC
@ATTRIBUTE P_2307 NUMERIC
@ATTRIBUTE P_2308 NUMERIC
@ATTRIBUTE P_2309 NUMERIC
@ATTRIBUTE P_2310 NUMERIC
@ATTRIBUTE P_2311 NUMERIC
@ATTRIBUTE P_2312 NUMERIC
@ATTRIBUTE P_2313 NUMERIC
@ATTRIBUTE P_2314 NUMERIC
@ATTRIBUTE P_2315 NUMERIC
@ATTRIBUTE P_2316 NUMERIC
@ATTRIBUTE P_2317 NUMERIC
@ATTRIBUTE P_2318 NUMERIC
@ATTRIBUTE P_2319 NUMERIC
@ATTRIBUTE P_2320 NUMERIC
@ATTRIBUTE P_2321 NUMERIC
@ATTRIBUTE P_2322 NUMERIC
@ATTRIBUTE P_2323 NUMERIC
@ATTRIBUTE P_2324 NUMERIC
@ATTRIBUTE P_2325 NUMERIC
@ATTRIBUTE P_2326 NUMERIC
@ATTRIBUTE P_2327 NUMERIC
@ATTRIBUTE P_2328 NUMERIC
@ATTRIBUTE P_2329 NUMERIC
@ATTRIBUTE P_2330 NUMERIC
@ATTRIBUTE P_2331 NUMERIC
@ATTRIBUTE P_2332 NUMERIC
@ATTRIBUTE P_2333 NUMERIC
@ATTRIBUTE P_2334 NUMERIC
@ATTRIBUTE P_2335 NUMERIC
@ATTRIBUTE P_2336 NUMERIC
@ATTRIBUTE P_2337 NUMERIC
@ATTRIBUTE P_2338 NUMERIC
@ATTRIBUTE P_2339 NUMERIC
@ATTRIBUTE P_2340 NUMERIC
@ATTRIBUTE P_2341 NUMERIC
@ATTRIBUTE P_2342 NUMERIC
@ATTRIBUTE P_2343 NUMERIC
@ATTRIBUTE P_2344 NUMERIC
@ATTRIBUTE P_2345 NUMERIC
@ATTRIBUTE P_2346 NUMERIC
@ATTRIBUTE P_2347 NUMERIC
@ATTRIBUTE P_2348 NUMERIC
@ATTRIBUTE P_2349 NUMERIC
@ATTRIBUTE P_2350 NUMERIC
@ATTRIBUTE P_2351 NUMERIC
@ATTRIBUTE P_2352 NUMERIC
@ATTRIBUTE P_2353 NUMERIC
@ATTRIBUTE P_2354 NUMERIC
@ATTRIBUTE P_2355 NUMERIC
@ATTRIBUTE P_2356 NUMERIC
@ATTRIBUTE P_2357 NUMERIC
@ATTRIBUTE P_2358 NUMERIC
@ATTRIBUTE P_2359 NUMERIC
@ATTRIBUTE P_2360 NUMERIC
@ATTRIBUTE P_2361 NUMERIC
@ATTRIBUTE P_2362 NUMERIC
@ATTRIBUTE P_2363 NUMERIC
@ATTRIBUTE P_2364 NUMERIC
@ATTRIBUTE P_2365 NUMERIC
@ATTRIBUTE P_2366 NUMERIC
@ATTRIBUTE P_2367 NUMERIC
@ATTRIBUTE P_2368 NUMERIC
@ATTRIBUTE P_2369 NUMERIC
@ATTRIBUTE P_2370 NUMERIC
@ATTRIBUTE P_2371 NUMERIC
@ATTRIBUTE P_2372 NUMERIC
@ATTRIBUTE P_2373 NUMERIC
@ATTRIBUTE P_2374 NUMERIC
@ATTRIBUTE P_2375 NUMERIC
@ATTRIBUTE P_2376 NUMERIC
@ATTRIBUTE P_2377 NUMERIC
@ATTRIBUTE P_2378 NUMERIC
@ATTRIBUTE P_2379 NUMERIC
@ATTRIBUTE P_2380 NUMERIC
@ATTRIBUTE P_2381 NUMERIC
@ATTRIBUTE P_2382 NUMERIC
@ATTRIBUTE P_2383 NUMERIC
@ATTRIBUTE P_2384 NUMERIC
@ATTRIBUTE P_2385 NUMERIC
@ATTRIBUTE P_2386 NUMERIC
@ATTRIBUTE P_2387 NUMERIC
@ATTRIBUTE P_2388 NUMERIC
@ATTRIBUTE P_2389 NUMERIC
@ATTRIBUTE P_2390 NUMERIC
@ATTRIBUTE P_2391 NUMERIC
@ATTRIBUTE P_2392 NUMERIC
@ATTRIBUTE P_2393 NUMERIC
@ATTRIBUTE P_2394 NUMERIC
@ATTRIBUTE P_2395 NUMERIC
@ATTRIBUTE P_2396 NUMERIC
@ATTRIBUTE P_2397 NUMERIC
@ATTRIBUTE P_2398 NUMERIC
@ATTRIBUTE P_2399 NUMERIC
@ATTRIBUTE P_2400 NUMERIC
@ATTRIBUTE P_2401 NUMERIC
@ATTRIBUTE P_2402 NUMERIC
@ATTRIBUTE P_2403 NUMERIC
@ATTRIBUTE P_2404 NUMERIC
@ATTRIBUTE P_2405 NUMERIC
@ATTRIBUTE P_2406 NUMERIC
@ATTRIBUTE P_2407 NUMERIC
@ATTRIBUTE P_2408 NUMERIC
@ATTRIBUTE P_2409 NUMERIC
@ATTRIBUTE P_2410 NUMERIC
@ATTRIBUTE P_2411 NUMERIC
@ATTRIBUTE P_2412 NUMERIC
@ATTRIBUTE P_2413 NUMERIC
@ATTRIBUTE P_2414 NUMERIC
@ATTRIBUTE P_2415 NUMERIC
@ATTRIBUTE P_2416 NUMERIC
@ATTRIBUTE P_2417 NUMERIC
@ATTRIBUTE P_2418 NUMERIC
@ATTRIBUTE P_2419 NUMERIC
@ATTRIBUTE P_2420 NUMERIC
@ATTRIBUTE P_2421 NUMERIC
@ATTRIBUTE P_2422 NUMERIC
@ATTRIBUTE P_2423 NUMERIC
@ATTRIBUTE P_2424 NUMERIC
@ATTRIBUTE P_2425 NUMERIC
@ATTRIBUTE P_2426 NUMERIC
@ATTRIBUTE P_2427 NUMERIC
@ATTRIBUTE P_2428 NUMERIC
@ATTRIBUTE P_2429 NUMERIC
@ATTRIBUTE P_2430 NUMERIC
@ATTRIBUTE P_2431 NUMERIC
@ATTRIBUTE P_2432 NUMERIC
@ATTRIBUTE P_2433 NUMERIC
@ATTRIBUTE P_2434 NUMERIC
@ATTRIBUTE P_2435 NUMERIC
@ATTRIBUTE P_2436 NUMERIC
@ATTRIBUTE P_2437 NUMERIC
@ATTRIBUTE P_2438 NUMERIC
@ATTRIBUTE P_2439 NUMERIC
@ATTRIBUTE P_2440 NUMERIC
@ATTRIBUTE P_2441 NUMERIC
@ATTRIBUTE P_2442 NUMERIC
@ATTRIBUTE P_2443 NUMERIC
@ATTRIBUTE P_2444 NUMERIC
@ATTRIBUTE P_2445 NUMERIC
@ATTRIBUTE P_2446 NUMERIC
@ATTRIBUTE P_2447 NUMERIC
@ATTRIBUTE P_2448 NUMERIC
@ATTRIBUTE P_2449 NUMERIC
@ATTRIBUTE P_2450 NUMERIC
@ATTRIBUTE P_2451 NUMERIC
@ATTRIBUTE P_2452 NUMERIC
@ATTRIBUTE P_2453 NUMERIC
@ATTRIBUTE P_2454 NUMERIC
@ATTRIBUTE P_2455 NUMERIC
@ATTRIBUTE P_2456 NUMERIC
@ATTRIBUTE P_2457 NUMERIC
@ATTRIBUTE P_2458 NUMERIC
@ATTRIBUTE P_2459 NUMERIC
@ATTRIBUTE P_2460 NUMERIC
@ATTRIBUTE P_2461 NUMERIC
@ATTRIBUTE P_2462 NUMERIC
@ATTRIBUTE P_2463 NUMERIC
@ATTRIBUTE P_2464 NUMERIC
@ATTRIBUTE P_2465 NUMERIC
@ATTRIBUTE P_2466 NUMERIC
@ATTRIBUTE P_2467 NUMERIC
@ATTRIBUTE P_2468 NUMERIC
@ATTRIBUTE P_2469 NUMERIC
@ATTRIBUTE P_2470 NUMERIC
@ATTRIBUTE P_2471 NUMERIC
@ATTRIBUTE P_2472 NUMERIC
@ATTRIBUTE P_2473 NUMERIC
@ATTRIBUTE P_2474 NUMERIC
@ATTRIBUTE P_2475 NUMERIC
@ATTRIBUTE P_2476 NUMERIC
@ATTRIBUTE P_2477 NUMERIC
@ATTRIBUTE P_2478 NUMERIC
@ATTRIBUTE P_2479 NUMERIC
@ATTRIBUTE P_2480 NUMERIC
@ATTRIBUTE P_2481 NUMERIC
@ATTRIBUTE P_2482 NUMERIC
@ATTRIBUTE P_2483 NUMERIC
@ATTRIBUTE P_2484 NUMERIC
@ATTRIBUTE P_2485 NUMERIC
@ATTRIBUTE P_2486 NUMERIC
@ATTRIBUTE P_2487 NUMERIC
@ATTRIBUTE P_2488 NUMERIC
@ATTRIBUTE P_2489 NUMERIC
@ATTRIBUTE P_2490 NUMERIC
@ATTRIBUTE P_2491 NUMERIC
@ATTRIBUTE P_2492 NUMERIC
@ATTRIBUTE P_2493 NUMERIC
@ATTRIBUTE P_2494 NUMERIC
@ATTRIBUTE P_2495 NUMERIC
@ATTRIBUTE P_2496 NUMERIC
@ATTRIBUTE P_2497 NUMERIC
@ATTRIBUTE P_2498 NUMERIC
@ATTRIBUTE P_2499 NUMERIC
@ATTRIBUTE P_2500 NUMERIC

@ATTRIBUTE class {1,2,3}

@DATA
182 184 181 179 179 179 179 179 179 179 179 179 179 179 180 181 182 182 183 181 181 181 180 180 181 181 181 180 180 179 179 179 180 180 180 179 179 180 179 180 179 179 179 179 179 179 179 179 179 179 182 183 182 179 179 179 179 179 179 179 179 179 179 179 179 180 181 182 184 182 181 180 179 179 181 180 181 180 180 180 180 179 179 179 179 179 180 180 180 180 179 179 179 179 179 179 179 179 179 179 182 184 181 179 179 179 179 179 179 179 179 179 179 179 179 179 181 183 184 183 180 179 178 180 181 180 180 180 180 179 180 180 179 179 179 179 178 180 180 180 179 179 179 179 179 179 179 179 179 179 182 182 180 179 179 179 179 179 179 179 179 179 179 179 179 179 179 182 181 182 181 180 179 178 179 180 179 180 180 179 179 179 179 179 179 179 179 179 179 179 179 179 179 179 179 179 179 179 179 179 182 180 179 179 179 179 179 179 179 179 179 179 179 179 179 179 179 181 181 180 181 181 180 178 178 176 176 178 178 178 178 179 179 179 179 179 179 179 179 179 179 179 179 179 179 179 179 179 179 179 181 179 179 179 179 179 179 179 179 179 179 179 179 179 179 179 179 180 181 181 180 180 177 170 162 148 134 148 169 177 177 178 179 179 179 179 179 179 179 179 179 179 179 179 179 179 179 179 179 179 179 179 179 179 179 179 179 179 179 179 179 179 179 179 179 179 179 179 180 180 179 170 149 126 118 114 95 83 114 162 176 179 179 179 179 179 179 179 179 179 179 179 179 179 179 179 179 179 179 179 179 179 179 179 179 179 179 179 179 179 179 179 179 179 179 179 179 178 178 176 167 136 96 103 138 155 153 125 95 112 169 179 179 179 179 179 179 179 179 179 179 179 179 179 179 179 179 179 179 179 179 179 179 179 179 179 179 179 179 179 179 179 179 179 179 179 179 178 177 170 135 93 99 142 167 177 177 175 133 99 155 178 179 179 179 179 179 179 179 179 179 179 179 179 179 179 179 179 179 179 179 179 179 179 179 179 179 179 179 179 179 179 179 179 179 179 178 178 176 144 100 103 150 171 177 178 178 177 137 101 152 178 179 179 179 179 179 179 179 179 179 179 179 179 179 179 179 179 179 179 179 179 179 179 179 179 179 179 179 179 179 179 179 179 179 178 176 176 165 116 101 148 172 178 179 178 178 173 134 101 151 178 179 179 179 179 179 179 179 179 179 179 179 179 179 179 179 179 179 179 179 179 179 179 179 179 179 179 179 179 179 179 179 179 179 177 175 174 141 97 119 166 178 179 179 178 179 173 132 97 147 178 179 179 179 179 179 179 179 179 179 179 179 179 179 179 179 179 179 179 179 179 179 179 179 179 179 179 179 179 179 179 179 179 179 176 174 169 118 92 144 173 178 179 180 179 179 175 141 98 143 177 179 179 179 179 179 179 179 179 179 179 179 179 179 179 179 179 179 179 179 179 179 179 179 179 179 179 179 179 179 179 179 179 178 176 176 161 106 107 157 177 179 180 179 179 178 177 138 86 138 178 179 179 179 179 179 179 179 179 179 179 179 179 179 179 179 179 179 179 179 179 179 179 179 179 179 179 179 179 179 179 179 179 179 177 176 154 99 116 165 177 179 180 180 179 179 173 128 72 141 178 179 179 179 179 179 179 179 179 179 179 179 179 179 179 179 179 179 179 179 179 179 179 179 179 179 179 179 179 179 179 179 179 179 179 177 152 95 120 169 178 179 179 179 178 176 166 113 67 141 177 179 179 179 179 179 179 179 179 179 179 179 179 179 179 179 179 179 179 179 179 179 179 179 179 179 179 179 179 179 179 179 179 179 180 178 155 94 121 168 177 178 178 175 174 168 141 92 63 138 176 179 179 179 179 179 179 179 179 179 179 179 179 179 179 179 179 179 179 179 179 179 179 179 179 179 179 179 179 179 179 179 179 178 179 178 159 96 108 166 177 178 178 175 167 138 104 83 66 134 174 178 179 179 179 179 179 179 179 179 179 179 179 179 179 179 179 179 178 178 178 179 179 179 179 179 179 179 179 179 179 179 179 178 179 178 169 108 86 151 173 173 166 146 121 103 128 118 77 131 172 178 179 179 179 179 179 179 179 179 179 179 179 179 179 179 179 179 178 179 178 179 179 179 179 179 179 179 179 179 179 179 180 179 179 179 177 143 81 90 121 131 116 98 105 139 161 147 87 119 169 178 179 179 179 179 179 179 179 179 179 179 179 179 179 179 179 179 178 179 178 178 179 179 179 179 179 179 179 179 179 179 179 179 179 179 179 174 140 87 73 80 95 123 153 173 175 158 96 105 165 178 178 179 179 179 179 179 179 179 179 179 179 179 179 179 179 179 177 181 179 178 178 179 179 179 179 179 179 179 179 179 179 179 179 179 179 177 172 162 148 147 156 169 176 176 176 162 98 92 161 175 178 179 179 179 179 179 179 179 179 179 179 179 179 179 179 179 176 182 179 178 177 178 179 179 179 179 179 179 179 179 179 179 179 179 179 178 174 174 176 176 177 177 178 177 177 166 107 89 155 175 178 179 179 179 179 179 179 179 179 179 179 179 179 179 179 179 175 182 181 179 177 178 179 179 179 179 179 179 179 179 179 179 179 179 179 178 176 176 178 178 177 178 178 179 178 172 118 83 148 174 178 179 179 179 179 179 179 179 178 179 179 179 179 179 179 179 178 181 180 180 179 178 178 179 179 179 179 179 179 179 179 178 179 179 179 178 178 177 179 179 177 177 177 178 178 174 130 78 137 174 178 178 179 179 179 179 179 178 178 179 179 179 179 179 179 179 177 181 180 180 180 179 178 178 179 179 179 179 179 179 177 174 177 178 179 179 179 176 178 178 178 179 178 178 177 175 138 81 128 169 177 177 177 178 178 178 177 177 177 178 179 179 179 179 179 179 178 180 181 180 179 177 178 178 178 178 178 178 178 176 172 177 178 179 180 180 180 178 178 178 179 180 179 177 176 175 147 83 118 168 176 176 177 178 177 177 178 178 178 177 179 179 179 179 179 179 178 180 179 180 179 177 179 178 179 178 178 178 178 177 177 178 180 179 180 179 178 179 179 179 179 179 179 178 178 177 155 90 108 165 175 177 177 177 177 177 177 178 178 177 179 179 179 179 179 179 177 180 179 180 180 179 179 180 179 180 180 179 179 178 179 179 179 180 180 179 179 180 179 179 180 179 179 179 180 177 163 100 93 159 176 177 177 177 178 177 177 178 177 176 177 179 179 179 179 178 177 180 180 181 180 180 180 181 180 180 180 179 179 179 180 179 180 179 180 179 179 179 179 179 179 179 179 180 178 177 166 105 84 155 178 178 178 177 177 178 177 178 176 176 177 178 179 179 178 177 176 181 180 180 180 180 181 181 181 180 180 181 180 179 179 179 180 179 179 179 178 178 180 179 179 179 178 178 178 177 170 116 82 150 174 179 178 178 179 178 178 177 176 177 176 177 178 178 177 177 177 180 180 180 180 181 181 181 180 179 179 179 178 179 178 180 180 179 179 179 179 179 180 180 180 179 179 178 179 177 173 132 79 137 170 177 176 178 177 177 178 177 176 178 177 176 177 176 175 176 176 180 180 180 180 180 180 181 179 178 179 179 179 178 179 179 180 180 180 179 179 180 180 180 178 178 178 178 178 178 175 140 80 128 170 176 176 177 178 177 178 177 178 178 178 177 176 176 175 175 175 180 180 180 180 180 179 180 179 179 179 178 179 178 179 179 179 179 179 179 179 179 179 179 178 179 178 178 178 177 176 156 91 116 167 177 177 177 177 176 177 177 177 177 177 177 177 177 176 176 175 180 180 179 180 179 178 179 179 178 180 179 179 179 179 178 179 179 179 180 180 180 178 177 178 178 178 178 178 177 176 164 101 100 163 177 177 177 177 177 178 177 177 178 177 176 176 176 176 175 175 179 179 179 181 180 179 179 179 178 180 179 178 180 180 180 179 179 179 179 172 162 150 157 176 178 178 177 178 178 176 170 114 83 153 173 177 178 177 177 177 176 177 178 177 176 175 175 175 175 175 180 179 179 179 178 180 181 180 180 180 180 179 179 179 180 177 165 151 133 121 115 128 154 175 179 178 177 178 178 176 175 131 79 137 172 177 177 176 176 177 177 177 176 177 176 176 175 175 175 176 180 180 178 179 179 180 181 180 179 179 178 179 178 177 174 157 118 91 91 114 141 163 174 178 178 178 177 177 178 178 176 141 79 127 170 176 176 176 175 175 176 176 176 177 176 176 175 175 176 176 180 179 178 179 179 180 181 180 179 180 179 177 177 174 144 108 100 113 145 166 174 175 175 177 179 179 179 176 177 176 175 149 81 117 170 176 176 176 176 176 177 176 176 176 175 176 175 175 176 175 179 179 179 180 181 181 180 180 179 178 177 177 175 155 108 114 145 166 174 175 177 177 177 178 179 178 177 176 176 176 175 153 87 114 166 175 175 175 176 175 175 176 176 175 175 175 175 175 175 175 179 178 179 178 179 179 180 179 178 178 177 177 173 137 84 129 166 174 177 177 178 178 178 178 179 178 178 176 176 177 175 156 95 112 165 176 175 175 176 175 174 175 175 176 175 176 175 175 175 175 180 179 178 177 178 179 180 180 178 177 178 178 174 141 79 118 170 175 177 177 178 179 179 179 179 177 178 177 177 176 175 154 93 114 166 176 177 177 177 176 174 174 175 176 176 176 176 175 176 176 180 179 178 177 179 179 179 180 179 177 177 177 174 148 84 69 126 162 170 173 177 178 179 179 177 177 178 177 176 176 174 150 92 116 166 176 177 177 176 176 175 174 175 176 176 176 175 175 175 175 180 178 179 179 180 179 179 179 179 177 176 177 176 171 137 71 62 82 110 145 166 176 177 178 177 177 178 177 177 175 172 141 87 122 168 176 176 176 176 175 175 174 174 175 176 176 176 175 174 174 180 180 179 180 179 179 179 179 178 178 177 177 177 176 173 144 95 68 60 70 101 138 164 170 170 171 173 174 175 175 163 116 85 139 171 175 175 175 174 175 175 175 174 174 176 176 175 175 174 174 179 179 179 179 180 180 180 179 178 179 178 178 176 176 176 174 169 158 135 104 83 78 90 118 140 134 133 140 151 147 126 91 108 156 175 177 176 175 175 175 174 174 174 174 175 175 175 174 174 174 178 179 179 180 179 180 180 180 179 179 179 179 178 176 176 176 175 175 173 168 159 149 138 125 127 125 105 95 100 92 81 98 144 168 176 177 177 177 175 175 175 175 175 174 175 175 175 174 174 174 179 180 180 179 177 179 181 179 179 179 179 178 177 177 177 177 178 177 177 176 175 174 173 172 171 167 161 145 134 128 132 150 169 174 176 176 176 176 176 175 175 176 175 174 173 174 174 173 174 174 179 180 180 178 178 178 180 179 178 178 179 179 179 178 178 179 178 178 178 178 176 177 177 177 175 177 176 174 173 174 175 176 175 175 175 175 176 175 175 175 176 175 175 174 174 174 174 173 172 172 180 181 180 179 178 178 179 178 178 178 179 179 178 178 177 178 178 177 176 177 176 177 177 177 177 178 178 177 176 176 175 176 177 175 175 176 176 175 175 175 175 175 175 175 174 174 172 172 171 171 1
182 184 181 179 179 179 179 179 179 179 179 179 179 179 180 181 182 182 183 181 181 181 180 180 181 181 181 180 180 179 179 179 180 180 180 179 179 180 179 180 179 179 179 179 179 179 179 179 179 179 182 183 182 179 179 179 179 179 179 179 179 179 179 179 179 180 181 182 184 182 181 180 179 179 181 180 181 180 180 180 180 179 179 179 179 179 180 180 180 180 179 179 179 179 179 179 179 179 179 179 182 184 181 179 179 179 179 179 179 179 179 179 179 179 179 179 181 183 184 183 180 179 178 180 181 180 180 180 180 179 180 180 179 179 179 179 178 180 180 180 179 179 179 179 179 179 179 179 179 179 182 182 180 179 179 179 179 179 179 179 179 179 179 179 179 179 179 182 181 182 181 180 179 178 179 180 179 180 180 179 179 179 179 179 179 179 179 179 179 179 179 179 179 179 179 179 179 179 179 179 182 180 179 179 179 179 179 179 179 179 179 179 179 179 179 179 179 181 181 180 181 181 180 178 178 176 176 178 178 178 178 179 179 179 179 179 179 179 179 179 179 179 179 179 179 179 179 179 179 179 181 179 179 179 179 179 179 179 179 179 179 179 179 179 179 179 179 180 181 181 180 180 177 170 162 148 134 148 169 177 177 178 179 179 179 179 179 179 179 179 179 179 179 179 179 179 179 179 179 179 179 179 179 179 179 179 179 179 179 179 179 179 179 179 179 179 179 179 180 180 179 170 149 126 118 114 95 83 114 162 176 179 179 179 179 179 179 179 179 179 179 179 179 179 179 179 179 179 179 179 179 179 179 179 179 179 179 179 179 179 179 179 179 179 179 179 179 178 178 176 167 136 96 103 138 155 153 125 95 112 169 179 179 179 179 179 179 179 179 179 179 179 179 179 179 179 179 179 179 179 179 179 179 179 179 179 179 179 179 179 179 179 179 179 179 179 179 178 177 170 135 93 99 142 167 177 177 175 133 99 155 178 179 179 179 179 179 179 179 179 179 179 179 179 179 179 179 179 179 179 179 179 179 179 179 179 179 179 179 179 179 179 179 179 179 179 178 178 176 144 100 103 150 171 177 178 178 177 137 101 152 178 179 179 179 179 179 179 179 179 179 179 179 179 179 179 179 179 179 179 179 179 179 179 179 179 179 179 179 179 179 179 179 179 179 178 176 176 165 116 101 148 172 178 179 178 178 173 134 101 151 178 179 179 179 179 179 179 179 179 179 179 179 179 179 179 179 179 179 179 179 179 179 179 179 179 179 179 179 179 179 179 179 179 179 177 175 174 141 97 119 166 178 179 179 178 179 173 132 97 147 178 179 179 179 179 179 179 179 179 179 179 179 179 179 179 179 179 179 179 179 179 179 179 179 179 179 179 179 179 179 179 179 179 179 176 174 169 118 92 144 173 178 179 180 179 179 175 141 98 143 177 179 179 179 179 179 179 179 179 179 179 179 179 179 179 179 179 179 179 179 179 179 179 179 179 179 179 179 179 179 179 179 179 178 176 176 161 106 107 157 177 179 180 179 179 178 177 138 86 138 178 179 179 179 179 179 179 179 179 179 179 179 179 179 179 179 179 179 179 179 179 179 179 179 179 179 179 179 179 179 179 179 179 179 177 176 154 99 116 165 177 179 180 180 179 179 173 128 72 141 178 179 179 179 179 179 179 179 179 179 179 179 179 179 179 179 179 179 179 179 179 179 179 179 179 179 179 179 179 179 179 179 179 179 179 177 152 95 120 169 178 179 179 179 178 176 166 113 67 141 177 179 179 179 179 179 179 179 179 179 179 179 179 179 179 179 179 179 179 179 179 179 179 179 179 179 179 179 179 179 179 179 179 179 180 178 155 94 121 168 177 178 178 175 174 168 141 92 63 138 176 179 179 179 179 179 179 179 179 179 179 179 179 179 179 179 179 179 179 179 179 179 179 179 179 179 179 179 179 179 179 179 179 178 179 178 159 96 108 166 177 178 178 175 167 138 104 83 66 134 174 178 179 179 179 179 179 179 179 179 179 179 179 179 179 179 179 179 178 178 178 179 179 179 179 179 179 179 179 179 179 179 179 178 179 178 169 108 86 151 173 173 166 146 121 103 128 118 77 131 172 178 179 179 179 179 179 179 179 179 179 179 179 179 179 179 179 179 178 179 178 179 179 179 179 179 179 179 179 179 179 179 180 179 179 179 177 143 81 90 121 131 116 98 105 139 161 147 87 119 169 178 179 179 179 179 179 179 179 179 179 179 179 179 179 179 179 179 178 179 178 178 179 179 179 179 179 179 179 179 179 179 179 179 179 179 179 174 140 87 73 80 95 123 153 173 175 158 96 105 165 178 178 179 179 179 179 179 179 179 179 179 179 179 179 179 179 179 177 181 179 178 178 179 179 179 179 179 179 179 179 179 179 179 179 179 179 177 172 162 148 147 156 169 176 176 176 162 98 92 161 175 178 179 179 179 179 179 179 179 179 179 179 179 179 179 179 179 176 182 179 178 177 178 179 179 179 179 179 179 179 179 179 179 179 179 179 178 174 174 176 176 177 177 178 177 177 166 107 89 155 175 178 179 179 179 179 179 179 179 179 179 179 179 179 179 179 179 175 182 181 179 177 178 179 179 179 179 179 179 179 179 179 179 179 179 179 178 176 176 178 178 177 178 178 179 178 172 118 83 148 174 178 179 179 179 179 179 179 179 178 179 179 179 179 179 179 179 178 181 180 180 179 178 178 179 179 179 179 179 179 179 179 178 179 179 179 178 178 177 179 179 177 177 177 178 178 174 130 78 137 174 178 178 179 179 179 179 179 178 178 179 179 179 179 179 179 179 177 181 180 180 180 179 178 178 179 179 179 179 179 179 177 174 177 178 179 179 179 176 178 178 178 179 178 178 177 175 138 81 128 169 177 177 177 178 178 178 177 177 177 178 179 179 179 179 179 179 178 180 181 180 179 177 178 178 178 178 178 178 178 176 172 177 178 179 180 180 180 178 178 178 179 180 179 177 176 175 147 83 118 168 176 176 177 178 177 177 178 178 178 177 179 179 179 179 179 179 178 180 179 180 179 177 179 178 179 178 178 178 178 177 177 178 180 179 180 179 178 179 179 179 179 179 179 178 178 177 155 90 108 165 175 177 177 177 177 177 177 178 178 177 179 179 179 179 179 179 177 180 179 180 180 179 179 180 179 180 180 179 179 178 179 179 179 180 180 179 179 180 179 179 180 179 179 179 180 177 163 100 93 159 176 177 177 177 178 177 177 178 177 176 177 179 179 179 179 178 177 180 180 181 180 180 180 181 180 180 180 179 179 179 180 179 180 179 180 179 179 179 179 179 179 179 179 180 178 177 166 105 84 155 178 178 178 177 177 178 177 178 176 176 177 178 179 179 178 177 176 181 180 180 180 180 181 181 181 180 180 181 180 179 179 179 180 179 179 179 178 178 180 179 179 179 178 178 178 177 170 116 82 150 174 179 178 178 179 178 178 177 176 177 176 177 178 178 177 177 177 180 180 180 180 181 181 181 180 179 179 179 178 179 178 180 180 179 179 179 179 179 180 180 180 179 179 178 179 177 173 132 79 137 170 177 176 178 177 177 178 177 176 178 177 176 177 176 175 176 176 180 180 180 180 180 180 181 179 178 179 179 179 178 179 179 180 180 180 179 179 180 180 180 178 178 178 178 178 178 175 140 80 128 170 176 176 177 178 177 178 177 178 178 178 177 176 176 175 175 175 180 180 180 180 180 179 180 179 179 179 178 179 178 179 179 179 179 179 179 179 179 179 179 178 179 178 178 178 177 176 156 91 116 167 177 177 177 177 176 177 177 177 177 177 177 177 177 176 176 175 180 180 179 180 179 178 179 179 178 180 179 179 179 179 178 179 179 179 180 180 180 178 177 178 178 178 178 178 177 176 164 101 100 163 177 177 177 177 177 178 177 177 178 177 176 176 176 176 175 175 179 179 179 181 180 179 179 179 178 180 179 178 180 180 180 179 179 179 179 172 162 150 157 176 178 178 177 178 178 176 170 114 83 153 173 177 178 177 177 177 176 177 178 177 176 175 175 175 175 175 180 179 179 179 178 180 181 180 180 180 180 179 179 179 180 177 165 151 133 121 115 128 154 175 179 178 177 178 178 176 175 131 79 137 172 177 177 176 176 177 177 177 176 177 176 176 175 175 175 176 180 180 178 179 179 180 181 180 179 179 178 179 178 177 174 157 118 91 91 114 141 163 174 178 178 178 177 177 178 178 176 141 79 127 170 176 176 176 175 175 176 176 176 177 176 176 175 175 176 176 180 179 178 179 179 180 181 180 179 180 179 177 177 174 144 108 100 113 145 166 174 175 175 177 179 179 179 176 177 176 175 149 81 117 170 176 176 176 176 176 177 176 176 176 175 176 175 175 176 175 179 179 179 180 181 181 180 180 179 178 177 177 175 155 108 114 145 166 174 175 177 177 177 178 179 178 177 176 176 176 175 153 87 114 166 175 175 175 176 175 175 176 176 175 175 175 175 175 175 175 179 178 179 178 179 179 180 179 178 178 177 177 173 137 84 129 166 174 177 177 178 178 178 178 179 178 178 176 176 177 175 156 95 112 165 176 175 175 176 175 174 175 175 176 175 176 175 175 175 175 180 179 178 177 178 179 180 180 178 177 178 178 174 141 79 118 170 175 177 177 178 179 179 179 179 177 178 177 177 176 175 154 93 114 166 176 177 177 177 176 174 174 175 176 176 176 176 175 176 176 180 179 178 177 179 179 179 180 179 177 177 177 174 148 84 69 126 162 170 173 177 178 179 179 177 177 178 177 176 176 174 150 92 116 166 176 177 177 176 176 175 174 175 176 176 176 175 175 175 175 180 178 179 179 180 179 179 179 179 177 176 177 176 171 137 71 62 82 110 145 166 176 177 178 177 177 178 177 177 175 172 141 87 122 168 176 176 176 176 175 175 174 174 175 176 176 176 175 174 174 180 180 179 180 179 179 179 179 178 178 177 177 177 176 173 144 95 68 60 70 101 138 164 170 170 171 173 174 175 175 163 116 85 139 171 175 175 175 174 175 175 175 174 174 176 176 175 175 174 174 179 179 179 179 180 180 180 179 178 179 178 178 176 176 176 174 169 158 135 104 83 78 90 118 140 134 133 140 151 147 126 91 108 156 175 177 176 175 175 175 174 174 174 174 175 175 175 174 174 174 178 179 179 180 179 180 180 180 179 179 179 179 178 176 176 176 175 175 173 168 159 149 138 125 127 125 105 95 100 92 81 98 144 168 176 177 177 177 175 175 175 175 175 174 175 175 175 174 174 174 179 180 180 179 177 179 181 179 179 179 179 178 177 177 177 177 178 177 177 176 175 174 173 172 171 167 161 145 134 128 132 150 169 174 176 176 176 176 176 175 175 176 175 174 173 174 174 173 174 174 179 180 180 178 178 178 180 179 178 178 179 179 179 178 178 179 178 178 178 178 176 177 177 177 175 177 176 174 173 174 175 176 175 175 175 175 176 175 175 175 176 175 175 174 174 174 174 173 172 172 180 181 180 179 178 178 179 178 178 178 179 179 178 178 177 178 178 177 176 177 176 177 177 177 177 178 178 177 176 176 175 176 177 175 175 176 176 175 175 175 175 175 175 175 174 174 172 172 171 171 2
182 184 181 179 179 179 179 179 179 179 179 179 179 179 180 181 182 182 183 181 181 181 180 180 181 181 181 180 180 179 179 179 180 180 180 179 179 180 179 180 179 179 179 179 179 179 179 179 179 179 182 183 182 179 179 179 179 179 179 179 179 179 179 179 179 180 181 182 184 182 181 180 179 179 181 180 181 180 180 180 180 179 179 179 179 179 180 180 180 180 179 179 179 179 179 179 179 179 179 179 182 184 181 179 179 179 179 179 179 179 179 179 179 179 179 179 181 183 184 183 180 179 178 180 181 180 180 180 180 179 180 180 179 179 179 179 178 180 180 180 179 179 179 179 179 179 179 179 179 179 182 182 180 179 179 179 179 179 179 179 179 179 179 179 179 179 179 182 181 182 181 180 179 178 179 180 179 180 180 179 179 179 179 179 179 179 179 179 179 179 179 179 179 179 179 179 179 179 179 179 182 180 179 179 179 179 179 179 179 179 179 179 179 179 179 179 179 181 181 180 181 181 180 178 178 176 176 178 178 178 178 179 179 179 179 179 179 179 179 179 179 179 179 179 179 179 179 179 179 179 181 179 179 179 179 179 179 179 179 179 179 179 179 179 179 179 179 180 181 181 180 180 177 170 162 148 134 148 169 177 177 178 179 179 179 179 179 179 179 179 179 179 179 179 179 179 179 179 179 179 179 179 179 179 179 179 179 179 179 179 179 179 179 179 179 179 179 179 180 180 179 170 149 126 118 114 95 83 114 162 176 179 179 179 179 179 179 179 179 179 179 179 179 179 179 179 179 179 179 179 179 179 179 179 179 179 179 179 179 179 179 179 179 179 179 179 179 178 178 176 167 136 96 103 138 155 153 125 95 112 169 179 179 179 179 179 179 179 179 179 179 179 179 179 179 179 179 179 179 179 179 179 179 179 179 179 179 179 179 179 179 179 179 179 179 179 179 178 177 170 135 93 99 142 167 177 177 175 133 99 155 178 179 179 179 179 179 179 179 179 179 179 179 179 179 179 179 179 179 179 179 179 179 179 179 179 179 179 179 179 179 179 179 179 179 179 178 178 176 144 100 103 150 171 177 178 178 177 137 101 152 178 179 179 179 179 179 179 179 179 179 179 179 179 179 179 179 179 179 179 179 179 179 179 179 179 179 179 179 179 179 179 179 179 179 178 176 176 165 116 101 148 172 178 179 178 178 173 134 101 151 178 179 179 179 179 179 179 179 179 179 179 179 179 179 179 179 179 179 179 179 179 179 179 179 179 179 179 179 179 179 179 179 179 179 177 175 174 141 97 119 166 178 179 179 178 179 173 132 97 147 178 179 179 179 179 179 179 179 179 179 179 179 179 179 179 179 179 179 179 179 179 179 179 179 179 179 179 179 179 179 179 179 179 179 176 174 169 118 92 144 173 178 179 180 179 179 175 141 98 143 177 179 179 179 179 179 179 179 179 179 179 179 179 179 179 179 179 179 179 179 179 179 179 179 179 179 179 179 179 179 179 179 179 178 176 176 161 106 107 157 177 179 180 179 179 178 177 138 86 138 178 179 179 179 179 179 179 179 179 179 179 179 179 179 179 179 179 179 179 179 179 179 179 179 179 179 179 179 179 179 179 179 179 179 177 176 154 99 116 165 177 179 180 180 179 179 173 128 72 141 178 179 179 179 179 179 179 179 179 179 179 179 179 179 179 179 179 179 179 179 179 179 179 179 179 179 179 179 179 179 179 179 179 179 179 177 152 95 120 169 178 179 179 179 178 176 166 113 67 141 177 179 179 179 179 179 179 179 179 179 179 179 179 179 179 179 179 179 179 179 179 179 179 179 179 179 179 179 179 179 179 179 179 179 180 178 155 94 121 168 177 178 178 175 174 168 141 92 63 138 176 179 179 179 179 179 179 179 179 179 179 179 179 179 179 179 179 179 179 179 179 179 179 179 179 179 179 179 179 179 179 179 179 178 179 178 159 96 108 166 177 178 178 175 167 138 104 83 66 134 174 178 179 179 179 179 179 179 179 179 179 179 179 179 179 179 179 179 178 178 178 179 179 179 179 179 179 179 179 179 179 179 179 178 179 178 169 108 86 151 173 173 166 146 121 103 128 118 77 131 172 178 179 179 179 179 179 179 179 179 179 179 179 179 179 179 179 179 178 179 178 179 179 179 179 179 179 179 179 179 179 179 180 179 179 179 177 143 81 90 121 131 116 98 105 139 161 147 87 119 169 178 179 179 179 179 179 179 179 179 179 179 179 179 179 179 179 179 178 179 178 178 179 179 179 179 179 179 179 179 179 179 179 179 179 179 179 174 140 87 73 80 95 123 153 173 175 158 96 105 165 178 178 179 179 179 179 179 179 179 179 179 179 179 179 179 179 179 177 181 179 178 178 179 179 179 179 179 179 179 179 179 179 179 179 179 179 177 172 162 148 147 156 169 176 176 176 162 98 92 161 175 178 179 179 179 179 179 179 179 179 179 179 179 179 179 179 179 176 182 179 178 177 178 179 179 179 179 179 179 179 179 179 179 179 179 179 178 174 174 176 176 177 177 178 177 177 166 107 89 155 175 178 179 179 179 179 179 179 179 179 179 179 179 179 179 179 179 175 182 181 179 177 178 179 179 179 179 179 179 179 179 179 179 179 179 179 178 176 176 178 178 177 178 178 179 178 172 118 83 148 174 178 179 179 179 179 179 179 179 178 179 179 179 179 179 179 179 178 181 180 180 179 178 178 179 179 179 179 179 179 179 179 178 179 179 179 178 178 177 179 179 177 177 177 178 178 174 130 78 137 174 178 178 179 179 179 179 179 178 178 179 179 179 179 179 179 179 177 181 180 180 180 179 178 178 179 179 179 179 179 179 177 174 177 178 179 179 179 176 178 178 178 179 178 178 177 175 138 81 128 169 177 177 177 178 178 178 177 177 177 178 179 179 179 179 179 179 178 180 181 180 179 177 178 178 178 178 178 178 178 176 172 177 178 179 180 180 180 178 178 178 179 180 179 177 176 175 147 83 118 168 176 176 177 178 177 177 178 178 178 177 179 179 179 179 179 179 178 180 179 180 179 177 179 178 179 178 178 178 178 177 177 178 180 179 180 179 178 179 179 179 179 179 179 178 178 177 155 90 108 165 175 177 177 177 177 177 177 178 178 177 179 179 179 179 179 179 177 180 179 180 180 179 179 180 179 180 180 179 179 178 179 179 179 180 180 179 179 180 179 179 180 179 179 179 180 177 163 100 93 159 176 177 177 177 178 177 177 178 177 176 177 179 179 179 179 178 177 180 180 181 180 180 180 181 180 180 180 179 179 179 180 179 180 179 180 179 179 179 179 179 179 179 179 180 178 177 166 105 84 155 178 178 178 177 177 178 177 178 176 176 177 178 179 179 178 177 176 181 180 180 180 180 181 181 181 180 180 181 180 179 179 179 180 179 179 179 178 178 180 179 179 179 178 178 178 177 170 116 82 150 174 179 178 178 179 178 178 177 176 177 176 177 178 178 177 177 177 180 180 180 180 181 181 181 180 179 179 179 178 179 178 180 180 179 179 179 179 179 180 180 180 179 179 178 179 177 173 132 79 137 170 177 176 178 177 177 178 177 176 178 177 176 177 176 175 176 176 180 180 180 180 180 180 181 179 178 179 179 179 178 179 179 180 180 180 179 179 180 180 180 178 178 178 178 178 178 175 140 80 128 170 176 176 177 178 177 178 177 178 178 178 177 176 176 175 175 175 180 180 180 180 180 179 180 179 179 179 178 179 178 179 179 179 179 179 179 179 179 179 179 178 179 178 178 178 177 176 156 91 116 167 177 177 177 177 176 177 177 177 177 177 177 177 177 176 176 175 180 180 179 180 179 178 179 179 178 180 179 179 179 179 178 179 179 179 180 180 180 178 177 178 178 178 178 178 177 176 164 101 100 163 177 177 177 177 177 178 177 177 178 177 176 176 176 176 175 175 179 179 179 181 180 179 179 179 178 180 179 178 180 180 180 179 179 179 179 172 162 150 157 176 178 178 177 178 178 176 170 114 83 153 173 177 178 177 177 177 176 177 178 177 176 175 175 175 175 175 180 179 179 179 178 180 181 180 180 180 180 179 179 179 180 177 165 151 133 121 115 128 154 175 179 178 177 178 178 176 175 131 79 137 172 177 177 176 176 177 177 177 176 177 176 176 175 175 175 176 180 180 178 179 179 180 181 180 179 179 178 179 178 177 174 157 118 91 91 114 141 163 174 178 178 178 177 177 178 178 176 141 79 127 170 176 176 176 175 175 176 176 176 177 176 176 175 175 176 176 180 179 178 179 179 180 181 180 179 180 179 177 177 174 144 108 100 113 145 166 174 175 175 177 179 179 179 176 177 176 175 149 81 117 170 176 176 176 176 176 177 176 176 176 175 176 175 175 176 175 179 179 179 180 181 181 180 180 179 178 177 177 175 155 108 114 145 166 174 175 177 177 177 178 179 178 177 176 176 176 175 153 87 114 166 175 175 175 176 175 175 176 176 175 175 175 175 175 175 175 179 178 179 178 179 179 180 179 178 178 177 177 173 137 84 129 166 174 177 177 178 178 178 178 179 178 178 176 176 177 175 156 95 112 165 176 175 175 176 175 174 175 175 176 175 176 175 175 175 175 180 179 178 177 178 179 180 180 178 177 178 178 174 141 79 118 170 175 177 177 178 179 179 179 179 177 178 177 177 176 175 154 93 114 166 176 177 177 177 176 174 174 175 176 176 176 176 175 176 176 180 179 178 177 179 179 179 180 179 177 177 177 174 148 84 69 126 162 170 173 177 178 179 179 177 177 178 177 176 176 174 150 92 116 166 176 177 177 176 176 175 174 175 176 176 176 175 175 175 175 180 178 179 179 180 179 179 179 179 177 176 177 176 171 137 71 62 82 110 145 166 176 177 178 177 177 178 177 177 175 172 141 87 122 168 176 176 176 176 175 175 174 174 175 176 176 176 175 174 174 180 180 179 180 179 179 179 179 178 178 177 177 177 176 173 144 95 68 60 70 101 138 164 170 170 171 173 174 175 175 163 116 85 139 171 175 175 175 174 175 175 175 174 174 176 176 175 175 174 174 179 179 179 179 180 180 180 179 178 179 178 178 176 176 176 174 169 158 135 104 83 78 90 118 140 134 133 140 151 147 126 91 108 156 175 177 176 175 175 175 174 174 174 174 175 175 175 174 174 174 178 179 179 180 179 180 180 180 179 179 179 179 178 176 176 176 175 175 173 168 159 149 138 125 127 125 105 95 100 92 81 98 144 168 176 177 177 177 175 175 175 175 175 174 175 175 175 174 174 174 179 180 180 179 177 179 181 179 179 179 179 178 177 177 177 177 178 177 177 176 175 174 173 172 171 167 161 145 134 128 132 150 169 174 176 176 176 176 176 175 175 176 175 174 173 174 174 173 174 174 179 180 180 178 178 178 180 179 178 178 179 179 179 178 178 179 178 178 178 178 176 177 177 177 175 177 176 174 173 174 175 176 175 175 175 175 176 175 175 175 176 175 175 174 174 174 174 173 172 172 180 181 180 179 178 178 179 178 178 178 179 179 178 178 177 178 178 177 176 177 176 177 177 177 177 178 178 177 176 176 175 176 177 175 175 176 176 175 175 175 175 175 175 175 174 174 172 172 171 171 3
