"This" is okay

"Is" is okay

"a" is okay

"handwereI/I" is incorrect!
   suggestions:
    ..."handwritten"
    ..."handwrites"
    ..."handwrite"
    ..."Landwehr's"
    ..."handwoven"
    ..."Landwehr"
    ..."handwritings"
    ..."handwriting"

"Example" is okay

"{or" is okay

"GOCR." is incorrect!
   suggestions:
    ..."GOER"
    ..."OCR"
    ..."G OCR"

"HrHC" is incorrect!
   suggestions:

"as" is okay

"300d" is incorrect!
   suggestions:

"as" is okay

"you" is okay

"Can." is okay

