3.jpg.txt => %80
3.jpg_1E1.png.txt => %0
3.jpg_1E.png.txt => %0
3.jpg_1G.png.txt => %0
3.jpg_1L.png.txt => %0
3.jpg_1M.png.txt => %46
3.jpg_2E1.png.txt => %0
3.jpg_2E.png.txt => %0
3.jpg_2G.png.txt => %0
3.jpg_2L.png.txt => %0
3.jpg_2M.png.txt => %23
3.jpg_3E1.png.txt => %0
3.jpg_3E.png.txt => %0
3.jpg_3G.png.txt => %0
3.jpg_3L.png.txt => %0
3.jpg_3M.png.txt => %46
