 

 

new

K:,éxagíáá \ , sm. « ,, ,
. _ ?aayggwáw

   

   

    

 

en? ».aa!»ííáfA_?».«áeiáíxánmwaááááaáaw}? sgaknriiwyalmímgñéwanwásr +a$x$t>é$h$íeñwgí gainez? «

 

;

 

\»

     

     

 

.A
, a
\
4, ,
_. W
;\ «» fi Judu * ,
%mw3á2 __ ,
w
a
,\
W.
\
_
_
__
_
\
__v W.
» ,
\ m
.? _.
_
a
_
\

 

